time;NMSGrein_SR04rH_018a3c3a_tem-ms1
2019-11-26 15:04:35;24.0
2019-11-26 15:54:03;24.64
2019-11-27 06:14:18;25.76
2019-11-27 06:59:18;24.96
2019-11-27 08:58:45;24.64
2019-11-27 10:01:43;24.48
2019-11-27 12:16:30;24.48
2019-11-27 13:56:37;24.64
2019-11-27 14:32:35;24.48
2019-11-27 15:33:19;24.8
2019-11-27 16:40:46;24.64
2019-11-27 17:39:14;24.64
2019-11-28 06:28:03;25.76
2019-11-28 06:55:03;24.8
2019-11-28 08:07:01;24.48
2019-11-28 10:22:47;24.64
2019-11-28 10:58:45;24.64
2019-11-28 11:34:44;24.64
2019-11-28 12:15:12;24.48
2019-11-28 13:09:09;24.48
2019-11-28 14:12:06;24.32
2019-11-28 14:57:04;24.48
2019-11-28 15:55:32;24.8
2019-11-28 16:31:31;24.8
2019-11-29 06:10:31;25.76
2019-11-29 06:55:31;24.96
2019-11-29 10:29:02;24.64
2019-11-29 11:05:01;24.64
2019-11-29 12:48:27;24.64
2019-11-29 13:28:56;25.12
2019-11-29 15:25:54;25.44
2019-11-29 16:01:53;24.64
2019-11-30 12:03:13;24.48
2019-12-01 09:37:06;24.16
2019-12-01 10:26:32;24.16
2019-12-01 11:33:59;24.32
2019-12-01 12:50:24;24.16
2019-12-02 06:09:40;24.32
2019-12-02 06:41:08;23.84
2019-12-02 06:59:07;23.52
2019-12-02 12:02:45;23.36
2019-12-02 14:47:50;23.36
2019-12-02 15:32:47;23.68
2019-12-02 16:31:12;24.48
2019-12-03 06:06:25;24.8
2019-12-03 06:46:53;24.0
2019-12-03 07:00:22;23.2
2019-12-03 08:03:17;23.36
2019-12-03 10:01:41;23.36
2019-12-03 10:46:37;23.36
2019-12-03 11:36:03;23.36
2019-12-03 12:43:25;22.88
2019-12-03 13:37:19;22.88
2019-12-03 14:53:40;22.56
2019-12-03 16:05:31;22.24
2019-12-03 16:54:54;22.24
2019-12-03 17:30:50;22.24
2019-12-03 18:06:45;22.24
2019-12-04 06:05:06;23.68
2019-12-04 06:36:34;22.88
2019-12-04 07:12:29;22.4
2019-12-04 09:05:12;22.56
2019-12-04 09:50:07;22.72
2019-12-04 10:26:03;22.56
2019-12-04 11:28:56;22.56
2019-12-04 12:31:50;22.56
2019-12-04 13:16:44;22.56
2019-12-04 14:28:38;23.36
2019-12-04 14:51:04;23.04
2019-12-05 06:14:38;23.36
2019-12-05 06:55:03;22.56
2019-12-05 09:54:38;22.72
2019-12-05 10:44:02;22.88
2019-12-05 11:37:56;22.88
2019-12-05 12:40:49;22.56
2019-12-05 13:48:11;22.4
2019-12-05 14:55:32;22.24
2019-12-05 15:04:59;22.4
2019-12-05 16:07:51;22.72
2019-12-05 16:55:25;22.56
2019-12-05 16:59:54;22.72
2019-12-05 17:35:50;22.4
2019-12-06 06:06:25;23.68
2019-12-06 06:46:51;22.72
2019-12-06 11:04:00;22.72
2019-12-06 11:39:56;22.72
2019-12-06 11:46:26;22.56
2019-12-06 14:07:27;23.2
2019-12-06 15:10:22;23.68
2019-12-07 10:53:59;22.88
2019-12-07 11:43:24;22.88
2019-12-08 09:15:37;23.2
2019-12-08 10:14:02;23.2
2019-12-08 11:25:55;23.2
2019-12-09 06:07:49;24.0
2019-12-09 06:52:46;23.2
2019-12-17 10:35:17;22.72
2019-12-17 11:24:42;22.56
2019-12-17 12:36:33;22.72
2019-12-17 13:12:29;22.72
2019-12-17 13:48:25;22.56
2019-12-17 14:08:59;22.56
2019-12-17 14:35:56;22.88
2019-12-17 15:34:20;22.72
2019-12-17 16:55:11;22.56
2019-12-17 17:11:02;22.72
2019-12-17 18:00:27;22.88
2019-12-18 06:04:32;24.48
2019-12-18 06:53:58;23.2
2019-12-18 10:02:10;22.24
2019-12-18 11:23:01;22.72
2019-12-18 11:58:57;22.4
2019-12-18 13:15:17;22.4
2019-12-18 13:55:43;22.56
2019-12-18 14:45:07;22.4
2019-12-18 15:21:02;22.4
2019-12-18 16:01:28;22.56
2019-12-18 16:41:53;22.88
2019-12-18 16:46:23;23.2
2019-12-18 16:59:52;23.2
2019-12-19 06:02:28;24.16
2019-12-19 06:56:26;23.84
2019-12-19 10:24:52;23.04
2019-12-19 11:00:49;22.88
2019-12-20 08:55:14;23.84
2019-12-20 10:07:08;23.52
2019-12-20 10:43:05;23.52
2019-12-20 11:46:00;24.48
2019-12-20 12:30:58;23.68
2019-12-20 13:22:13;23.68
2019-12-24 11:04:47;22.56
2019-12-24 12:03:11;22.56
2019-12-28 10:52:24;21.12
2019-12-28 12:13:11;21.12
2019-12-29 09:36:03;20.64
2019-12-29 10:20:55;20.64
2019-12-29 11:01:18;20.48
2019-12-30 09:15:22;21.6
2019-12-30 09:51:17;21.6
2019-12-30 11:03:06;21.76
2019-12-30 12:14:55;21.6
2019-12-31 09:40:40;21.28
2019-12-31 10:39:01;20.8
2019-12-31 11:46:18;20.32
2020-01-01 09:36:07;19.52
2020-01-01 10:47:51;19.52
2020-01-01 11:32:41;19.52
2020-01-02 07:46:57;20.48
2020-01-02 08:31:49;20.64
2020-01-02 09:07:42;20.8
2020-01-02 10:23:59;20.96
2020-01-02 11:08:50;20.32
2020-01-02 12:29:33;19.68
2020-01-03 09:28:35;20.32
2020-01-03 10:04:28;20.32
2020-01-03 10:53:49;20.32
2020-01-03 11:43:10;20.64
2020-01-03 12:19:03;20.48
2020-01-03 13:05:13;21.6
2020-01-03 14:03:35;22.4
2020-01-03 15:06:27;22.4
2020-01-03 15:37:53;22.72
2020-01-03 16:18:18;21.76
2020-01-05 10:05:52;21.76
2020-01-05 10:41:47;21.6
2020-01-05 12:02:35;21.76
2020-01-06 09:46:24;22.24
2020-01-06 11:07:13;22.24
2020-01-06 11:56:37;22.24
2020-01-07 06:01:39;23.84
2020-01-07 06:51:05;23.68
2020-01-07 08:34:28;24.16
2020-01-07 08:47:57;23.36
2020-01-07 09:32:52;22.56
2020-01-07 10:44:42;22.24
2020-01-07 11:20:38;22.56
2020-01-07 12:14:30;22.24
2020-01-07 12:50:25;21.76
2020-01-07 14:33:42;21.44
2020-01-07 15:14:05;21.44
2020-01-07 16:12:27;22.08
2020-01-07 16:21:26;22.88
2020-01-07 17:28:47;22.56
2020-01-08 06:12:44;23.84
2020-01-08 06:48:41;23.04
2020-01-08 07:24:37;22.4
2020-01-08 10:51:31;22.4
2020-01-08 11:27:27;22.56
2020-01-08 11:40:08;22.56
2020-01-08 12:43:00;22.56
2020-01-08 13:41:23;22.56
2020-01-08 14:44:16;23.04
2020-01-08 15:04:07;22.88
2020-01-08 16:15:59;23.04
2020-01-08 17:09:53;23.36
2020-01-09 06:00:52;23.84
2020-01-09 06:36:49;24.0
2020-01-09 06:50:18;23.2
2020-01-09 09:20:12;22.88
2020-01-09 10:29:51;23.2
2020-01-09 11:10:17;22.72
2020-01-09 12:22:09;22.4
2020-01-09 13:43:00;22.88
2020-01-09 14:41:22;22.08
2020-01-09 15:57:43;22.56
2020-01-09 16:24:40;23.04
2020-01-09 17:14:05;23.36
2020-01-10 06:35:24;24.16
2020-01-10 06:53:22;23.2
2020-01-10 07:33:48;23.04
2020-01-10 11:16:26;22.88
2020-01-10 12:37:17;22.56
2020-01-10 13:40:10;22.4
2020-01-10 14:20:35;23.04
2020-01-10 14:41:44;23.52
2020-01-10 15:13:12;23.84
2020-01-10 15:53:38;24.0
2020-01-10 16:52:04;23.2
2020-01-11 11:05:53;23.2
2020-01-11 12:17:47;23.2
2020-01-12 09:13:30;23.36
2020-01-12 10:02:56;23.36
2020-01-12 10:56:51;23.36
2020-01-12 11:55:15;23.36
2020-01-12 12:49:11;23.36
2020-01-13 06:02:48;24.8
2020-01-13 06:56:46;23.52
2020-01-13 09:01:08;23.2
2020-01-13 09:37:05;23.2
2020-01-13 10:17:31;23.36
2020-01-13 11:15:55;23.2
2020-01-13 12:14:19;22.4
2020-01-13 13:03:44;23.2
2020-01-13 14:06:38;23.04
2020-01-13 14:42:34;23.84
2020-01-13 15:54:30;24.48
2020-01-13 16:48:27;24.64
2020-01-13 17:37:55;24.8
2020-01-13 18:00:24;24.0
2020-01-14 06:12:52;24.8
2020-01-14 06:53:20;23.84
2020-01-14 10:26:58;23.52
2020-01-14 11:43:21;23.36
2020-01-14 12:32:46;23.2
2020-01-14 13:53:38;23.2
2020-01-14 14:11:37;22.4
2020-01-14 15:14:29;22.88
2020-01-14 16:26:01;23.68
2020-01-14 17:42:25;23.84
2020-01-15 06:24:53;24.64
2020-01-15 06:51:51;23.68
2020-01-15 10:18:37;23.52
2020-01-15 10:54:35;23.36
2020-01-15 11:57:29;23.04
2020-01-15 12:42:24;23.2
2020-01-15 14:36:20;23.36
2020-01-15 15:21:16;23.68
2020-01-15 16:19:41;23.52
2020-01-15 17:00:07;23.36
2020-01-16 06:32:21;24.64
2020-01-16 06:50:20;23.84
2020-01-16 07:30:46;23.68
2020-01-16 09:58:09;23.52
2020-01-16 10:34:06;23.52
2020-01-16 12:30:55;23.2
2020-01-16 13:06:51;23.36
2020-01-16 14:09:46;23.36
2020-01-16 14:59:11;23.2
2020-01-16 16:18:36;23.68
2020-01-16 16:59:03;23.84
2020-01-16 17:35:00;23.84
2020-01-17 06:09:22;24.48
2020-01-17 06:54:19;23.52
2020-01-17 08:01:43;23.2
2020-01-17 08:23:46;23.36
2020-01-17 09:17:40;23.36
2020-01-17 10:02:36;23.2
2020-01-17 11:23:29;23.2
2020-01-17 12:44:20;22.4
2020-01-17 13:29:15;23.36
2020-01-17 15:52:08;23.84
2020-01-20 06:13:30;25.44
2020-01-20 07:20:59;25.76
2020-01-20 11:42:23;24.48
2020-01-20 12:31:49;24.0
2020-01-20 13:52:44;24.16
2020-01-20 14:10:43;23.36
2020-01-20 15:30:01;24.16
2020-01-20 16:37:27;24.0
2020-01-20 17:13:25;24.16
2020-01-20 18:07:21;24.16
2020-01-21 06:29:07;25.12
2020-01-21 06:51:37;24.16
2020-01-21 07:50:03;24.0
2020-01-21 08:30:30;24.0
2020-01-21 09:37:55;23.84
2020-01-21 10:36:20;23.84
2020-01-21 11:16:47;23.84
2020-01-21 12:01:47;23.36
2020-01-21 12:55:38;23.52
2020-01-21 14:12:01;23.36
2020-01-21 15:01:27;23.52
2020-01-21 15:46:22;23.36
2020-01-21 16:58:16;23.52
2020-01-21 17:47:42;23.68
2020-01-22 06:31:23;24.8
2020-01-22 11:52:32;22.4
2020-01-22 13:11:21;23.2
2020-01-22 14:32:12;23.04
2020-01-22 15:30:36;23.36
2020-01-22 16:24:30;23.36
2020-01-22 17:09:26;23.36
2020-01-23 06:36:21;24.64
2020-01-23 06:58:50;23.68
2020-01-23 08:56:43;23.68
2020-01-23 09:55:08;23.68
2020-01-23 11:02:32;23.52
2020-01-23 11:51:58;23.68
2020-01-23 12:50:22;23.2
2020-01-23 13:57:46;23.36
2020-01-23 14:42:41;23.36
2020-01-23 15:36:36;23.36
2020-01-23 16:06:58;23.52
2020-01-23 16:47:24;23.36
2020-01-23 17:23:21;23.52
2020-01-27 10:58:10;23.52
2020-01-27 12:19:03;22.88
2020-01-27 12:59:28;23.36
2020-01-27 13:53:23;23.36
2020-01-27 14:06:53;23.2
2020-01-27 14:51:46;23.04
2020-01-27 15:32:16;22.88
2020-01-27 16:30:36;23.36
2020-01-28 06:09:40;24.8
2020-01-28 06:50:08;24.0
2020-01-28 09:04:56;23.84
2020-01-28 09:45:22;23.68
2020-01-28 11:01:46;23.68
2020-01-28 12:58:36;23.68
2020-01-28 14:50:54;23.52
2020-01-28 15:40:19;23.68
2020-01-28 16:56:44;23.68
2020-01-28 17:59:37;23.52
2020-01-29 06:04:58;24.8
2020-01-29 06:54:24;23.84
2020-01-29 07:16:52;23.84
2020-01-29 09:17:55;23.52
2020-01-29 09:51:58;24.0
2020-01-29 10:27:56;24.16
2020-01-29 11:12:53;24.32
2020-01-29 12:11:19;23.36
2020-01-29 13:27:42;23.84
2020-01-29 14:12:39;23.84
2020-01-29 15:11:04;23.68
2020-01-29 16:14:00;23.84
2020-01-29 17:03:25;23.68
2020-01-30 06:03:55;25.28
2020-01-30 06:53:24;24.8
2020-01-30 08:09:50;24.48
2020-01-30 09:02:46;24.64
2020-01-30 09:43:15;24.8
2020-01-30 10:50:41;24.64
2020-01-30 11:31:09;24.48
2020-01-30 13:37:01;24.32
2020-01-30 14:21:59;24.32
2020-01-30 15:06:57;24.16
2020-01-30 15:38:25;24.48
2020-01-30 16:23:23;24.64
2020-01-30 16:45:52;24.64
2020-01-31 06:06:55;24.8
2020-01-31 06:42:54;25.44
2020-01-31 06:56:24;24.8
2020-01-31 13:13:12;24.96
2020-01-31 13:58:10;25.12
2020-01-31 14:43:09;25.28
2020-01-31 16:04:08;25.76
2020-02-01 09:21:28;25.6
2020-02-01 10:33:27;25.6
2020-02-01 11:54:27;25.76
2020-02-01 13:01:59;25.92
2020-02-01 13:37:57;25.76
2020-02-02 09:58:32;26.08
2020-02-02 11:06:03;26.24
2020-02-02 11:42:04;26.24
2020-02-03 05:57:10;27.2
2020-02-03 06:33:16;27.52
2020-02-03 06:51:13;26.72
2020-02-03 07:18:14;26.24
2020-02-03 12:07:02;25.76
2020-02-03 12:25:02;25.6
2020-02-03 15:39:24;25.76
2020-02-03 15:57:24;25.76
2020-02-03 16:46:54;25.76
2020-02-03 17:31:54;25.92
2020-02-04 06:06:13;26.08
2020-02-04 06:46:44;26.24
2020-02-04 07:00:14;25.44
2020-02-04 08:20:11;25.76
2020-02-04 10:11:01;25.76
2020-02-04 11:50:00;25.44
2020-02-04 12:48:30;25.6
2020-02-04 14:13:59;25.28
2020-02-04 15:07:57;24.64
2020-02-04 16:41:29;25.44
2020-02-04 16:54:59;25.6
2020-02-04 17:26:28;25.6
2020-02-05 05:59:50;25.76
2020-02-05 06:35:50;26.24
2020-02-05 06:53:50;25.44
2020-02-05 10:57:21;24.96
2020-02-05 11:28:51;25.12
2020-02-05 12:27:18;24.96
2020-02-05 13:12:17;25.12
2020-02-05 13:57:16;25.12
2020-02-05 14:51:14;24.96
2020-02-05 15:34:39;25.6
2020-02-05 16:15:09;25.76
2020-02-05 16:42:08;25.28
2020-02-05 17:54:06;25.28
2020-02-06 06:02:38;26.08
2020-02-06 06:56:39;25.12
2020-02-06 09:38:23;25.28
2020-02-06 10:36:51;25.28
2020-02-06 11:35:19;25.28
2020-02-06 12:42:47;24.64
2020-02-06 12:51:47;23.52
2020-02-06 13:05:15;22.72
2020-02-06 13:41:11;23.52
2020-02-06 14:30:37;24.0
2020-02-06 16:16:39;24.64
2020-02-06 16:54:03;24.32
2020-02-07 06:00:48;25.76
2020-02-07 06:59:17;24.96
2020-02-07 09:49:25;24.96
2020-02-07 11:01:23;25.12
2020-02-07 12:22:19;25.12
2020-02-07 13:38:46;24.32
2020-02-07 14:32:43;24.96
2020-02-07 15:08:42;24.96
2020-02-08 08:41:00;25.12
2020-02-08 09:57:27;25.28
2020-02-08 10:51:25;25.28
2020-02-08 11:54:23;25.12
2020-02-08 12:34:51;25.28
2020-02-08 13:46:49;25.28
2020-02-09 08:33:55;25.44
2020-02-09 09:54:53;25.28
2020-02-09 11:15:51;25.44
2020-02-09 11:56:20;25.44
2020-02-09 12:45:48;25.44
2020-02-09 13:30:48;25.6
2020-02-09 14:42:46;25.44
2020-02-10 06:11:02;26.56
2020-02-10 06:51:32;25.76
2020-02-10 07:32:01;25.44
2020-02-10 08:08:00;25.28
2020-02-10 11:59:39;25.44
2020-02-10 12:35:38;25.28
2020-02-10 13:16:07;25.12
2020-02-10 15:21:39;25.44
2020-02-10 15:30:29;25.6
2020-02-10 15:34:59;25.76
2020-02-10 16:15:28;25.76
2020-02-10 17:27:27;25.6
2020-02-11 06:11:09;26.08
2020-02-11 07:00:39;25.28
2020-02-11 07:50:07;25.44
2020-02-11 08:53:06;25.44
2020-02-11 10:17:24;24.96
2020-02-11 16:03:38;25.28
2020-02-11 17:15:36;25.44
2020-02-11 18:14:05;25.44
2020-02-12 06:09:53;26.08
2020-02-12 09:55:13;25.44
2020-02-12 10:49:12;25.44
2020-02-12 11:47:41;25.44
2020-02-12 12:41:40;25.44
2020-02-12 13:35:39;25.6
2020-02-12 15:15:02;24.8
2020-02-12 15:23:36;25.28
2020-02-12 16:31:04;25.6
2020-02-13 06:10:49;26.08
2020-02-13 06:46:48;25.28
2020-02-13 07:27:17;25.44
2020-02-13 08:03:16;24.64
2020-02-13 08:21:16;25.44
2020-02-13 09:01:45;25.28
2020-02-13 10:09:13;25.44
2020-02-13 10:45:12;25.44
2020-02-13 11:30:11;24.64
2020-02-13 12:28:38;24.96
2020-02-13 13:27:05;25.12
2020-02-13 14:48:02;24.96
2020-02-13 16:49:19;24.96
2020-02-13 16:58:19;25.12
2020-02-14 06:12:36;25.76
2020-02-14 06:53:05;25.12
2020-02-14 14:06:09;25.6
2020-02-14 17:48:43;26.08
2020-02-15 08:00:52;26.08
2020-02-15 08:45:52;26.08
2020-02-15 09:53:22;26.08
2020-02-15 11:00:52;26.08
2020-02-15 12:21:52;26.08
2020-02-15 13:29:22;26.24
2020-02-15 14:05:22;26.24
2020-02-15 14:41:23;26.24
2020-02-16 08:02:06;26.24
2020-02-16 09:09:37;26.4
2020-02-16 10:03:38;26.4
2020-02-16 11:11:09;26.4
2020-02-16 12:18:39;26.4
2020-02-16 13:21:41;26.4
2020-02-17 07:39:12;26.72
2020-02-17 08:55:45;26.72
2020-02-17 10:03:16;27.04
2020-02-17 10:39:17;26.88
2020-02-17 11:33:18;26.88
2020-02-17 12:27:20;27.04
2020-02-17 13:43:53;27.04
2020-02-18 08:44:46;25.76
2020-02-18 10:05:46;25.44
2020-02-18 10:55:15;25.44
2020-02-18 11:58:14;25.28
2020-02-18 13:14:42;25.28
2020-02-18 14:22:10;25.28
2020-02-19 07:54:34;24.96
2020-02-19 08:57:32;25.12
2020-02-19 10:13:59;25.12
2020-02-19 11:03:27;25.12
2020-02-19 12:24:24;25.12
2020-02-20 07:35:50;24.32
2020-02-20 08:56:45;24.48
2020-02-20 09:37:13;25.28
2020-02-20 10:53:42;25.28
2020-02-20 11:56:39;25.12
2020-02-20 13:13:06;25.6
2020-02-20 14:34:06;25.92
2020-02-20 15:40:32;25.44
2020-02-20 15:58:31;25.6
2020-02-20 16:39:00;25.44
2020-02-21 08:54:41;25.28
2020-02-21 11:56:01;25.28
2020-02-21 13:03:29;25.28
2020-02-21 14:24:27;25.28
2020-02-22 08:00:07;25.6
2020-02-22 09:07:36;25.44
2020-02-22 10:10:35;25.6
2020-02-22 10:46:34;25.6
2020-02-22 12:07:33;25.76
2020-02-22 13:01:32;25.76
2020-02-22 13:55:32;25.76
2020-02-22 14:54:01;25.76
2020-02-24 06:03:26;27.36
2020-02-24 06:52:58;26.24
2020-02-24 10:09:32;26.08
2020-02-24 11:24:52;26.08
2020-02-24 12:36:52;25.92
2020-02-24 14:16:59;25.12
2020-02-24 16:03:32;25.92
2020-02-24 16:48:32;26.24
2020-02-24 17:24:33;26.24
2020-02-25 06:10:27;25.12
2020-02-25 06:46:25;24.48
2020-02-25 07:44:53;25.12
2020-02-25 09:05:50;24.96
2020-02-25 10:26:48;25.28
2020-02-25 10:49:17;24.64
2020-02-25 12:46:12;25.28
2020-02-25 13:40:10;25.44
2020-02-25 13:53:40;25.6
2020-02-25 14:11:40;25.6
2020-02-26 06:19:28;26.88
2020-02-26 06:41:58;26.08
2020-02-26 06:59:58;25.28
2020-02-26 08:40:34;25.76
2020-02-26 09:39:02;25.76
2020-02-26 11:00:01;25.76
2020-02-26 11:58:30;25.76
2020-02-26 13:05:59;25.6
2020-02-26 14:22:28;25.28
2020-02-26 15:16:26;25.28
2020-02-26 16:41:12;25.92
2020-02-26 17:57:41;25.6
2020-02-27 06:47:19;25.6
2020-02-27 09:11:09;25.76
2020-02-27 09:56:08;25.6
2020-02-27 11:03:37;25.6
2020-02-27 12:24:35;25.6
2020-02-27 13:36:34;25.6
2020-02-27 14:08:03;25.6
2020-02-27 15:20:01;25.28
2020-02-27 16:42:24;25.76
2020-02-28 06:11:36;26.24
2020-02-28 06:47:36;25.44
2020-02-28 07:41:34;25.44
2020-02-28 08:26:34;25.44
2020-02-28 11:26:27;25.44
2020-02-28 11:48:57;24.64
2020-02-28 12:29:25;24.96
2020-02-28 13:23:23;25.12
2020-02-28 14:03:56;25.28
2020-02-28 14:44:21;25.28
2020-02-28 15:33:50;25.28
2020-02-29 08:10:46;25.92
2020-02-29 09:31:46;26.08
2020-02-29 10:25:45;25.92
2020-02-29 11:01:45;26.08
2020-02-29 12:58:45;26.08
2020-02-29 14:01:45;26.08
2020-03-01 11:34:54;26.4
2020-03-01 12:28:55;26.4
2020-03-01 13:36:26;26.4
2020-03-01 14:52:57;26.4
2020-03-02 06:35:11;26.56
2020-03-02 06:53:11;25.6
2020-03-02 07:20:11;26.4
2020-03-02 08:41:12;26.24
2020-03-02 09:53:12;26.24
2020-03-02 10:38:13;26.4
2020-03-02 11:41:14;26.56
2020-03-02 12:17:14;25.92
2020-03-02 12:57:44;26.4
2020-03-02 13:51:44;26.56
2020-03-02 14:09:44;25.44
2020-03-02 14:41:14;26.24
2020-03-02 16:02:14;26.08
2020-03-02 16:42:44;26.4
2020-03-02 16:56:14;26.4
2020-03-02 17:05:14;26.4
2020-03-03 06:24:59;27.36
2020-03-03 06:52:00;26.4
2020-03-03 07:10:00;25.6
2020-03-03 07:46:00;26.08
2020-03-03 08:44:13;26.08
2020-03-03 11:12:43;25.76
2020-03-03 12:20:12;25.76
2020-03-03 13:36:36;25.44
2020-03-03 14:39:35;25.44
2020-03-03 15:20:03;25.28
2020-03-03 15:43:41;25.44
2020-03-03 16:46:39;25.76
2020-03-04 06:26:40;26.72
2020-03-04 06:49:11;25.92
2020-03-04 07:34:10;25.76
2020-03-04 08:46:10;25.92
2020-03-04 09:22:10;25.92
2020-03-04 10:38:39;26.08
2020-03-04 11:37:08;25.92
2020-03-04 12:17:37;25.6
2020-03-04 13:29:36;25.76
2020-03-04 14:14:35;25.12
2020-03-04 14:55:04;25.44
2020-03-04 16:10:33;25.76
2020-03-04 16:28:33;25.76
2020-03-04 17:09:02;25.76
2020-03-05 06:28:20;26.56
2020-03-05 06:55:20;25.6
2020-03-05 07:35:49;25.76
2020-03-05 08:29:48;25.76
2020-03-05 09:14:48;25.76
2020-03-05 10:08:47;25.76
2020-03-05 11:07:16;25.92
2020-03-05 11:52:17;25.76
2020-03-05 13:04:15;25.92
2020-03-05 14:25:13;25.6
2020-03-05 15:46:12;25.76
2020-03-05 16:58:11;26.08
2020-03-05 17:52:11;25.92
2020-03-05 18:41:41;26.08
2020-03-05 19:49:11;26.08
2020-03-05 21:01:11;26.08
2020-03-05 22:13:11;26.24
2020-03-05 22:58:11;26.24
2020-03-05 23:34:11;26.08
2020-03-06 00:55:11;26.24
2020-03-06 01:40:12;26.24
2020-03-06 02:20:42;26.24
2020-03-06 03:01:12;26.24
2020-03-06 03:41:42;26.4
2020-03-06 04:35:43;26.24
2020-03-06 05:47:43;26.24
2020-03-06 06:32:43;26.08
2020-03-06 06:55:14;25.6
2020-03-06 07:40:13;26.08
2020-03-06 08:38:43;26.08
2020-03-06 09:55:13;26.08
2020-03-06 11:16:12;26.08
2020-03-06 12:19:12;26.08
2020-03-06 13:13:12;26.08
2020-03-06 13:49:11;26.24
2020-03-06 14:34:11;26.08
2020-03-06 14:52:12;26.4
2020-03-06 15:59:42;26.56
2020-03-06 16:35:43;26.24
2020-03-06 17:25:13;26.24
2020-03-06 18:05:44;26.24
2020-03-06 18:50:44;26.4
2020-03-06 19:49:15;26.4
2020-03-06 20:52:15;26.4
2020-03-06 21:59:46;26.56
2020-03-06 23:20:47;26.24
2020-03-07 00:32:49;26.24
2020-03-07 01:44:48;26.4
2020-03-07 02:56:50;26.4
2020-03-07 04:13:20;26.4
2020-03-07 05:20:51;26.4
2020-03-07 06:32:52;26.24
2020-03-07 07:13:22;26.4
2020-03-07 08:20:53;26.4
2020-03-07 09:19:24;26.4
2020-03-07 10:22:25;26.4
2020-03-07 11:34:25;26.4
2020-03-07 12:32:56;26.4
2020-03-07 13:44:56;26.4
2020-03-07 14:47:57;26.4
2020-03-07 15:41:58;26.56
2020-03-07 17:03:00;26.56
2020-03-07 18:01:31;26.56
2020-03-07 19:00:02;26.56
2020-03-07 19:54:03;26.56
2020-03-07 20:39:04;26.4
2020-03-07 21:51:05;26.56
2020-03-08 09:12:31;26.56
2020-03-08 10:02:02;26.56
2020-03-08 10:38:02;26.56
2020-03-08 11:27:33;26.72
2020-03-08 12:30:34;26.56
2020-03-08 13:20:05;26.72
2020-03-08 14:27:37;26.72
2020-03-08 15:39:38;26.72
2020-03-09 07:40:23;26.08
2020-03-09 08:29:53;25.92
2020-03-09 09:10:23;25.92
2020-03-09 09:55:22;25.92
2020-03-09 10:44:52;26.08
2020-03-09 12:05:52;25.76
2020-03-09 12:59:51;25.92
2020-03-09 13:40:21;26.08
2020-03-09 14:11:51;25.28
2020-03-09 15:10:19;24.64
2020-03-09 16:17:54;25.44
2020-03-09 16:33:38;25.44
2020-03-09 17:41:06;25.12
2020-03-10 06:50:23;24.32
2020-03-10 07:48:49;24.48
2020-03-10 09:05:14;24.32
2020-03-10 10:21:38;23.84
2020-03-10 10:57:35;23.52
2020-03-10 11:42:30;23.68
2020-03-10 12:40:54;22.72
2020-03-10 13:43:46;22.4
2020-03-10 14:28:39;22.24
2020-03-10 15:35:59;22.4
2020-03-10 16:38:03;23.36
2020-03-10 16:56:01;23.68
2020-03-11 06:31:18;24.48
2020-03-11 06:53:47;23.84
2020-03-11 07:11:45;24.0
2020-03-11 08:19:11;24.16
2020-03-11 09:13:07;24.16
2020-03-11 09:53:34;23.36
2020-03-11 10:51:59;24.0
2020-03-11 11:59:24;24.0
2020-03-11 13:11:19;24.32
2020-03-11 13:56:17;24.32
2020-03-11 16:07:36;25.12
2020-03-11 16:43:35;25.12
2020-03-11 17:15:04;25.12
2020-03-12 06:16:49;26.08
2020-03-12 06:39:19;24.96
2020-03-12 06:52:48;24.48
2020-03-12 07:37:46;24.96
2020-03-12 08:31:44;24.96
2020-03-12 09:25:42;25.12
2020-03-12 10:42:10;25.12
2020-03-12 11:18:09;25.12
2020-03-12 12:34:36;24.96
2020-03-12 13:37:34;24.96
2020-03-12 14:49:32;25.12
2020-03-12 15:25:30;24.96
2020-03-12 17:00:59;25.6
2020-03-13 09:51:58;24.8
2020-03-13 10:27:56;24.8
2020-03-13 11:44:24;24.64
2020-03-13 12:24:52;24.8
2020-03-13 13:36:49;24.8
2020-03-13 14:48:47;25.12
2020-03-13 15:29:16;25.6
2020-03-14 06:15:37;24.96
2020-03-14 06:56:05;25.12
2020-03-14 07:32:04;24.96
2020-03-14 08:44:06;25.12
2020-03-14 09:24:31;25.12
2020-03-14 10:14:05;25.12
2020-03-14 11:03:28;25.12
2020-03-14 11:52:56;25.28
2020-03-14 13:00:24;25.28
2020-03-14 13:58:52;25.12
2020-03-15 06:12:45;25.12
2020-03-15 07:06:44;25.28
2020-03-15 08:27:42;25.44
2020-03-15 09:03:40;25.28
2020-03-15 10:15:38;25.44
2020-03-15 10:51:37;25.28
2020-03-15 11:59:05;25.28
2020-03-15 13:11:03;25.28
2020-03-15 14:05:01;25.28
2020-03-15 15:16:59;25.28
2020-03-16 06:07:38;26.72
2020-03-16 06:43:39;26.72
2020-03-16 07:01:39;25.76
2020-03-16 07:37:38;25.44
2020-03-16 08:40:36;25.44
2020-03-16 09:16:35;25.28
2020-03-16 10:28:32;25.44
2020-03-16 11:09:01;25.44
2020-03-16 11:49:30;25.6
2020-03-16 13:01:28;25.44
2020-03-16 13:59:57;25.44
2020-03-16 14:26:56;26.24
2020-03-16 15:29:57;26.24
2020-03-16 16:41:57;25.76
2020-03-16 17:49:26;25.6
2020-03-16 18:29:55;25.6
2020-03-16 19:05:54;25.6
2020-03-16 20:26:53;25.44
2020-03-16 21:29:51;25.44
2020-03-16 22:32:50;25.44
2020-03-16 23:35:48;25.6
2020-03-17 00:43:17;25.44
2020-03-17 01:46:15;25.44
2020-03-17 02:26:44;25.44
2020-03-17 03:11:42;25.28
2020-03-17 04:28:10;25.44
2020-03-17 05:04:09;25.28
2020-03-17 06:16:07;25.28
2020-03-17 07:14:34;24.96
2020-03-17 08:22:01;25.12
2020-03-17 08:57:59;25.12
2020-03-17 10:18:56;25.12
2020-03-17 10:54:54;25.12
2020-03-17 11:44:22;25.44
2020-03-17 12:20:21;25.28
2020-03-17 13:32:18;25.28
2020-03-17 14:48:46;25.28
2020-03-17 16:09:43;25.44
2020-03-17 16:45:42;25.44
2020-03-17 17:30:41;25.44
2020-03-17 18:24:39;25.44
2020-03-17 19:14:08;25.28
2020-03-17 20:35:05;25.44
2020-03-17 21:20:04;25.28
2020-03-17 22:41:02;25.44
2020-03-17 23:26:00;25.44
2020-03-18 00:10:59;25.28
2020-03-18 01:22:57;25.44
2020-03-18 01:58:56;25.28
2020-03-18 03:10:53;25.28
2020-03-18 04:31:50;25.28
2020-03-18 05:34:48;25.6
2020-03-18 06:51:15;25.12
2020-03-18 07:36:13;25.12
2020-03-18 08:57:09;25.28
2020-03-18 10:00:07;25.28
2020-03-18 10:58:35;25.44
2020-03-18 11:34:33;25.28
2020-03-18 12:55:30;25.44
2020-03-18 13:40:29;25.6
2020-03-18 14:52:26;25.44
2020-03-18 15:50:55;25.6
2020-03-18 17:11:53;25.6
2020-03-18 18:19:21;25.6
2020-03-18 19:31:20;25.6
2020-03-18 20:07:19;25.44
2020-03-18 21:05:48;25.6
2020-03-18 22:17:47;25.44
2020-03-18 23:11:45;25.6
2020-03-19 00:19:13;25.44
2020-03-19 01:13:12;25.44
2020-03-19 02:16:10;25.44
2020-03-19 03:10:09;25.44
2020-03-19 04:04:08;25.44
2020-03-19 05:58:03;25.44
2020-03-19 06:52:01;25.6
2020-03-19 08:04:00;25.6
2020-03-19 09:20:28;25.6
2020-03-19 10:41:26;25.76
2020-03-19 11:35:25;25.76
2020-03-19 12:29:23;25.6
2020-03-19 13:05:22;25.76
2020-03-19 13:50:21;25.6
2020-03-19 14:26:20;25.76
2020-03-19 15:15:49;25.76
2020-03-19 16:14:18;25.76
2020-03-19 17:26:23;25.76
2020-03-19 18:20:17;25.76
2020-03-19 19:05:16;25.76
2020-03-19 19:54:45;25.6
2020-03-19 21:11:14;25.6
2020-03-19 22:27:42;25.6
2020-03-19 23:44:11;25.6
2020-03-20 00:56:09;25.44
2020-03-20 01:41:08;25.44
2020-03-20 02:39:36;25.44
2020-03-20 03:38:05;25.44
2020-03-20 04:14:03;25.28
2020-03-20 05:55:15;25.44
2020-03-20 06:44:44;25.44
2020-03-20 07:38:42;25.44
2020-03-20 08:28:10;25.44
2020-03-20 09:08:39;25.44
2020-03-20 10:11:37;25.44
2020-03-20 11:01:05;25.44
2020-03-20 11:50:34;25.44
2020-03-20 12:26:32;25.44
2020-03-20 13:25:00;25.44
2020-03-20 14:14:29;25.44
2020-03-20 15:03:58;25.6
2020-03-20 16:11:26;25.44
2020-03-20 17:09:55;25.6
2020-03-20 18:17:24;25.44
2020-03-20 19:15:52;25.44
2020-03-20 20:09:51;25.44
2020-03-20 20:59:20;25.44
2020-03-20 21:53:19;25.28
2020-03-20 23:14:17;25.44
2020-03-20 23:54:46;25.44
2020-03-21 00:30:45;25.44
2020-03-21 01:11:14;25.28
2020-03-21 02:32:12;25.28
2020-03-21 13:28:04;25.12
2020-03-22 05:49:29;24.64
2020-03-22 07:05:55;24.8
2020-03-22 08:13:21;24.64
2020-03-22 09:16:18;24.64
2020-03-22 10:19:15;24.64
2020-03-22 11:22:14;24.64
2020-03-22 12:11:39;24.64
2020-03-22 12:47:37;24.64
2020-03-22 13:32:35;24.64
2020-03-22 14:13:03;24.48
2020-03-23 05:45:59;23.84
2020-03-23 06:21:56;23.84
2020-03-23 07:24:50;24.0
2020-03-23 08:32:14;23.84
2020-03-23 09:21:39;23.84
2020-03-23 10:06:35;23.84
2020-03-23 10:42:31;23.68
2020-03-23 12:03:23;23.68
2020-03-23 13:01:47;23.68
2020-03-23 14:04:40;23.52
2020-03-23 14:49:36;23.52
2020-03-23 16:05:57;23.52
2020-03-23 16:46:23;23.52
2020-03-23 17:26:49;23.52
2020-03-23 18:11:46;23.52
2020-03-23 19:01:09;23.52
2020-03-23 19:50:34;23.52
2020-03-23 21:11:25;23.36
2020-03-23 22:18:48;23.36
2020-03-23 23:17:12;23.52
2020-03-24 00:33:34;23.36
2020-03-24 01:27:28;23.36
2020-03-24 02:30:21;23.2
2020-03-24 03:51:12;23.2
2020-03-24 04:54:06;23.2
2020-03-24 06:10:26;23.2
2020-03-24 07:31:17;23.2
2020-03-24 08:07:12;23.36
2020-03-24 08:56:37;23.2
2020-03-24 09:59:29;23.2
2020-03-24 11:15:50;23.2
2020-03-24 12:23:12;23.2
2020-03-24 13:26:04;23.2
2020-03-24 14:33:26;23.04
2020-03-24 15:18:20;23.04
2020-03-24 16:07:44;22.88
2020-03-24 17:24:05;22.88
2020-03-24 18:40:25;22.72
2020-03-24 19:20:50;22.72
2020-03-24 19:56:45;22.56
2020-03-24 21:04:06;22.56
2020-03-24 22:02:28;22.4
2020-03-24 22:38:23;22.56
2020-03-24 23:32:15;22.4
2020-03-25 00:39:35;22.4
2020-03-25 01:46:56;22.08
2020-03-25 03:03:14;22.08
2020-03-25 04:10:34;22.08
2020-03-25 05:13:24;21.92
2020-03-25 05:58:16;22.08
2020-03-25 07:10:05;22.08
2020-03-25 08:08:26;21.92
2020-03-25 08:44:20;21.92
2020-03-25 09:24:44;22.08
2020-03-25 10:32:03;21.92
2020-03-25 11:12:26;22.08
2020-03-25 12:24:15;22.08
2020-03-25 13:27:05;22.08
2020-03-25 14:25:25;21.92
2020-03-25 15:05:49;21.76
2020-03-25 16:17:37;21.92
2020-03-25 17:33:54;21.76
2020-03-25 18:27:46;21.76
2020-03-25 19:30:34;21.76
2020-03-25 20:33:24;21.76
2020-03-25 21:22:45;21.6
2020-03-25 22:34:33;21.76
2020-03-25 23:23:54;21.6
2020-03-26 00:40:11;21.6
2020-03-26 01:51:59;21.44
2020-03-26 02:32:22;21.44
2020-03-26 03:30:41;21.28
2020-03-26 04:51:27;21.28
2020-03-26 06:07:43;21.28
2020-03-26 07:06:02;21.28
2020-03-26 08:08:51;21.28
2020-03-26 09:07:10;21.28
2020-03-26 10:01:00;21.28
2020-03-26 11:21:44;21.28
2020-03-26 12:42:29;21.44
2020-03-26 13:36:22;21.6
2020-03-26 14:39:08;21.6
2020-03-26 15:59:54;21.6
2020-03-26 17:07:13;21.6
2020-03-26 18:27:59;21.6
2020-03-26 19:03:53;21.76
2020-03-26 19:48:45;21.6
2020-03-26 21:09:32;21.76
2020-03-26 21:54:24;21.76
2020-03-26 22:43:46;21.76
2020-03-27 05:45:42;21.76
2020-03-27 06:21:36;21.92
2020-03-27 07:10:58;21.92
2020-03-27 08:31:45;22.08
2020-03-27 09:25:36;21.92
2020-03-27 10:14:58;22.08
2020-03-27 11:13:19;22.08
2020-03-27 12:11:41;22.08
2020-03-27 13:14:30;22.08
2020-03-27 14:17:21;22.08
2020-03-27 15:11:12;21.92
2020-03-27 15:56:05;22.08
2020-03-28 05:43:49;22.08
2020-03-28 06:46:40;22.4
2020-03-28 07:49:31;22.4
2020-03-28 09:05:51;22.4
2020-03-28 10:26:39;22.4
2020-03-28 11:02:34;22.4
2020-03-28 12:23:23;22.4
2020-03-28 13:03:47;22.4
2020-03-28 13:44:11;22.56
2020-03-28 14:29:05;22.4
2020-03-28 15:49:53;22.4
2020-03-29 05:59:09;22.56
2020-03-29 06:53:02;22.56
2020-03-29 07:51:24;22.56
2020-03-29 08:54:15;22.56
2020-03-29 09:57:07;22.72
2020-03-29 10:42:01;22.56
2020-03-29 11:53:52;22.56
2020-03-29 12:56:44;22.56
2020-03-29 13:59:35;22.56
2020-03-29 15:02:27;22.56
2020-03-30 08:58:45;22.56
2020-03-30 10:15:04;22.56
2020-03-30 11:08:57;22.4
2020-03-30 11:49:22;22.56
2020-03-30 12:38:45;22.4
2020-03-30 13:14:40;22.4
2020-03-30 13:55:05;22.4
2020-03-30 15:15:54;22.56
2020-03-30 16:18:46;22.4
2020-03-31 05:23:55;22.08
2020-03-31 06:26:46;22.08
2020-03-31 07:29:36;22.24
2020-03-31 08:14:29;22.24
2020-03-31 08:59:23;22.24
2020-03-31 09:48:45;22.24
2020-03-31 10:47:07;22.24
2020-03-31 11:35:21;22.24
2020-03-31 12:15:45;22.24
2020-03-31 13:09:38;22.4
2020-03-31 14:12:28;22.24
2020-03-31 14:57:22;22.24
2020-03-31 15:33:17;22.24
2020-04-01 05:24:21;21.76
2020-04-01 06:45:09;21.92
2020-04-01 08:05:56;21.92
2020-04-01 08:50:49;22.08
2020-04-01 10:07:07;22.08
2020-04-01 11:00:58;21.92
2020-04-01 11:50:20;22.08
2020-04-01 12:48:41;22.08
2020-04-01 13:47:02;22.08
2020-04-01 14:49:52;22.08
2020-04-01 15:43:43;21.92
2020-04-01 16:33:05;22.08
2020-04-01 17:26:57;22.08
2020-04-01 18:25:18;22.08
2020-04-01 19:37:07;21.92
2020-04-01 20:17:30;21.92
2020-04-01 21:02:23;21.92
2020-04-01 21:51:45;21.92
2020-04-01 23:12:32;21.76
2020-04-02 00:24:20;21.76
2020-04-02 01:36:08;21.76
2020-04-02 02:25:30;21.76
2020-04-02 03:19:21;21.6
2020-04-02 04:31:09;21.6
2020-04-02 05:51:55;21.76
2020-04-02 06:59:14;21.76
2020-04-02 07:53:05;21.92
2020-04-02 08:28:59;21.92
2020-04-02 09:49:46;21.92
2020-04-02 10:25:40;21.92
2020-04-02 11:46:27;21.92
2020-05-15 10:44:50;24.16
2020-05-15 11:43:17;24.64
2020-05-15 12:10:16;25.44
2020-05-15 12:19:16;25.44
2020-05-15 12:28:16;25.12
2020-05-15 13:04:15;25.6
2020-05-15 13:40:14;24.8
2020-05-15 14:20:43;24.8
2020-05-16 07:15:36;25.12
2020-05-16 12:17:05;25.44
2020-05-16 12:53:05;25.28
2020-05-16 14:14:03;25.44
2020-05-16 14:59:02;25.28
2020-05-17 07:51:22;25.44
2020-05-17 08:49:51;25.6
2020-05-17 10:01:50;25.6
2020-05-17 11:13:50;25.76
2020-05-17 11:58:50;25.6
2020-05-18 05:57:01;21.76
2020-05-18 06:10:30;22.72
2020-05-18 06:23:58;23.52
2020-05-18 07:08:55;24.32
2020-05-18 08:16:21;24.32
2020-05-18 09:14:49;25.12
2020-05-18 10:35:47;25.28
2020-05-18 10:53:46;25.28
2020-05-18 12:14:44;24.96
2020-05-18 13:53:40;25.12
2020-05-18 18:46:05;25.44
2020-05-18 23:52:01;25.6
2020-05-19 01:13:00;25.6
2020-05-19 02:25:00;25.6
2020-05-19 09:18:46;25.44
2020-05-19 10:17:15;25.44
2020-05-19 12:50:17;26.24
2020-05-20 01:08:29;26.08
2020-05-20 03:23:31;26.08
2020-05-20 10:08:35;26.08
2020-05-20 10:53:35;25.28
2020-05-20 18:32:43;26.24
2020-05-20 22:49:18;26.24
2020-05-21 00:55:21;26.24
2020-05-23 06:25:07;26.88
2020-06-03 10:43:28;25.28
2020-06-03 13:56:51;24.8
2020-06-03 14:10:21;25.28
2020-06-03 14:19:21;26.08
2020-06-03 14:28:21;26.72
2020-06-03 15:04:23;26.88
2020-06-04 06:40:14;23.84
2020-06-04 08:05:37;23.68
2020-06-04 08:46:04;24.48
2020-06-04 09:49:02;24.96
2020-06-04 10:47:30;25.12
2020-06-04 11:18:59;25.92
2020-06-04 12:35:30;25.44
2020-06-04 12:49:00;26.24
2020-06-04 13:29:30;26.56
2020-06-04 13:43:01;25.76
2020-06-04 14:05:31;25.6
2020-06-04 15:26:32;26.24
2020-06-04 16:07:03;25.92
2020-06-04 16:47:33;25.76
2020-06-04 17:41:33;25.76
2020-06-04 18:31:03;25.76
2020-06-04 19:16:03;25.6
2020-06-04 19:52:03;25.76
2020-06-04 20:37:03;25.76
2020-06-04 21:26:33;25.76
2020-06-04 22:16:04;25.6
2020-06-04 22:56:34;25.76
2020-06-04 23:55:04;25.76
2020-06-05 00:44:35;25.76
2020-06-05 01:29:35;25.76
2020-06-05 02:19:05;25.76
2020-06-05 03:13:05;25.6
2020-06-05 03:53:35;25.76
2020-06-05 04:43:06;25.76
2020-06-05 04:56:35;24.96
2020-06-05 05:10:05;24.32
2020-06-05 05:46:03;23.52
2020-06-05 06:26:35;24.32
2020-06-05 07:15:58;24.64
2020-06-05 12:12:47;24.64
2020-06-05 12:35:16;25.44
2020-06-05 14:05:17;25.76
2020-06-05 14:18:48;26.56
2020-06-05 14:27:48;26.56
2020-06-05 14:59:19;25.76
2020-06-05 16:11:19;25.44
2020-06-05 17:05:18;25.6
2020-06-05 18:17:18;25.44
2020-06-05 19:06:48;25.6
2020-06-05 20:14:18;25.44
2020-06-05 21:17:17;25.44
2020-06-05 22:06:47;25.6
2020-06-05 23:18:47;25.44
2020-06-06 01:29:17;25.6
2020-06-06 02:45:47;25.6
2020-06-06 04:56:17;25.76
2020-06-06 05:41:17;25.76
2020-06-06 06:35:17;25.76
2020-06-06 07:47:17;25.92
2020-06-06 09:48:47;25.76
2020-06-06 10:51:48;25.92
2020-06-06 11:27:48;25.92
2020-06-06 12:08:19;26.08
2020-06-06 13:15:49;25.92
2020-06-06 14:00:50;26.08
2020-06-06 15:12:52;26.08
2020-06-06 16:24:52;26.08
2020-06-06 18:26:24;26.08
2020-06-06 20:54:57;26.08
2020-06-06 22:11:29;26.08
2020-06-06 23:32:30;26.08
2020-06-07 00:53:32;26.24
2020-06-07 01:34:07;26.24
2020-06-07 02:10:04;26.24
2020-06-07 03:26:36;26.08
2020-06-07 05:37:09;26.4
2020-06-07 06:40:10;26.4
2020-06-07 12:22:24;26.72
2020-06-07 12:58:25;26.72
2020-06-07 14:14:58;26.72
2020-06-07 15:27:02;26.72
2020-06-07 16:34:35;26.72
2020-06-07 17:42:08;26.72
2020-06-07 19:03:11;26.72
2020-06-07 20:15:14;26.72
2020-06-07 22:30:20;26.72
2020-06-07 23:37:53;26.72
2020-06-08 00:58:56;26.72
2020-06-08 02:01:58;26.56
2020-06-08 02:56:00;26.56
2020-06-08 03:45:32;26.56
2020-06-08 04:39:34;26.56
2020-06-08 05:02:05;26.4
2020-06-08 05:11:05;25.6
2020-06-08 05:33:35;24.8
2020-06-08 06:27:33;24.96
2020-06-08 07:35:02;25.6
2020-06-08 10:12:31;25.76
2020-06-08 10:44:01;25.12
2020-06-08 11:06:30;24.16
2020-06-08 12:58:52;23.84
2020-06-08 13:21:21;24.8
2020-06-08 14:10:49;25.76
2020-06-08 15:31:51;26.08
2020-06-08 16:39:20;25.44
2020-06-08 17:19:50;25.44
2020-06-08 18:13:50;25.44
2020-06-08 19:12:20;25.6
2020-06-08 20:19:49;25.6
2020-06-08 21:40:49;25.6
2020-06-08 22:16:49;25.6
2020-06-09 07:37:27;26.24
2020-06-09 09:32:38;24.32
2020-06-09 10:44:36;24.48
2020-06-09 11:29:37;24.48
2020-06-09 12:03:48;24.96
2020-06-09 12:53:17;25.44
2020-06-09 13:42:47;25.6
2020-06-09 14:18:47;25.12
2020-06-09 14:54:47;25.92
2020-06-10 13:05:07;22.56
2020-06-10 13:27:35;22.88
2020-06-11 13:40:15;26.24
2020-06-11 14:16:16;26.08
2020-06-12 04:24:12;25.92
2020-06-12 04:55:42;25.12
2020-06-12 06:39:09;25.28
2020-06-12 08:00:09;25.92
2020-06-12 09:39:11;26.24
2020-06-12 10:28:43;26.4
2020-06-12 13:06:17;26.24
2020-06-12 13:46:48;26.24
2020-07-10 08:10:22;26.08
2020-07-10 09:04:24;26.88
2020-07-16 09:00:29;27.36
2020-07-17 05:27:01;28.32
2020-07-17 12:44:24;28.0
2020-07-17 13:29:28;27.36
2020-07-17 18:26:46;26.4
2020-07-19 13:34:16;26.08
2020-07-20 05:26:09;25.6
2020-07-20 07:54:46;26.72
2020-07-20 09:15:53;26.88
2020-07-20 10:14:28;27.36
2020-07-20 10:55:01;26.88
2020-07-20 11:40:04;26.88
2020-07-20 12:29:37;26.88
2020-07-20 13:28:11;26.88
2020-07-20 14:13:14;27.04
2020-07-20 14:53:48;27.04
2020-07-20 15:34:21;27.04
2020-07-20 16:19:25;27.52
2020-07-21 05:13:04;27.04
2020-07-21 06:02:38;27.04
2020-07-21 06:38:41;26.88
2020-07-21 07:28:14;27.36
2020-07-21 08:08:47;27.36
2020-07-21 09:07:23;27.68
2020-07-21 09:56:57;27.36
2020-07-21 10:33:00;27.52
2020-07-21 11:09:04;27.84
2020-07-21 11:54:08;27.68
2020-07-21 12:43:43;27.52
2020-07-21 13:24:17;27.68
2020-07-21 14:22:53;27.84
2020-07-21 15:07:58;27.68
2020-07-21 16:38:07;28.16
2020-07-22 05:17:49;24.96
2020-07-22 06:02:50;24.96
2020-07-22 06:11:50;25.76
2020-07-22 06:16:20;26.24
2020-07-22 06:43:21;27.04
2020-07-22 07:32:55;27.04
2020-07-22 08:22:31;27.04
2020-07-22 09:07:33;27.52
2020-07-22 09:57:08;28.32
2020-07-22 10:19:41;27.52
2020-07-22 11:22:48;28.16
2020-07-22 11:58:52;28.0
2020-07-22 12:52:58;28.16
2020-07-22 12:57:28;28.0
2020-07-22 14:00:35;28.16
2020-07-22 14:41:10;28.16
2020-07-22 15:26:15;28.0
2020-07-22 16:42:55;28.32
2020-07-23 05:11:31;27.68
2020-07-23 06:10:07;27.84
2020-07-23 07:26:46;28.16
2020-07-23 09:19:30;28.64
2020-07-23 12:28:55;28.48
2020-07-23 14:21:41;28.96
2020-07-23 15:06:47;28.8
2020-07-23 16:18:57;28.96
2020-07-23 17:04:04;28.96
2020-07-23 18:02:43;28.96
2020-07-23 19:01:22;28.96
2020-07-23 20:00:00;28.8
2020-07-23 21:12:09;28.64
2020-07-23 22:28:50;28.48
2020-07-23 23:36:28;28.32
2020-07-24 00:17:03;28.32
2020-07-24 01:29:11;28.16
2020-07-24 02:18:47;27.84
2020-07-24 03:03:51;28.0
2020-07-24 04:02:27;27.84
2020-07-24 04:38:31;28.0
2020-07-24 05:41:37;28.16
2020-07-24 07:02:46;28.16
2020-07-24 07:56:53;28.48
2020-07-24 08:46:29;28.64
2020-07-24 09:31:35;28.96
2020-07-24 10:07:40;28.96
2020-07-24 10:43:45;28.8
2020-07-24 11:51:24;28.96
2020-07-24 12:27:29;28.8
2020-07-24 13:44:11;28.96
2020-07-24 14:42:49;28.8
2020-07-24 15:54:59;28.64
2020-07-24 16:44:35;28.64
2020-07-24 17:34:12;28.64
2020-07-24 18:19:18;28.64
2020-07-24 19:04:24;28.48
2020-07-24 20:12:03;28.48
2020-07-24 21:01:39;28.48
2020-07-24 22:00:17;28.32
2020-07-24 22:40:52;28.32
2020-07-24 23:53:01;28.32
2020-07-25 00:33:36;28.32
2020-07-25 01:36:43;28.16
2020-07-25 02:17:18;28.16
2020-07-25 02:57:53;28.16
2020-07-25 03:33:57;28.16
2020-07-25 04:14:31;28.0
2020-07-25 05:22:09;28.16
2020-07-25 06:02:43;28.16
2020-07-25 07:23:53;28.16
2020-07-25 08:13:29;28.16
2020-07-25 09:12:06;28.32
2020-07-25 10:33:17;28.48
2020-07-25 11:40:55;28.48
2020-07-25 12:35:02;28.48
2020-07-25 12:57:35;28.96
2020-07-25 13:51:43;29.12
2020-07-25 14:54:52;28.96
2020-07-25 15:39:58;29.12
2020-07-25 16:43:08;29.12
2020-07-25 17:46:17;28.96
2020-07-25 18:26:53;28.8
2020-07-25 19:43:34;28.8
2020-07-25 20:46:43;28.64
2020-07-25 21:36:20;28.64
2020-07-25 22:16:55;28.48
2020-07-25 23:11:02;28.48
2020-07-26 00:18:41;28.48
2020-07-26 01:03:46;28.32
2020-07-26 01:44:21;28.16
2020-07-26 02:33:57;28.0
2020-07-26 03:37:03;27.84
2020-07-26 04:22:08;27.84
2020-07-26 05:43:16;28.0
2020-07-26 06:59:55;28.48
2020-07-26 07:49:31;28.48
2020-07-26 08:39:07;28.64
2020-07-26 10:00:18;28.64
2020-07-26 13:45:47;28.8
2020-07-26 14:39:55;28.96
2020-07-26 15:20:30;28.96
2020-07-26 16:14:38;28.96
2020-07-26 16:50:46;28.96
2020-07-26 17:26:49;29.12
2020-07-26 18:02:54;29.12
2020-07-26 19:24:07;28.96
2020-07-26 20:00:12;28.96
2020-07-26 20:49:50;28.96
2020-07-26 21:48:28;28.64
2020-07-26 22:38:05;28.8
2020-07-26 23:36:43;28.64
2020-07-27 00:53:24;28.64
2020-07-27 02:05:34;28.48
2020-07-27 03:04:11;28.48
2020-07-27 03:35:45;28.48
2020-07-27 04:20:50;27.84
2020-07-27 04:43:22;27.2
2020-07-27 05:28:26;27.04
2020-07-27 06:49:33;27.52
2020-07-27 08:06:11;27.84
2020-07-28 14:09:36;27.84
2020-07-28 14:27:38;28.0
2020-07-28 15:39:47;28.64
2020-07-28 16:20:23;28.64
2020-07-28 17:09:59;28.48
2020-07-28 18:17:39;28.48
2020-07-28 18:31:10;28.8
2020-07-28 19:16:16;28.48
2020-07-28 21:22:32;28.48
2020-07-28 22:25:40;28.32
2020-07-28 23:37:50;28.8
2020-07-29 00:36:28;28.48
2020-07-29 01:39:37;28.64
2020-07-29 02:56:17;28.32
2020-07-29 04:08:26;28.8
2020-07-29 05:02:34;28.48
2020-07-29 06:01:12;28.64
2020-07-29 06:46:18;28.48
2020-07-29 07:04:21;28.8
2020-07-29 08:30:03;28.32
2020-07-29 09:19:39;28.8
2020-07-29 09:33:11;28.64
2020-07-29 13:59:22;29.28
2020-07-29 14:53:31;29.44
2020-07-29 16:14:45;29.6
2020-07-29 17:08:54;29.76
2020-07-29 18:07:35;29.92
2020-07-29 19:19:49;29.92
2020-07-29 20:36:33;29.92
2020-07-29 21:17:11;30.08
2020-07-29 22:02:20;29.92
2020-07-29 23:19:04;29.92
2020-07-29 23:59:42;30.24
2020-07-30 00:35:49;30.08
2020-07-30 01:34:30;29.92
2020-07-30 02:15:08;30.08
2020-07-30 03:18:21;30.08
2020-07-30 04:21:33;29.92
2020-07-30 05:02:10;30.24
2020-07-30 06:14:24;30.24
2020-07-30 07:31:09;30.24
2020-07-30 08:20:49;30.4
2020-07-30 09:15:00;30.24
2020-07-30 10:04:39;30.24
2020-07-30 11:21:24;30.24
2020-07-30 12:33:38;30.24
2020-07-30 13:45:52;30.4
2020-07-30 14:58:07;30.56
2020-07-30 17:45:13;31.04
2020-07-30 18:21:21;31.04
2020-07-30 19:38:09;30.88
2020-07-30 20:27:50;31.04
2020-07-30 21:44:38;30.88
2020-07-30 23:28:31;31.04
2020-07-31 00:49:49;31.04
2020-07-31 02:02:06;30.88
2020-07-31 03:09:51;31.04
2020-07-31 06:55:41;31.04
2020-07-31 21:27:37;31.68
2020-08-01 00:55:29;31.52
2020-08-01 02:39:25;31.52
2020-08-01 04:00:46;31.36
2020-08-01 04:59:30;31.52
2020-08-01 06:07:17;31.52
2020-08-01 06:47:57;31.52
2020-08-01 08:04:46;31.68
2020-08-01 21:20:09;32.0
2020-08-01 23:40:17;32.0
2020-08-02 01:55:53;32.0
2020-08-02 09:36:56;32.0
2020-08-02 14:12:40;31.84
2020-08-02 15:24:59;31.52
2020-08-02 16:23:45;32.32
2020-08-02 17:40:36;32.16
2020-08-02 18:21:18;32.32
2020-08-02 19:29:06;32.16
2020-08-02 20:05:16;32.16
2020-08-02 20:45:58;32.16
2020-08-02 21:31:10;32.16
2020-08-02 22:11:51;32.0
2020-08-02 23:24:11;32.16
2020-08-03 00:13:55;32.0
2020-08-03 02:15:58;32.16
2020-08-03 02:56:40;32.16
2020-08-03 03:37:21;32.0
2020-08-03 04:49:40;32.0
2020-08-03 05:57:29;32.16
2020-08-03 06:38:10;32.0
2020-08-03 09:16:23;32.16
2020-08-03 09:52:33;32.0
2020-08-03 10:55:50;32.16
2020-08-03 11:41:03;32.16
2020-08-03 13:56:39;32.16
2020-08-03 14:32:49;32.16
2020-08-03 16:39:24;32.16
2020-08-03 18:18:51;32.0
2020-08-03 19:40:13;32.0
2020-08-03 20:48:01;32.0
2020-08-03 21:46:47;32.0
2020-08-04 00:06:54;32.0
2020-08-04 01:46:20;31.84
2020-08-04 03:07:42;31.68
2020-08-04 04:15:29;31.68
2020-08-04 06:40:08;31.68
2020-08-04 09:31:51;31.84
2020-08-04 12:46:11;31.52
2020-08-04 13:22:20;31.52
2020-08-04 14:03:00;31.68
2020-08-04 16:41:10;31.52
2020-08-04 19:01:14;31.52
2020-08-04 20:04:30;31.52
2020-08-04 21:21:19;31.36
2020-08-05 11:15:37;31.2
2020-08-05 12:23:23;31.2
2020-08-06 06:26:14;30.88
2020-08-06 07:34:00;31.04
2020-08-06 08:14:39;31.04
2020-08-06 08:50:47;31.04
2020-08-06 09:35:57;31.04
2020-08-06 10:25:38;30.88
2020-08-06 11:33:24;31.04
2020-08-06 12:18:34;31.04
2020-08-06 12:59:13;31.2
2020-08-06 13:53:26;31.2
2020-08-06 15:10:14;31.2
2020-08-06 16:13:30;31.36
2020-08-07 06:12:12;31.52
2020-08-07 07:33:32;31.52
2020-08-07 08:45:50;31.52
2020-08-07 09:58:07;31.2
2020-08-07 11:19:27;31.2
2020-08-07 12:31:43;31.2
2020-08-07 13:30:27;31.2
2020-08-07 14:29:11;31.04
2020-08-07 15:14:21;31.04
2020-08-07 16:04:03;31.36
2020-08-07 16:44:43;31.2
2020-08-07 17:57:00;31.36
2020-08-07 18:55:45;31.68
2020-08-10 22:51:24;32.16
2020-08-10 23:36:37;32.16
2020-08-11 00:21:50;32.16
2020-08-11 00:58:00;32.16
2020-08-11 01:43:12;32.32
2020-08-11 02:46:29;32.0
2020-08-11 03:58:49;32.16
2020-08-11 04:39:31;32.16
2020-08-11 05:15:41;32.16
2020-08-11 05:51:51;32.16
2020-08-11 06:32:32;32.16
2020-08-11 07:13:13;32.16
2020-08-11 08:02:57;32.16
2020-08-11 09:01:44;32.16
2020-08-11 09:55:59;32.16
2020-08-11 10:50:14;32.16
2020-08-11 11:30:55;32.32
2020-08-11 12:43:16;32.32
2020-08-11 14:00:08;32.32
2020-08-11 14:36:18;32.48
2020-08-11 15:21:32;32.32
2020-08-11 15:57:42;32.32
2020-08-11 16:38:24;32.16
2020-08-11 17:19:05;32.32
2020-08-11 17:55:16;32.48
2020-08-11 18:45:01;32.48
2020-08-11 19:25:43;32.32
2020-08-11 20:06:24;32.32
2020-08-11 20:47:06;32.48
2020-08-11 21:59:28;32.48
2020-08-11 23:11:48;32.32
2020-08-12 00:19:38;32.32
2020-08-12 01:36:30;32.32
2020-08-12 02:39:47;32.32
2020-08-12 04:32:49;31.04
2020-08-12 05:17:59;31.04
2020-08-12 05:31:32;30.24
2020-08-12 05:58:37;29.92
2020-08-12 06:48:16;29.92
2020-08-12 07:24:22;30.72
2020-08-12 08:41:09;30.88
2020-08-12 09:26:20;31.04
2020-08-12 10:02:28;31.04
2020-08-12 10:38:36;31.04
2020-08-12 11:46:21;30.72
2020-08-12 14:28:56;30.72
2020-08-12 16:30:52;30.72
2020-08-12 17:52:09;30.72
2020-08-12 18:59:54;30.88
2020-08-12 20:03:08;30.88
2020-08-12 20:48:18;31.04
2020-08-12 21:33:29;31.2
2020-08-12 22:54:48;30.88
2020-08-13 00:02:34;30.88
2020-08-13 01:01:17;30.72
2020-08-13 02:09:02;30.56
2020-08-13 03:03:13;30.4
2020-08-13 04:19:59;30.4
2020-08-13 04:38:02;29.6
2020-08-13 05:45:43;29.44
2020-08-13 06:35:20;28.96
2020-08-13 07:02:24;28.48
2020-08-13 07:38:29;29.28
2020-08-13 08:10:04;30.08
2020-08-13 08:59:44;30.08
2020-08-13 09:58:25;30.24
2020-08-13 11:19:41;30.24
2020-08-13 11:55:48;30.24
2020-08-13 12:36:26;30.24
2020-08-13 13:21:35;30.56
2020-08-13 13:57:42;30.88
2020-08-13 14:33:50;31.2
2020-08-13 14:42:52;31.36
2020-08-13 15:00:57;31.36
2020-08-13 15:55:10;30.88
2020-08-13 16:08:43;30.88
2020-08-13 16:35:49;31.04
2020-08-13 17:30:02;31.04
2020-08-13 18:10:41;31.04
2020-08-13 19:27:28;30.72
2020-08-13 20:30:42;30.56
2020-08-13 21:15:51;30.56
2020-08-13 22:01:01;30.4
2020-08-13 23:13:15;30.24
2020-08-13 23:58:24;30.24
2020-08-14 01:15:09;30.08
2020-08-14 02:09:20;29.92
2020-08-14 03:30:35;29.76
2020-08-14 04:20:15;29.92
2020-08-14 05:18:55;29.12
2020-08-14 06:22:05;29.6
2020-08-14 07:29:47;30.08
2020-08-14 08:23:58;30.24
2020-08-14 10:12:21;30.72
2020-08-14 11:20:05;30.72
2020-08-14 12:27:50;30.72
2020-08-14 13:35:35;31.04
2020-08-14 14:56:54;30.88
2020-08-14 16:00:08;31.2
2020-08-14 17:07:54;31.2
2020-08-14 18:02:07;31.2
2020-08-14 19:23:27;31.36
2020-08-14 20:17:41;31.36
2020-08-14 21:11:54;31.36
2020-08-14 22:01:36;31.36
2020-08-14 22:55:50;31.36
2020-08-14 23:54:34;31.36
2020-08-15 00:48:48;31.52
2020-08-15 01:56:35;31.36
2020-08-15 02:55:20;31.52
2020-08-15 04:07:38;31.52
2020-08-15 05:10:54;31.52
2020-08-15 06:27:44;31.52
2020-08-15 07:03:53;31.52
2020-08-15 08:25:14;31.68
2020-08-15 09:10:26;31.68
2020-08-15 09:55:37;31.68
2020-08-15 10:58:54;31.68
2020-08-15 12:02:11;31.84
2020-08-15 13:14:30;31.84
2020-08-15 13:55:11;31.84
2020-08-15 14:31:20;31.84
2020-08-15 15:16:32;31.84
2020-08-15 16:28:52;31.84
2020-08-15 17:50:14;31.84
2020-08-15 18:35:28;31.84
2020-08-15 19:25:09;31.84
2020-08-15 20:05:51;31.84
2020-08-15 20:46:32;32.0
2020-08-15 21:45:18;31.84
2020-08-15 23:06:40;31.84
2020-08-15 23:42:50;31.84
2020-08-16 01:04:12;31.84
2020-08-16 02:25:34;31.84
2020-08-16 03:01:44;31.68
2020-08-16 04:09:32;31.84
2020-08-16 05:26:23;31.68
2020-08-16 06:29:39;31.68
2020-08-16 07:32:56;31.84
2020-08-16 08:13:37;31.84
2020-08-16 09:03:20;31.84
2020-08-16 10:15:38;31.84
2020-08-16 10:56:19;32.0
2020-08-16 12:08:38;32.0
2020-08-16 13:07:24;31.84
2020-08-16 13:57:06;31.84
2020-08-16 14:37:48;32.0
2020-08-16 15:32:01;32.0
2020-08-16 16:26:16;32.0
2020-08-16 17:25:01;31.84
2020-08-16 18:41:52;32.0
2020-08-16 19:45:09;32.0
2020-08-16 20:48:26;32.0
2020-08-16 22:00:46;32.0
2020-08-16 22:59:31;32.0
2020-08-17 00:20:53;32.0
2020-08-17 05:51:07;31.84
2020-08-17 06:40:51;32.0
2020-08-17 09:33:41;31.68
2020-08-17 10:33:46;31.84
2020-08-17 11:46:05;31.84
2020-08-17 13:02:55;31.84
2020-08-17 14:24:17;32.0
2020-08-17 15:27:34;32.0
2020-08-18 09:28:43;32.0
2020-08-18 10:13:55;32.0
2020-08-18 11:26:15;32.0
2020-08-18 12:43:06;32.0
2020-08-18 14:46:34;32.0
2020-08-18 15:49:52;32.0
2020-08-19 07:57:56;31.52
2020-08-19 08:34:05;31.68
2020-08-19 09:23:48;31.84
2020-08-19 10:36:07;31.68
2020-08-19 11:30:21;31.84
2020-08-19 12:47:11;31.68
2020-08-19 13:54:59;31.68
2020-08-19 14:40:11;31.84
2020-08-19 16:01:32;31.84
2020-08-20 05:08:14;31.2
2020-08-20 05:39:51;30.4
2020-08-20 06:15:59;31.2
2020-08-20 07:37:18;31.36
2020-08-20 08:13:27;31.36
2020-08-20 09:03:09;31.52
2020-08-20 10:19:58;31.52
2020-08-20 11:32:16;31.36
2020-08-20 12:26:29;31.52
2020-08-20 13:47:50;31.68
2020-08-20 14:37:33;31.84
2020-08-20 15:49:52;31.84
2020-08-20 16:30:32;31.68
2020-08-21 05:02:38;31.52
2020-08-21 05:47:50;31.52
2020-08-21 07:00:08;31.68
2020-08-21 07:49:50;31.68
2020-08-21 08:53:06;31.68
2020-08-21 09:56:22;31.52
2020-08-21 11:13:11;31.52
2020-08-21 11:49:20;31.52
2020-08-21 12:52:36;31.52
2020-08-21 14:09:25;31.52
2020-08-21 15:21:43;31.68
2020-08-21 16:20:28;32.0
2020-08-21 17:23:45;32.0
2020-08-21 18:45:08;32.16
2020-08-21 19:25:49;32.16
2020-08-21 20:06:30;32.0
2020-08-21 21:27:53;32.0
2020-08-21 22:49:15;32.16
2020-08-21 23:29:57;32.0
2020-08-22 00:51:19;32.0
2020-08-22 02:12:42;32.0
2020-08-22 03:29:33;32.0
2020-08-22 04:32:50;31.84
2020-08-22 05:22:33;31.84
2020-08-22 06:12:17;32.0
2020-08-22 07:29:08;32.16
2020-08-22 08:09:49;32.16
2020-08-22 08:59:33;32.32
2020-08-22 10:11:53;32.16
2020-08-22 11:06:08;32.16
2020-08-22 11:51:21;32.16
2020-08-22 12:41:04;32.16
2020-08-22 13:26:16;32.16
2020-08-22 14:11:29;32.32
2020-08-22 14:47:39;32.16
2020-08-22 15:41:54;32.16
2020-08-22 16:31:39;32.48
2020-08-22 17:44:00;32.32
2020-08-22 18:56:20;32.32
2020-08-22 19:59:38;32.32
2020-08-22 21:07:27;32.16
2020-08-22 21:48:09;32.16
2020-08-22 22:42:24;32.16
2020-08-22 23:27:37;32.16
2020-08-23 00:12:50;32.16
2020-08-23 00:58:02;32.16
2020-08-23 01:52:18;32.0
2020-08-23 03:09:09;32.16
2020-08-23 03:45:19;32.16
2020-08-23 05:42:52;32.0
2020-08-23 07:04:14;32.0
2020-08-23 08:03:00;32.32
2020-08-23 09:15:20;32.16
2020-08-23 09:51:30;32.16
2020-08-23 10:41:14;32.16
2020-08-23 11:17:24;32.16
2020-08-23 11:53:34;32.16
2020-08-23 12:38:47;32.0
2020-08-23 13:55:38;32.16
2020-08-23 14:45:23;32.32
2020-08-23 15:53:11;32.32
2020-08-23 16:56:29;32.32
2020-08-23 18:04:18;32.16
2020-08-23 19:03:05;32.16
2020-08-23 19:52:49;32.16
2020-08-23 20:51:36;32.0
2020-08-23 22:12:59;32.16
2020-08-23 22:53:40;32.0
2020-08-24 01:04:46;32.0
2020-08-24 02:17:05;32.0
2020-08-24 03:11:20;31.84
2020-08-24 04:23:38;31.04
2020-08-24 05:22:21;30.24
2020-08-24 06:34:35;30.24
2020-08-24 07:55:51;30.4
2020-08-24 08:54:32;30.4
2020-08-24 10:02:16;30.4
2020-08-24 11:19:02;30.56
2020-08-24 12:04:11;30.4
2020-08-24 15:45:24;30.4
2020-08-24 16:57:39;30.4
2020-08-24 18:00:51;30.24
2020-08-24 18:41:29;30.24
2020-08-24 19:26:38;30.24
2020-08-24 20:47:54;30.24
2020-08-24 22:04:39;30.08
2020-08-24 22:49:47;30.08
2020-08-24 23:39:27;29.92
2020-08-25 00:15:33;30.08
2020-08-25 01:00:42;29.92
2020-08-25 02:21:57;29.76
2020-08-25 03:20:38;29.92
2020-08-25 04:28:28;29.44
2020-08-25 05:27:07;28.96
2020-08-25 06:16:44;29.12
2020-08-25 07:24:23;29.12
2020-08-25 08:41:05;29.12
2020-08-25 09:17:10;29.12
2020-08-25 09:57:46;29.28
2020-08-25 11:00:56;29.44
2020-08-25 12:17:39;29.76
2020-08-25 13:16:19;29.92
2020-08-25 14:28:33;30.08
2020-08-25 15:36:16;30.4
2020-08-25 16:57:32;30.56
2020-08-25 17:42:42;30.56
2020-08-25 18:36:53;30.72
2020-08-25 19:44:38;30.72
2020-08-25 20:56:53;30.72
2020-08-25 22:13:39;30.72
2020-08-25 23:21:24;30.72
2020-08-26 01:14:18;30.72
2020-08-26 02:22:02;30.72
2020-08-26 03:43:19;30.56
2020-08-26 04:01:23;29.76
2020-08-26 06:12:08;27.84
2020-08-26 06:57:12;27.68
2020-08-26 07:55:47;28.48
2020-08-26 09:03:26;29.12
2020-08-26 10:20:07;29.28
2020-08-26 11:23:17;29.6
2020-08-26 12:17:26;29.6
2020-08-26 13:29:36;29.28
2020-08-26 14:23:44;29.28
2020-08-26 15:22:23;29.28
2020-08-26 16:25:33;29.28
2020-08-26 17:06:09;29.76
2020-08-26 18:00:19;30.08
2020-08-26 18:45:27;29.76
2020-08-26 19:21:33;29.44
2020-08-26 20:11:10;29.28
2020-08-26 21:05:18;28.96
2020-08-26 21:50:24;28.8
2020-08-26 22:58:02;28.32
2020-08-26 23:34:06;28.32
2020-08-27 00:37:12;28.0
2020-08-27 01:53:50;27.84
2020-08-27 03:14:57;27.52
2020-08-27 04:31:32;27.04
2020-08-27 05:21:05;27.2
2020-08-27 06:19:39;27.36
2020-08-27 07:13:44;27.68
2020-08-27 08:12:19;28.0
2020-08-27 09:24:27;28.32
2020-08-27 10:45:36;28.64
2020-08-27 11:57:44;28.64
2020-08-27 12:33:50;28.64
2020-08-27 13:14:24;28.8
2020-08-27 14:22:03;28.8
2020-08-27 15:25:11;28.96
2020-08-27 15:43:13;29.28
2020-08-27 16:19:18;28.96
2020-08-27 16:55:23;28.96
2020-08-27 17:40:30;28.8
2020-08-27 18:57:09;28.32
2020-08-27 19:33:13;28.16
2020-08-27 20:18:18;28.0
2020-08-27 21:16:53;27.68
2020-08-27 22:01:57;27.52
2020-08-27 23:09:32;27.04
2020-08-27 23:59:05;26.88
2020-08-28 00:44:07;26.72
2020-08-28 02:00:40;26.4
2020-08-28 03:08:13;26.24
2020-08-28 03:53:14;26.08
2020-08-28 05:00:45;25.76
2020-08-28 05:59:15;25.76
2020-08-28 06:57:45;25.92
2020-08-28 07:47:18;26.4
2020-08-28 08:45:49;26.72
2020-08-28 09:21:51;27.2
2020-08-28 10:38:26;27.36
2020-08-28 11:28:00;27.68
2020-08-28 12:13:03;27.68
2020-08-28 13:02:38;27.84
2020-08-28 13:43:11;27.84
2020-08-28 14:32:46;28.0
2020-08-28 15:49:23;28.16
2020-08-28 16:29:58;28.16
2020-08-28 17:24:04;28.48
2020-08-28 18:22:41;28.64
2020-08-28 19:07:47;28.8
2020-08-28 20:01:54;28.96
2020-08-28 20:42:30;28.96
2020-08-28 21:27:36;28.96
2020-08-28 22:17:13;29.12
2020-08-28 23:24:53;29.12
2020-08-29 00:37:03;29.28
2020-08-29 01:22:10;29.12
2020-08-29 01:58:15;29.28
2020-08-29 02:52:24;29.28
2020-08-29 03:55:33;29.44
2020-08-29 05:16:46;29.44
2020-08-29 06:33:28;29.28
2020-08-29 07:41:09;29.44
2020-08-29 08:26:16;29.44
2020-08-29 09:11:23;29.6
2020-08-29 10:10:03;29.6
2020-08-29 11:04:11;29.6
2020-08-29 11:58:20;29.6
2020-08-29 13:10:32;29.6
2020-08-29 14:31:46;29.92
2020-08-29 15:34:57;29.92
2020-08-29 16:47:10;29.92
2020-08-29 17:59:22;29.92
2020-08-29 19:07:05;29.92
2020-08-29 19:43:11;29.92
2020-08-29 20:50:53;29.76
2020-08-29 21:49:34;29.92
2020-08-29 23:10:48;29.76
2020-08-30 01:26:13;29.92
2020-08-30 02:33:55;29.92
2020-08-30 10:07:05;30.08
2020-08-30 10:47:43;29.92
2020-08-30 11:28:20;30.08
2020-08-30 12:27:02;30.08
2020-08-30 13:25:43;30.08
2020-08-30 15:08:57;30.08
2020-08-30 16:03:08;30.24
2020-08-31 04:33:59;28.96
2020-08-31 07:45:54;27.84
2020-08-31 08:31:43;28.0
2020-08-31 09:39:19;27.68
2020-08-31 10:42:25;28.32
2020-08-31 11:59:03;28.16
2020-08-31 12:39:38;28.64
2020-08-31 13:20:14;28.64
2020-08-31 14:00:49;28.8
2020-09-01 05:05:54;26.88
2020-09-01 06:04:26;26.24
2020-09-01 06:44:57;26.08
2020-09-01 07:16:29;27.04
2020-09-01 08:19:33;27.2
2020-09-01 09:31:38;27.2
2020-09-01 10:25:42;27.04
2020-09-01 11:10:45;27.2
2020-09-01 12:04:50;27.52
2020-09-01 13:16:56;27.52
2020-09-01 14:29:02;27.2
2020-09-01 15:45:39;27.52
2020-09-02 04:44:11;23.84
2020-09-02 05:02:10;23.68
2020-09-02 05:51:37;23.2
2020-09-02 06:11:39;23.68
2020-09-02 07:19:05;24.16
2020-09-02 08:26:32;23.68
2020-09-02 09:06:59;23.68
2020-09-02 09:56:26;23.68
2020-09-02 10:27:54;24.48
2020-09-02 11:21:53;25.28
2020-09-02 12:20:23;25.6
2020-09-02 13:32:24;25.76
2020-09-02 14:44:26;26.24
2020-09-02 15:24:58;26.4
2020-09-03 07:53:32;25.6
2020-09-03 08:20:33;26.4
2020-09-03 09:01:05;27.04
2020-09-03 09:37:08;27.04
2020-09-03 10:26:41;27.04
2020-09-03 11:16:14;27.2
2020-09-03 12:10:18;27.36
2020-09-03 14:20:59;27.52
2020-09-03 14:57:03;27.68
2020-09-03 15:42:07;27.68
2020-09-04 07:32:59;27.84
2020-09-04 08:45:06;28.16
2020-09-04 10:06:15;28.16
2020-09-04 10:46:49;28.16
2020-09-04 11:40:55;28.32
2020-09-04 12:57:34;28.48
2020-09-04 13:42:40;28.64
2020-09-04 14:54:49;28.8
2020-09-05 05:49:40;28.8
2020-09-05 06:39:17;29.12
2020-09-05 07:42:26;29.12
2020-09-05 09:03:38;28.96
2020-09-05 09:57:46;29.12
2020-09-05 11:09:56;28.96
2020-09-05 11:55:03;28.96
2020-09-05 12:53:41;29.28
2020-09-05 13:52:20;29.12
2020-09-05 14:28:26;29.12
2020-09-05 15:09:03;29.44
2020-09-07 04:31:32;28.8
2020-09-07 05:21:09;28.0
2020-09-07 05:48:12;26.88
2020-09-07 05:52:42;25.28
2020-09-07 05:57:12;25.12
2020-09-07 07:16:47;27.52
2020-09-07 08:33:24;27.68
2020-09-07 09:36:30;27.36
2020-09-07 13:29:41;28.16
2020-09-07 14:23:48;28.0
2020-09-08 05:46:02;25.76
2020-09-08 06:22:03;25.92
2020-09-08 07:11:34;25.92
2020-09-08 07:56:35;26.24
2020-09-08 08:14:36;25.44
2020-09-08 08:23:36;24.64
2020-09-08 08:41:35;23.84
2020-09-08 08:50:35;24.8
2020-09-08 08:59:35;25.6
2020-09-08 09:35:36;26.08
2020-09-08 10:52:08;26.4
2020-09-08 11:32:40;26.56
2020-09-08 12:31:13;26.4
2020-09-08 13:25:16;27.2
2020-09-08 14:41:52;27.36
2020-09-08 15:31:25;27.2
2020-09-08 16:34:29;27.04
2020-09-08 17:55:33;26.4
2020-09-08 18:49:35;25.76
2020-09-08 19:57:06;25.6
2020-09-08 20:33:07;25.6
2020-09-08 21:45:07;25.28
2020-09-08 23:01:37;24.96
2020-09-08 23:51:06;24.8
2020-09-09 00:31:35;24.48
2020-09-09 01:43:34;24.32
2020-09-09 02:19:32;24.16
2020-09-09 03:09:00;24.16
2020-09-09 04:02:57;23.68
2020-09-09 05:10:24;24.16
2020-09-09 05:59:52;24.32
2020-09-09 06:49:21;24.48
2020-09-09 07:38:49;24.48
2020-09-09 08:32:48;25.28
2020-09-09 09:40:19;25.76
2020-09-09 10:38:50;25.76
2020-09-09 11:41:51;26.08
2020-09-09 12:35:53;26.08
2020-09-09 13:29:55;26.4
2020-09-09 14:23:57;26.56
2020-09-09 14:41:59;27.36
2020-09-09 15:40:34;27.2
2020-09-09 16:43:37;26.72
2020-09-09 18:00:12;26.72
2020-09-09 18:36:14;26.72
2020-09-09 19:48:18;26.56
2020-09-09 20:42:21;26.56
2020-09-09 21:31:54;26.56
2020-09-09 22:21:27;26.56
2020-09-09 23:06:29;26.56
2020-09-10 00:27:33;26.4
2020-09-10 01:44:07;26.4
2020-09-10 02:38:09;26.24
2020-09-10 03:27:41;26.24
2020-09-10 04:17:13;26.24
2020-09-10 04:57:45;26.24
2020-09-10 05:15:45;25.44
2020-09-10 05:51:45;25.12
2020-09-10 06:14:15;24.64
2020-09-10 06:32:14;24.32
2020-09-10 07:03:43;24.16
2020-09-10 07:26:12;24.0
2020-09-10 07:53:11;23.68
2020-09-10 08:02:10;23.36
2020-09-10 08:42:37;22.88
2020-09-10 08:47:07;23.2
2020-09-10 08:56:07;24.48
2020-09-10 09:00:37;24.96
2020-09-10 09:23:06;24.32
2020-09-10 09:54:35;25.28
2020-09-10 10:30:35;24.96
2020-09-10 10:48:35;25.76
2020-09-10 11:29:06;25.44
2020-09-10 12:09:37;25.76
2020-09-10 13:03:39;25.92
2020-09-10 14:11:10;26.24
2020-09-10 14:51:42;26.24
2020-09-10 15:27:44;26.24
2020-09-10 16:03:45;26.56
2020-09-10 16:44:18;26.56
2020-09-10 17:38:21;26.72
2020-09-10 18:18:54;26.56
2020-09-10 19:12:57;26.72
2020-09-10 20:20:31;26.56
2020-09-10 21:14:34;26.56
2020-09-10 22:08:37;26.56
2020-09-10 22:44:39;26.4
2020-09-11 01:13:17;26.4
2020-09-11 02:07:19;26.24
2020-09-11 02:52:21;26.08
2020-09-11 03:55:24;26.4
2020-09-11 04:26:54;25.6
2020-09-11 05:43:25;25.28
2020-09-11 06:19:25;25.28
2020-09-11 07:17:55;24.96
2020-09-11 08:20:54;25.76
2020-09-11 09:28:25;25.76
2020-09-11 10:31:26;25.76
2020-09-11 11:29:57;25.92
2020-09-11 12:50:59;25.92
2020-09-11 13:40:31;26.08
2020-09-11 14:39:02;26.08
2020-09-11 15:33:04;26.08
2020-09-11 16:54:07;26.08
2020-09-11 18:15:11;26.24
2020-09-11 19:00:13;26.24
2020-09-11 19:45:15;26.24
2020-09-11 20:30:17;26.4
2020-09-11 21:24:20;26.24
2020-09-11 22:04:51;26.4
2020-09-11 23:07:54;26.4
2020-09-12 00:19:58;26.4
2020-09-12 01:23:01;26.4
2020-09-12 02:17:04;26.4
2020-09-12 03:24:37;26.4
2020-09-12 04:27:40;26.4
2020-09-12 05:21:43;26.4
2020-09-12 06:33:47;26.56
2020-09-12 07:27:50;26.56
2020-09-12 08:17:23;26.72
2020-09-12 09:24:57;26.72
2020-09-12 10:46:02;26.72
2020-09-12 12:07:06;26.88
2020-09-12 13:01:10;26.88
2020-09-12 13:55:13;26.88
2020-09-12 14:58:17;27.04
2020-09-12 16:10:22;27.04
2020-09-12 16:46:24;26.88
2020-09-12 17:53:59;27.04
2020-09-12 19:10:35;27.04
2020-09-12 20:27:11;27.04
2020-09-12 21:03:14;27.04
2020-09-12 21:43:47;27.04
2020-09-12 22:24:20;27.04
2020-09-12 23:45:26;27.04
2020-09-13 00:25:59;27.04
2020-09-13 01:47:05;27.04
2020-09-13 02:32:08;27.04
2020-09-13 03:12:41;27.04
2020-09-13 03:48:44;27.04
2020-09-13 05:00:49;27.04
2020-09-13 05:36:52;27.04
2020-09-13 06:12:55;27.04
2020-09-13 06:53:27;27.2
2020-09-13 07:52:02;27.2
2020-09-13 08:55:06;27.2
2020-09-13 10:07:12;27.36
2020-09-13 10:47:45;27.36
2020-09-13 11:41:50;27.36
2020-09-13 12:35:54;27.52
2020-09-13 13:43:29;27.36
2020-09-13 14:37:34;27.52
2020-09-13 15:54:11;27.52
2020-09-13 17:10:48;27.52
2020-09-13 18:31:56;27.52
2020-09-13 19:44:02;27.36
2020-09-13 20:42:37;27.52
2020-09-14 05:38:20;23.68
2020-09-14 05:56:19;23.84
2020-09-14 06:14:18;24.0
2020-09-14 06:41:18;24.32
2020-09-14 07:08:17;24.48
2020-09-14 08:11:16;24.64
2020-09-14 08:24:47;24.8
2020-09-14 08:29:16;24.96
2020-09-14 08:38:16;24.96
2020-09-14 08:51:46;25.6
2020-09-14 09:00:46;25.76
2020-09-14 09:09:46;25.92
2020-09-14 09:32:17;26.08
2020-09-14 10:17:18;26.4
2020-09-14 11:38:22;26.56
2020-09-14 12:27:55;26.56
2020-09-14 13:12:58;26.72
2020-09-14 14:34:02;26.72
2020-09-14 15:14:35;26.88
2020-09-15 05:40:20;25.28
2020-09-15 06:11:50;24.64
2020-09-15 06:20:50;24.32
2020-09-15 07:19:18;24.48
2020-09-15 07:50:48;25.28
2020-09-15 08:08:48;25.44
2020-09-15 08:44:49;25.92
2020-09-15 09:52:21;26.4
2020-09-15 10:46:24;26.72
2020-09-15 11:08:55;26.88
2020-09-15 12:02:59;27.04
2020-09-15 12:48:02;27.04
2020-09-15 13:42:06;27.36
2020-09-15 14:58:43;27.68
2020-09-15 15:48:18;27.68
2020-09-15 16:51:24;27.52
2020-09-15 18:03:31;27.36
2020-09-15 18:44:05;27.36
2020-09-15 19:38:09;27.36
2020-09-15 20:18:42;27.2
2020-09-15 21:17:17;27.2
2020-09-15 22:15:52;27.04
2020-09-15 23:05:25;27.04
2020-09-15 23:54:59;27.04
2020-09-16 00:44:33;27.2
2020-09-16 01:38:37;27.04
2020-09-16 02:23:40;27.04
2020-09-16 03:35:45;26.88
2020-09-16 04:43:20;26.24
2020-09-16 04:52:20;25.12
2020-09-16 05:14:49;24.32
2020-09-16 05:50:48;24.16
2020-09-16 06:35:47;24.0
2020-09-16 07:20:45;23.84
2020-09-16 07:56:43;24.64
2020-09-16 08:10:13;24.0
2020-09-16 08:55:11;24.48
2020-09-16 09:13:11;24.32
2020-09-16 09:44:41;24.96
2020-09-16 10:25:11;25.6
2020-09-16 11:28:13;25.76
2020-09-16 12:40:15;26.08
2020-09-16 13:38:48;26.4
2020-09-16 14:46:21;27.04
2020-09-16 15:26:55;27.84
2020-09-16 16:07:29;27.04
2020-09-16 17:15:04;26.88
2020-09-16 18:09:07;26.88
2020-09-16 18:54:10;26.72
2020-09-16 19:30:13;26.72
2020-09-16 20:06:15;26.88
2020-09-16 20:51:18;26.72
2020-09-16 22:07:53;26.72
2020-09-16 22:48:26;26.72
2020-09-17 00:09:31;26.72
2020-09-17 00:50:04;26.72
2020-09-17 02:02:08;26.72
2020-09-17 03:23:13;26.72
2020-09-17 03:59:16;27.52
2020-09-17 04:48:50;26.24
2020-09-17 05:02:20;25.76
2020-09-17 05:38:20;24.96
2020-09-17 06:50:19;24.8
2020-09-17 08:06:48;24.48
2020-09-17 08:47:17;25.44
2020-09-17 08:56:17;24.64
2020-09-17 09:05:17;25.44
2020-09-17 09:14:17;24.0
2020-09-17 09:36:46;24.8
2020-09-17 10:35:15;24.96
2020-09-17 11:02:15;25.44
2020-09-17 11:56:16;25.12
2020-09-17 13:03:46;24.8
2020-09-17 13:44:16;25.6
2020-09-17 14:02:17;26.56
2020-09-17 14:29:18;26.56
2020-09-17 15:00:50;26.72
2020-09-17 15:14:21;27.04
2020-09-17 15:54:55;26.56
2020-09-17 17:11:27;26.24
2020-09-17 17:47:29;26.24
2020-09-17 18:23:30;26.24
2020-09-17 19:04:02;26.08
2020-09-17 20:25:05;26.08
2020-09-17 21:46:08;26.24
2020-09-17 22:58:11;26.24
2020-09-17 23:29:43;26.24
2020-09-18 00:10:14;26.08
2020-09-18 00:59:46;26.24
2020-09-18 01:40:17;26.24
2020-09-18 02:16:19;26.08
2020-09-18 05:35:40;21.44
2020-09-18 06:11:35;21.44
2020-09-18 07:00:59;22.08
2020-09-18 07:54:53;20.64
2020-09-18 08:44:14;19.84
2020-09-18 09:47:02;19.84
2020-09-18 10:13:57;20.48
2020-09-18 10:40:53;21.28
2020-09-18 10:58:50;20.48
2020-09-18 11:39:14;21.44
2020-09-18 12:00:56;22.08
2020-09-18 12:15:09;22.56
2020-09-18 12:24:09;23.36
2020-09-18 13:04:37;24.32
2020-09-18 13:13:37;24.8
2020-09-18 13:36:06;24.96
2020-09-18 13:45:06;25.28
2020-09-18 13:58:36;24.64
2020-09-18 14:07:36;24.32
2020-09-18 15:01:34;25.12
2020-09-18 15:19:34;25.6
2020-09-18 15:42:04;25.76
2020-09-18 16:45:05;25.76
2020-09-18 17:39:07;25.6
2020-09-18 18:06:07;25.12
2020-09-18 19:18:06;24.96
2020-09-18 20:12:06;24.96
2020-09-18 21:10:35;24.96
2020-09-18 22:00:05;24.96
2020-09-18 22:54:05;24.96
2020-09-19 00:06:04;24.96
2020-09-19 01:00:04;24.96
2020-09-19 02:07:33;24.96
2020-09-19 02:57:03;24.96
2020-09-19 03:55:32;24.96
2020-09-19 05:03:01;24.96
2020-09-19 06:10:30;24.96
2020-09-19 07:13:30;24.96
2020-09-19 08:25:29;25.12
2020-09-19 09:10:29;25.12
2020-09-19 09:55:29;25.28
2020-09-19 10:58:28;25.28
2020-09-19 12:10:29;25.28
2020-09-19 13:31:28;25.44
2020-09-19 14:29:59;25.6
2020-09-19 15:41:59;25.6
2020-09-19 16:54:00;25.44
2020-09-19 17:57:01;25.6
2020-09-19 19:18:02;25.6
2020-09-19 20:30:03;25.6
2020-09-19 21:51:04;25.6
2020-09-19 23:07:35;25.44
2020-09-20 00:06:05;25.44
2020-09-20 01:00:05;25.6
2020-09-20 02:07:36;25.44
2020-09-20 03:10:36;25.44
2020-09-20 05:41:41;25.44
2020-09-20 06:44:41;25.44
2020-09-20 07:20:41;25.44
2020-09-20 08:01:11;25.44
2020-09-20 08:50:41;25.44
2020-09-20 09:53:41;25.6
2020-09-20 10:34:11;25.76
2020-09-20 11:23:41;25.6
2020-09-20 12:04:11;25.6
2020-09-20 12:44:41;25.76
2020-09-20 13:47:42;25.76
2020-09-20 14:37:12;25.76
2020-09-20 15:26:43;25.76
2020-09-20 16:29:44;25.76
2020-09-20 17:19:15;25.76
2020-09-20 18:26:46;25.76
2020-09-20 19:38:47;25.76
2020-09-20 20:32:48;25.6
2020-09-20 21:13:18;25.6
2020-09-20 22:34:19;25.6
2020-09-20 23:10:20;25.6
2020-09-21 00:22:20;25.6
2020-09-21 04:48:59;23.2
2020-09-21 05:11:26;22.4
2020-09-21 05:47:22;22.08
2020-09-21 06:09:49;22.08
2020-09-21 06:50:14;22.24
2020-09-21 07:39:39;22.56
2020-09-21 08:33:33;22.24
2020-09-21 09:13:59;22.88
2020-09-21 10:07:54;22.56
2020-09-21 10:48:20;22.88
2020-09-21 11:51:15;23.2
2020-09-21 13:03:09;23.52
2020-09-21 14:24:05;24.16
2020-09-21 15:09:03;24.16
2020-09-21 15:18:03;24.32
2020-09-21 15:31:32;24.16
2020-09-21 15:40:32;24.32
2020-09-22 05:00:02;23.2
2020-09-22 05:31:29;22.4
2020-09-22 05:58:26;22.4
2020-09-22 06:29:53;23.2
2020-09-22 06:47:52;23.04
2020-09-22 07:28:18;22.72
2020-09-22 07:37:17;22.4
2020-09-22 08:31:12;22.72
2020-09-22 08:44:41;21.92
2020-09-22 08:53:40;22.4
2020-09-22 09:11:38;22.24
2020-09-22 10:05:32;22.88
2020-09-22 10:41:30;23.36
2020-09-22 11:53:26;23.84
2020-09-22 12:15:55;23.84
2020-09-22 12:33:54;24.64
2020-09-22 13:09:53;24.32
2020-09-22 14:03:52;25.28
2020-09-22 14:39:51;24.48
2020-09-22 15:06:51;25.28
2020-09-22 15:24:52;26.08
2020-09-22 16:14:24;25.6
2020-09-23 05:05:59;24.48
2020-09-23 05:19:28;23.68
2020-09-23 05:37:27;23.2
2020-09-23 06:22:24;23.2
2020-09-23 07:11:50;23.2
2020-09-23 10:55:32;22.88
2020-09-23 12:16:26;22.88
2020-09-23 12:47:54;23.2
2020-09-23 13:50:49;22.88
2020-09-23 14:35:46;23.68
2020-09-23 14:40:16;24.48
2020-09-23 16:11:18;24.16
2020-09-23 16:55:30;23.52
2020-09-23 20:05:19;23.2
2020-09-24 05:01:38;22.72
2020-09-24 05:37:35;22.4
2020-09-24 06:49:28;22.24
2020-09-24 07:34:24;22.08
2020-09-24 08:41:47;21.76
2020-09-24 09:49:10;22.24
2020-09-24 10:11:39;23.04
2020-09-24 11:10:05;23.04
2020-09-24 11:28:04;23.2
2020-09-24 12:53:29;23.36
2020-09-24 13:33:56;23.36
2020-09-24 14:18:54;23.36
2020-09-24 14:41:23;24.16
2020-09-24 14:59:23;24.96
2020-09-24 15:30:53;25.44
2020-09-25 05:00:58;23.2
2020-09-25 05:41:25;22.56
2020-09-25 08:11:01;21.76
2020-09-25 09:03:33;21.92
2020-09-25 09:48:28;21.92
2020-09-25 10:37:53;22.88
2020-09-25 10:51:22;21.76
2020-09-25 12:25:39;21.6
2020-09-25 12:48:06;20.8
2020-09-25 13:06:04;21.6
2020-09-25 13:10:33;22.4
2020-09-25 13:56:55;22.72
2020-09-25 14:41:52;22.72
2020-09-27 06:57:16;22.56
2020-09-27 07:42:12;22.72
2020-09-27 08:22:39;22.72
2020-09-27 09:07:35;22.72
2020-09-27 09:57:00;22.72
2020-09-27 11:17:53;22.88
2020-09-27 12:16:17;22.72
2020-09-27 12:56:43;22.88
2020-09-27 13:55:08;22.88
2020-09-27 15:16:02;22.88
2020-09-28 05:02:59;21.12
2020-09-28 05:56:50;20.64
2020-09-28 06:55:10;20.8
2020-09-28 11:35:39;22.72
2020-09-28 12:15:21;22.4
2020-09-28 13:18:15;22.4
2020-09-28 14:25:38;23.36
2020-09-28 15:59:40;23.36
2020-09-29 05:10:55;23.68
2020-09-29 05:46:53;23.52
2020-09-29 07:07:48;23.36
2020-09-29 10:46:03;23.36
2020-09-29 12:06:57;23.36
2020-09-29 13:05:24;23.36
2020-09-29 14:12:49;23.36
2020-09-29 15:02:17;24.16
2020-09-29 16:09:44;23.84
2020-09-29 16:53:18;23.68
2020-09-29 17:51:44;23.52
2020-09-29 18:54:29;23.68
2020-09-30 05:07:21;24.0
2020-09-30 07:54:44;23.84
2020-09-30 08:44:12;23.84
2020-09-30 10:27:37;24.0
2020-09-30 11:48:34;24.0
2020-09-30 12:42:30;22.88
2020-09-30 14:03:24;23.2
2020-09-30 15:14:29;24.48
2020-09-30 16:17:27;24.32
2020-09-30 17:15:55;24.0
2020-10-01 05:49:38;21.44
2020-10-01 06:07:36;22.24
2020-10-01 07:54:23;23.36
2020-10-01 08:53:11;23.36
2020-10-01 09:56:06;23.36
2020-10-01 11:03:32;23.36
2020-10-01 13:13:54;23.68
2020-10-01 13:31:53;24.48
2020-10-01 14:25:52;24.16
2020-10-01 15:15:21;24.8
2020-10-01 16:27:19;24.48
2020-10-02 05:57:50;23.84
2020-10-02 07:00:48;24.48
2020-10-02 07:59:16;24.32
2020-10-02 08:39:45;24.32
2020-10-02 09:29:13;24.48
2020-10-02 10:36:42;24.64
2020-10-02 11:17:10;24.64
2020-10-02 11:39:40;24.64
2020-10-02 12:20:09;24.48
2020-10-02 12:33:38;23.52
2020-10-02 13:54:34;24.0
2020-10-02 14:30:32;23.84
2020-10-02 15:15:31;24.48
2020-10-02 16:09:29;24.48
2020-10-02 17:16:58;24.64
2020-10-02 17:57:27;24.64
2020-10-02 18:33:26;24.32
2020-10-02 19:22:55;24.64
2020-10-06 05:10:12;25.92
2020-10-06 07:58:11;25.6
2020-10-06 09:19:12;25.76
2020-10-06 10:22:13;25.76
2020-10-06 11:34:15;25.92
2020-10-06 13:31:17;25.92
2020-10-06 14:20:48;26.08
2020-10-07 07:28:31;25.76
2020-10-07 08:22:31;25.76
2020-10-07 09:21:02;25.6
2020-10-07 12:03:04;25.6
2020-10-07 13:10:35;25.44
2020-10-07 13:37:38;25.6
2020-10-07 14:04:38;24.8
2020-10-08 08:11:46;25.44
2020-10-08 08:56:46;25.28
2020-10-08 10:17:47;25.28
2020-10-08 11:34:17;25.44
2020-10-08 12:19:17;25.28
2020-10-08 13:40:17;24.48
2020-10-08 14:25:16;25.28
2020-10-09 06:14:49;24.96
2020-10-09 08:16:19;25.12
2020-10-09 09:01:18;25.12
2020-10-09 09:41:48;24.64
2020-10-09 10:31:17;24.64
2020-10-09 11:20:45;24.48
2020-10-09 12:41:44;25.12
2020-10-09 13:04:15;25.92
2020-10-09 13:58:16;25.28
2020-10-10 07:14:20;25.6
2020-10-10 08:30:51;25.76
2020-10-10 09:15:52;25.76
2020-10-10 10:09:53;25.76
2020-10-10 10:59:23;25.76
2020-10-10 11:53:24;25.76
2020-10-10 12:56:26;25.76
2020-10-11 10:20:30;25.92
;