time;NMSGrein_SR04rH_018a3c55_tem-ms1
2019-11-19 09:22:23;23.68
2019-11-19 10:29:48;24.0
2019-11-19 11:41:43;23.84
2019-11-19 11:55:12;23.84
2019-11-19 12:44:38;23.68
2019-11-19 16:06:51;23.36
2019-11-19 17:09:45;23.36
2019-11-19 17:59:11;23.36
2019-11-19 19:02:05;23.2
2019-11-19 19:38:02;23.2
2019-11-19 20:58:54;23.2
2019-11-19 22:15:16;22.88
2019-11-20 00:30:00;22.24
2019-11-20 01:05:55;22.08
2019-11-20 01:59:47;21.92
2019-11-20 02:35:42;21.76
2019-11-20 03:38:33;21.6
2019-11-20 04:14:27;21.44
2019-11-20 10:04:43;23.2
2019-11-20 10:27:11;23.2
2019-11-20 12:10:31;23.2
2019-11-20 12:46:27;23.04
2019-11-20 16:44:32;22.88
2019-11-20 17:42:55;22.72
2019-11-20 18:32:20;22.88
2019-11-20 19:26:14;22.88
2019-11-20 20:20:08;22.72
2019-11-20 21:54:28;22.88
2019-11-20 22:57:21;22.72
2019-11-20 23:33:17;22.72
2019-11-21 00:49:38;22.88
2019-11-21 01:43:32;22.72
2019-11-21 02:19:28;22.72
2019-11-21 02:59:53;22.72
2019-11-21 03:40:19;22.72
2019-11-21 05:37:05;22.72
2019-11-21 06:26:30;22.88
2019-11-21 07:38:22;23.36
2019-11-21 08:45:46;23.52
2019-11-21 15:12:12;23.52
2019-11-21 15:48:09;23.36
2019-11-21 16:55:33;23.36
2019-11-21 17:53:59;23.36
2019-11-21 19:41:49;23.36
2019-11-21 20:49:14;23.36
2019-11-21 21:43:09;23.36
2019-11-21 22:50:34;23.36
2019-11-22 01:45:49;23.52
2019-11-22 03:51:37;23.36
2019-11-22 04:59:01;23.36
2019-11-22 07:04:50;23.68
2019-11-22 07:36:18;24.0
2019-11-22 08:16:45;24.0
2019-11-22 10:27:05;23.84
2019-11-22 11:07:32;23.84
2019-11-22 13:17:51;23.68
2019-11-22 14:34:16;23.68
2019-11-22 15:37:11;23.52
2019-11-22 16:22:08;23.68
2019-11-22 17:20:33;23.68
2019-11-22 18:18:58;23.52
2019-11-22 18:59:25;23.36
2019-11-22 20:06:49;23.52
2019-11-22 21:23:12;23.52
2019-11-22 22:35:06;23.36
2019-11-22 23:24:31;23.2
2019-11-23 00:40:54;23.2
2019-11-23 01:57:17;23.04
2019-11-23 02:51:11;23.04
2019-11-23 03:49:36;23.2
2019-11-23 04:52:29;23.04
2019-11-23 05:41:55;23.04
2019-11-23 06:31:20;23.2
2019-11-23 07:47:43;24.0
2019-11-23 08:10:12;24.8
2019-11-23 09:26:40;25.44
2019-11-23 10:16:09;25.12
2019-11-23 11:01:07;24.96
2019-11-23 11:46:06;24.64
2019-11-23 12:31:03;24.64
2019-11-23 13:25:01;24.48
2019-11-23 14:32:27;24.16
2019-11-23 15:39:53;24.0
2019-11-23 16:15:51;24.16
2019-11-23 17:05:17;24.0
2019-11-23 18:26:12;23.84
2019-11-23 19:24:38;23.84
2019-11-23 20:09:34;23.68
2019-11-23 21:16:59;23.68
2019-11-23 22:15:25;23.68
2019-11-23 23:27:19;23.52
2019-11-24 00:16:45;23.52
2019-11-24 01:06:11;23.52
2019-11-24 01:55:37;23.68
2019-11-24 02:49:33;23.52
2019-11-24 03:34:29;23.52
2019-11-24 04:50:52;23.52
2019-11-24 05:31:19;23.52
2019-11-24 06:11:45;23.52
2019-11-24 07:32:38;23.68
2019-11-24 08:04:06;24.48
2019-11-24 09:47:33;24.96
2019-11-24 10:46:01;24.8
2019-11-24 11:21:59;24.64
2019-11-24 12:06:57;24.64
2019-11-24 12:42:56;24.48
2019-11-24 13:41:22;24.32
2019-11-24 14:17:20;24.16
2019-11-24 15:29:16;24.16
2019-11-24 16:18:43;24.0
2019-11-24 16:59:10;24.0
2019-11-24 17:39:38;24.0
2019-11-24 18:47:03;23.84
2019-11-24 19:31:59;23.84
2019-11-24 20:16:56;23.84
2019-11-24 20:52:53;23.84
2019-11-24 21:33:20;23.68
2019-11-24 22:45:15;23.68
2019-11-24 23:43:40;23.52
2019-11-25 01:44:59;23.52
2019-11-25 02:20:57;23.36
2019-11-25 03:19:22;23.36
2019-11-25 04:22:16;23.36
2019-11-25 07:13:02;23.84
2019-11-25 10:03:48;23.52
2019-11-25 13:17:06;24.0
2019-11-25 15:13:57;23.68
2019-11-25 16:30:22;23.68
2019-11-25 17:28:47;23.52
2019-11-25 18:04:44;23.68
2019-11-25 19:03:10;23.52
2019-11-25 19:48:06;23.52
2019-11-25 21:44:56;23.52
2019-11-25 23:01:20;23.52
2019-11-26 00:17:43;23.36
2019-11-26 01:20:37;23.36
2019-11-26 02:23:32;23.36
2019-11-26 03:12:57;23.36
2019-11-26 04:11:22;23.36
2019-11-26 05:09:47;23.36
2019-11-26 05:54:43;23.36
2019-11-26 07:02:08;23.68
2019-11-26 07:11:07;23.36
2019-11-26 08:00:32;22.72
2019-11-26 10:01:52;23.68
2019-11-28 07:02:59;24.0
2019-11-29 06:43:23;24.0
2019-12-02 11:47:41;23.36
2019-12-03 14:26:30;22.08
2019-12-03 16:32:13;22.4
2019-12-03 17:08:08;22.4
2019-12-03 18:28:58;22.4
2019-12-03 19:36:19;22.24
2019-12-03 20:30:12;22.4
2019-12-03 21:33:04;22.08
2019-12-03 22:49:23;21.76
2019-12-03 23:47:43;21.44
2019-12-04 01:39:54;20.96
2019-12-04 02:56:10;20.8
2019-12-04 03:41:02;20.8
2019-12-04 04:25:54;20.96
2019-12-04 05:28:43;20.96
2019-12-04 07:56:48;22.08
2019-12-05 07:03:58;21.76
2019-12-05 12:31:42;21.92
2019-12-09 12:25:12;22.4
2019-12-10 08:10:09;21.76
2019-12-10 09:57:54;22.88
2019-12-11 02:29:57;21.12
2019-12-11 06:59:10;21.44
2019-12-11 09:00:25;23.52
2019-12-11 09:58:50;23.2
2019-12-11 11:55:37;22.56
2019-12-12 11:20:06;21.44
2019-12-12 12:18:26;21.44
2019-12-12 12:54:22;21.92
2019-12-12 14:19:38;21.92
2019-12-12 14:37:35;21.76
2019-12-13 06:01:47;20.64
2019-12-13 06:46:39;20.8
2019-12-13 11:56:18;21.92
2019-12-13 13:35:02;21.28
2019-12-13 14:55:48;21.28
2019-12-13 20:18:51;21.12
2019-12-14 13:35:04;20.8
2019-12-14 15:36:11;20.64
2019-12-15 03:15:55;20.32
2019-12-15 09:41:39;21.44
2019-12-16 06:01:45;20.32
2019-12-16 08:52:13;21.12
2019-12-16 12:05:10;21.44
2019-12-16 12:18:38;21.44
2019-12-16 12:50:03;21.44
2019-12-16 13:48:23;21.28
2019-12-16 14:46:43;21.12
2019-12-16 15:49:32;20.96
2019-12-16 16:47:51;20.8
2019-12-16 17:32:43;20.8
2019-12-16 18:13:06;20.8
2019-12-16 19:02:27;20.8
2019-12-16 20:23:12;20.8
2019-12-16 20:59:05;20.64
2019-12-16 22:06:23;20.64
2019-12-16 23:09:11;20.64
2019-12-17 00:07:30;20.48
2019-12-17 01:23:45;20.48
2019-12-17 02:35:31;20.48
2019-12-17 03:47:17;20.48
2019-12-17 04:54:33;20.32
2019-12-17 06:42:12;20.48
2019-12-17 07:22:34;20.48
2019-12-17 07:40:30;21.12
2019-12-17 08:52:19;21.6
2019-12-17 10:44:31;21.92
2019-12-17 11:51:51;21.6
2019-12-17 11:56:20;21.6
2019-12-17 13:53:01;21.28
2019-12-17 15:00:19;21.12
2019-12-17 15:58:39;21.12
2019-12-17 16:52:30;21.12
2019-12-17 17:37:22;21.12
2019-12-17 18:40:11;21.12
2019-12-17 19:25:04;20.96
2019-12-17 20:41:20;20.96
2019-12-17 22:02:06;20.96
2019-12-17 23:13:53;20.8
2019-12-18 00:30:09;20.8
2019-12-18 01:50:54;20.64
2019-12-18 02:40:14;20.64
2019-12-18 03:43:03;20.48
2019-12-18 04:18:56;20.64
2019-12-18 05:08:16;20.48
2019-12-18 05:44:09;20.48
2019-12-18 06:51:27;20.8
2019-12-18 07:18:22;20.96
2019-12-18 10:08:49;20.64
2019-12-18 11:38:33;21.28
2019-12-18 12:14:27;21.12
2019-12-18 13:35:13;21.12
2019-12-18 14:29:04;20.96
2019-12-18 15:45:21;20.96
2019-12-18 17:06:07;20.96
2019-12-18 18:04:26;20.96
2019-12-18 19:07:15;20.96
2019-12-18 20:10:04;20.8
2019-12-18 21:03:55;20.96
2019-12-18 22:06:44;20.8
2019-12-18 23:36:27;20.64
2019-12-19 00:43:45;20.64
2019-12-19 01:37:35;20.64
2019-12-19 02:26:56;20.48
2019-12-19 03:07:18;20.64
2019-12-19 03:52:10;20.48
2019-12-19 04:32:32;20.48
2019-12-19 05:53:17;20.48
2019-12-19 07:00:34;20.64
2019-12-19 08:43:47;21.28
2019-12-19 09:19:41;21.28
2019-12-19 09:55:35;21.12
2019-12-20 08:08:31;21.92
2019-12-20 09:51:48;22.72
2019-12-20 10:41:12;22.24
2019-12-20 11:35:05;22.08
2019-12-20 21:27:43;21.76
2019-12-21 08:18:37;20.96
2019-12-22 13:40:43;18.56
2019-12-22 15:46:12;18.4
2019-12-22 22:02:34;18.08
2019-12-22 23:23:13;17.92
2019-12-24 01:39:51;16.96
2019-12-24 22:51:29;16.64
2019-12-25 12:03:53;16.32
2019-12-26 19:50:33;15.52
2019-12-27 17:23:35;14.88
2019-12-28 04:07:43;14.4
2019-12-28 10:23:23;14.4
2019-12-29 06:04:00;13.44
2019-12-29 08:13:39;13.76
2019-12-29 10:05:28;15.2
2020-02-10 15:27:20;22.08
2020-02-11 05:53:39;21.44
2020-02-11 10:23:03;22.72
2020-02-11 11:30:25;22.4
2020-02-11 11:52:52;22.4
2020-02-11 13:09:13;22.08
2020-02-11 15:28:24;21.92
2020-02-12 10:10:36;22.24
2020-02-12 10:46:31;23.2
2020-02-12 15:33:53;21.92
2020-02-12 15:38:22;22.08
2020-02-13 09:49:06;23.2
2020-02-13 16:06:22;22.24
2020-02-14 07:53:28;22.24
2020-02-14 16:07:21;22.08
2020-02-14 16:43:16;22.08
2020-02-24 06:54:05;21.76
2020-02-24 15:12:28;22.08
2020-02-25 08:02:26;22.24
2020-02-25 08:29:23;22.4
2020-02-25 11:55:52;22.24
2020-02-25 12:31:47;22.08
2020-02-26 06:29:08;21.92
2020-02-26 10:49:31;23.36
2020-02-26 11:47:55;22.88
2020-02-26 12:19:21;22.4
2020-02-26 13:13:13;22.08
2020-02-26 15:05:26;22.08
2020-02-26 15:32:23;22.24
2020-02-26 15:41:21;22.24
2020-02-26 17:02:10;22.24
2020-02-26 17:51:34;22.24
2020-02-26 20:10:44;22.08
2020-02-27 00:40:05;21.76
2020-02-27 01:42:56;21.76
2020-02-27 04:37:59;21.6
2020-02-27 06:07:45;21.76
2020-02-27 06:39:11;21.92
2020-02-27 11:13:08;22.72
2020-02-27 12:20:30;22.88
2020-03-02 07:59:42;23.04
2020-03-03 15:34:46;22.4
2020-03-04 06:50:44;22.24
2020-03-04 10:12:53;24.16
2020-03-04 10:21:53;24.32
2020-03-04 13:21:37;23.2
2020-03-04 14:02:03;23.04
2020-03-04 15:22:54;22.56
2020-03-05 06:02:55;21.92
2020-03-05 08:13:13;25.28
2020-03-05 08:26:43;25.12
2020-03-05 08:49:12;24.96
2020-03-05 08:58:11;24.64
2020-03-05 10:10:07;23.68
2020-03-05 13:18:45;23.04
2020-03-05 13:41:12;23.2
2020-03-05 15:02:02;22.4
2020-03-05 15:51:26;22.72
2020-03-06 06:00:02;22.24
2020-03-06 11:54:51;23.04
2020-03-06 12:48:44;22.72
2020-03-06 14:00:35;23.04
2020-03-06 14:41:01;22.88
2020-03-06 15:57:22;22.88
2020-03-06 18:12:07;22.88
2020-03-06 19:14:59;22.72
2020-03-06 19:55:24;22.72
2020-03-06 20:35:49;22.72
2020-03-06 23:13:00;22.72
2020-03-07 00:24:52;22.56
2020-03-07 01:27:44;22.56
2020-03-07 02:30:36;22.56
2020-03-07 03:24:29;22.56
2020-03-07 05:03:16;22.4
2020-03-07 05:39:12;22.56
2020-03-07 06:24:06;22.4
2020-03-07 07:00:01;22.4
2020-03-07 07:35:57;22.56
2020-03-07 09:14:44;22.56
2020-03-07 09:59:39;22.56
2020-03-07 10:49:02;22.56
2020-03-07 11:47:26;22.56
2020-03-07 12:50:17;22.72
2020-03-07 13:26:13;22.88
2020-03-07 14:20:07;22.72
2020-03-07 15:09:31;22.72
2020-03-07 17:28:44;22.72
2020-03-07 18:40:35;22.56
2020-03-07 19:38:58;22.56
2020-03-07 20:28:22;22.56
2020-03-07 21:13:16;22.56
2020-03-07 22:11:39;22.4
2020-03-07 22:52:04;22.4
2020-03-08 01:24:44;22.24
2020-03-08 02:23:06;22.24
2020-03-08 03:03:31;22.24
2020-03-08 03:43:56;22.24
2020-03-08 04:19:51;22.24
2020-03-08 05:00:15;22.08
2020-03-08 06:12:06;22.24
2020-03-08 06:52:30;22.08
2020-03-08 08:13:20;22.24
2020-03-08 09:02:44;22.4
2020-03-08 10:14:35;22.72
2020-03-08 12:02:23;22.88
2020-03-08 12:56:17;22.88
2020-03-08 14:35:06;22.88
2020-03-08 15:29:00;22.72
2020-03-08 16:09:25;22.72
2020-03-08 16:58:49;22.72
2020-03-08 18:15:09;22.56
2020-03-08 19:09:02;22.56
2020-03-08 21:05:47;22.4
2020-03-08 21:46:12;22.4
2020-03-08 23:07:01;22.4
2020-03-09 00:14:22;22.24
2020-03-09 00:59:16;22.08
2020-03-09 02:15:35;22.08
2020-03-09 04:16:47;21.92
2020-03-09 05:06:10;21.92
2020-03-09 05:42:04;21.92
2020-03-09 06:17:58;22.08
2020-03-09 08:14:43;22.72
2020-03-09 12:17:14;22.88
2020-03-09 12:21:43;23.04
2020-03-09 13:11:07;22.4
2020-03-09 14:18:28;22.4
2020-03-09 14:58:52;22.4
2020-03-09 16:06:13;22.56
2020-03-09 16:51:07;22.56
2020-03-09 18:20:55;22.4
2020-03-09 20:44:36;22.24
2020-03-09 21:29:30;22.24
2020-03-10 05:38:49;21.92
2020-03-10 06:50:39;22.24
2020-03-10 07:04:07;22.4
2020-03-10 09:14:27;24.0
2020-03-10 11:06:49;24.16
2020-03-10 11:33:47;23.84
2020-03-10 13:03:39;23.52
2020-03-10 13:44:06;23.52
2020-03-10 15:31:54;22.88
2020-03-11 04:55:47;22.72
2020-03-11 06:57:02;22.72
2020-03-11 08:22:22;23.04
2020-03-11 13:54:48;23.04
2020-03-11 14:35:14;23.04
2020-03-11 15:15:40;23.04
2020-03-11 15:29:08;23.2
2020-03-11 16:00:37;23.2
2020-03-11 16:14:04;23.2
2020-03-11 17:30:27;23.36
2020-03-11 18:19:53;23.2
2020-03-11 21:42:07;23.04
2020-03-11 23:16:24;23.04
2020-03-11 23:56:50;22.88
2020-03-12 01:08:42;22.88
2020-03-12 02:29:34;22.88
2020-03-12 03:50:25;22.88
2020-03-12 04:57:48;22.88
2020-03-12 05:51:42;22.88
2020-03-12 06:59:05;23.2
2020-03-12 07:53:01;24.0
2020-03-12 10:03:22;24.16
2020-03-12 13:30:06;24.16
2020-03-12 14:10:33;24.16
2020-03-12 15:35:57;23.52
2020-03-13 02:00:46;24.0
2020-03-13 06:48:27;24.0
2020-03-13 10:10:45;24.64
2020-03-13 11:40:40;24.32
2020-03-16 05:05:07;23.04
2020-03-16 06:52:56;25.44
2020-03-16 07:19:55;26.24
2020-03-16 08:00:25;27.04
2020-03-16 08:58:57;27.36
2020-03-16 10:02:00;27.2
2020-03-16 10:51:32;26.4
2020-03-16 17:13:53;24.8
2020-03-17 00:34:21;23.84
2020-03-17 01:10:18;23.68
2020-03-17 02:13:13;23.68
2020-03-17 03:20:36;23.52
2020-03-17 06:24:48;23.52
2020-03-17 14:30:21;24.0
2020-03-17 14:39:20;24.16
2020-03-17 15:42:15;24.32
2020-03-17 15:51:15;24.32
2020-03-17 17:03:10;24.32
2020-03-17 17:43:37;24.16
2020-03-17 19:35:58;24.0
2020-03-17 21:59:46;23.84
2020-03-17 22:35:43;23.68
2020-03-17 23:56:35;23.68
2020-03-18 02:06:53;23.68
2020-03-18 03:00:48;23.52
2020-03-18 04:53:06;23.36
2020-03-18 06:36:26;24.16
2020-03-18 10:30:22;26.72
2020-03-18 14:33:22;25.76
2020-03-18 21:54:05;24.48
2020-03-19 06:57:55;26.08
2020-03-20 02:58:27;22.88
2020-03-20 07:41:25;25.76
2020-03-20 12:24:53;25.28
2020-03-20 13:27:50;25.12
2020-03-20 14:08:19;24.96
2020-03-20 15:06:46;24.96
2020-03-20 21:42:16;23.36
2020-03-20 22:45:10;23.2
2020-03-21 01:31:22;22.88
2020-03-21 08:37:58;22.4
2020-03-21 10:57:08;22.24
2020-03-21 13:07:19;22.24
2020-03-21 17:14:13;21.92
2020-03-21 21:21:03;21.44
2020-03-21 22:50:48;21.28
2020-03-22 00:07:05;21.12
2020-03-22 06:19:24;22.24
2020-03-22 11:15:56;23.52
2020-03-22 15:45:22;22.08
2020-03-22 16:48:12;21.76
2020-03-22 21:53:15;20.64
2020-03-22 23:54:20;20.32
2020-03-23 03:02:38;19.84
2020-03-23 03:51:57;19.52
2020-03-23 04:54:42;19.52
2020-03-23 06:42:19;22.08
2020-03-23 08:25:34;23.68
2020-03-23 15:14:01;21.12
2020-03-23 19:25:10;20.0
2020-03-23 22:15:31;19.68
2020-03-24 00:43:26;19.2
2020-03-24 01:19:18;19.2
2020-03-24 03:20:17;18.88
2020-03-24 06:32:59;20.32
2020-03-24 12:40:51;20.8
2020-03-24 14:01:35;20.48
2020-03-24 17:00:56;19.84
2020-03-24 18:35:04;19.36
2020-03-24 19:42:18;19.2
2020-03-24 21:02:57;18.72
2020-03-24 22:01:12;18.72
2020-03-25 00:38:00;18.24
2020-03-25 02:56:51;17.92
2020-03-25 03:59:33;17.76
2020-03-25 05:06:43;17.76
2020-03-25 05:51:30;18.56
2020-03-25 06:18:24;19.36
2020-03-25 06:40:48;20.16
2020-03-25 07:21:08;19.36
2020-03-25 09:40:04;19.52
2020-03-25 11:05:13;19.36
2020-03-25 12:07:57;19.2
2020-03-25 12:43:48;19.2
2020-03-25 14:58:12;18.4
2020-03-25 15:51:57;18.24
2020-03-25 16:45:41;17.92
2020-03-25 18:15:14;17.6
2020-03-25 19:00:01;17.44
2020-03-25 20:34:02;17.28
2020-03-25 21:41:11;16.96
2020-03-25 22:57:16;16.8
2020-03-25 23:42:02;16.8
2020-03-26 01:38:24;16.64
2020-03-26 02:23:09;16.48
2020-03-26 04:50:49;16.0
2020-03-26 05:35:33;16.0
2020-03-26 08:07:40;16.16
2020-03-26 09:55:03;16.32
2020-03-26 10:48:47;16.48
2020-03-26 12:09:18;16.48
2020-03-26 12:49:34;16.64
2020-03-26 13:52:14;16.64
2020-03-26 14:45:56;16.48
2020-03-26 15:21:44;16.48
2020-03-26 16:37:48;16.32
2020-03-26 17:31:30;16.16
2020-03-26 20:52:50;16.0
2020-03-26 22:44:41;15.84
2020-03-27 01:03:23;15.84
2020-03-27 01:57:04;15.68
2020-03-27 02:41:48;15.84
2020-03-27 03:26:33;15.84
2020-03-27 04:24:42;15.68
2020-03-27 05:45:13;16.0
2020-03-27 06:16:33;16.8
2020-03-27 06:47:53;17.6
2020-03-27 08:17:26;18.72
2020-03-27 08:53:16;18.72
2020-03-27 10:45:18;19.04
2020-03-27 11:34:35;18.72
2020-03-27 13:31:04;18.4
2020-03-27 14:51:41;18.24
2020-03-27 16:34:42;17.92
2020-03-27 17:37:24;17.6
2020-03-27 18:22:10;17.6
2020-03-27 19:06:57;17.44
2020-03-27 20:05:09;17.28
2020-03-27 20:45:27;17.28
2020-03-27 22:06:02;17.12
2020-03-27 23:04:14;17.12
2020-03-28 03:28:20;16.8
2020-03-28 04:17:34;16.8
2020-03-28 05:02:19;16.8
2020-03-28 05:42:36;16.96
2020-03-28 06:09:28;17.92
2020-03-28 06:31:51;18.72
2020-03-28 07:48:00;20.32
2020-03-28 09:44:36;21.28
2020-03-28 10:47:24;20.48
2020-03-28 15:47:46;19.52
2020-03-28 16:41:33;19.36
2020-03-28 18:47:02;18.88
2020-03-28 21:19:22;18.56
2020-03-28 22:17:36;18.4
2020-03-28 22:57:55;18.4
2020-03-29 00:14:03;18.24
2020-03-29 01:21:15;18.24
2020-03-29 02:06:02;18.08
2020-03-29 04:02:29;17.92
2020-03-29 05:36:32;18.08
2020-03-29 06:12:22;18.56
2020-03-29 07:55:24;18.72
2020-03-29 08:40:12;18.72
2020-03-29 11:26:02;19.52
2020-03-29 12:01:53;19.52
2020-03-29 13:58:24;19.36
2020-03-29 14:56:40;19.04
2020-03-29 15:41:28;18.88
2020-03-29 17:33:29;18.72
2020-03-29 18:09:20;18.56
2020-03-29 19:16:31;18.4
2020-03-29 20:05:48;18.4
2020-03-29 22:47:03;17.92
2020-03-30 01:41:44;17.76
2020-03-30 03:02:21;17.76
2020-03-30 04:49:49;17.6
2020-03-30 05:25:38;17.6
2020-03-30 06:46:14;17.6
2020-03-30 08:02:21;17.44
2020-03-30 09:14:00;17.76
2020-03-30 12:22:06;18.24
2020-03-30 14:27:31;18.4
2020-03-30 15:16:48;18.4
2020-03-30 15:52:38;18.4
2020-03-30 17:13:15;17.92
2020-03-30 19:00:44;17.6
2020-03-30 20:21:20;17.44
2020-03-30 22:08:47;17.12
2020-03-30 22:53:33;17.12
2020-03-31 00:54:24;16.96
2020-03-31 01:48:07;16.8
2020-03-31 03:40:01;16.48
2020-03-31 04:56:05;16.48
2020-03-31 05:13:59;18.24
2020-03-31 05:27:25;17.44
2020-03-31 07:28:17;17.76
2020-03-31 09:02:20;20.0
2020-03-31 10:36:28;19.04
2020-03-31 11:34:43;18.72
2020-03-31 12:28:29;18.88
2020-03-31 13:35:42;18.4
2020-03-31 14:29:27;18.24
2020-03-31 15:32:09;18.24
2020-03-31 16:34:51;17.92
2020-03-31 17:24:07;17.6
2020-03-31 18:13:22;17.44
2020-03-31 20:23:12;17.12
2020-03-31 23:04:22;16.8
2020-04-01 00:20:27;16.64
2020-04-01 02:30:15;16.32
2020-04-01 04:31:05;16.16
2020-04-01 06:05:04;18.08
2020-04-01 06:58:48;19.68
2020-04-01 07:34:38;20.48
2020-04-01 08:41:53;21.12
2020-04-01 09:40:12;20.32
2020-04-01 10:38:29;19.68
2020-04-01 11:18:50;19.52
2020-04-01 13:15:20;18.88
2020-04-01 13:55:40;18.88
2020-04-01 17:03:49;18.24
2020-04-01 18:11:00;17.76
2020-04-01 21:23:32;17.12
2020-04-01 22:21:44;17.12
2020-04-02 01:16:18;16.64
2020-04-02 02:05:32;16.48
2020-04-02 03:21:37;16.32
2020-04-02 04:10:51;16.16
2020-04-02 05:13:29;16.96
2020-04-02 06:56:27;20.16
2020-04-02 07:45:45;20.96
2020-04-02 08:57:30;21.44
2020-04-02 10:36:12;20.48
2020-04-02 13:26:32;19.36
2020-04-02 14:42:44;19.2
2020-04-02 15:58:54;19.04
2020-04-02 17:01:38;18.72
2020-04-02 19:16:01;17.92
2020-04-02 21:39:20;17.6
2020-04-02 22:55:27;17.44
2020-04-02 23:44:42;17.28
2020-04-03 01:41:07;16.96
2020-04-03 02:48:15;16.8
2020-04-03 03:24:03;16.8
2020-04-03 04:40:08;16.64
2020-04-03 05:02:31;17.44
2020-04-03 06:09:41;17.6
2020-04-03 06:36:32;18.4
2020-04-03 07:03:24;19.2
2020-04-03 08:19:34;20.8
2020-04-03 08:59:55;20.96
2020-04-03 11:01:01;20.0
2020-04-03 12:39:39;19.68
2020-04-03 13:51:22;19.36
2020-04-03 15:12:02;19.2
2020-04-03 15:52:22;19.04
2020-04-03 16:50:38;19.04
2020-04-03 17:39:55;18.56
2020-04-03 19:00:33;18.24
2020-04-03 20:12:13;18.08
2020-04-03 20:48:03;18.08
2020-04-03 22:44:30;17.76
2020-04-04 04:02:26;17.28
2020-04-04 04:42:44;17.28
2020-04-04 06:03:20;17.44
2020-04-04 08:44:32;20.0
2020-04-04 12:19:41;18.88
2020-04-04 15:59:14;18.56
2020-04-04 20:50:24;17.76
2020-04-04 23:00:16;17.6
2020-04-05 03:11:00;17.12
2020-04-05 04:00:15;17.12
2020-04-05 04:36:04;16.96
2020-04-05 08:11:06;22.08
2020-04-05 10:34:43;21.28
2020-04-05 13:34:07;20.32
2020-04-05 14:54:49;20.0
2020-04-05 15:48:37;20.0
2020-04-05 17:40:41;19.2
2020-04-05 18:25:30;19.2
2020-04-05 19:01:21;19.04
2020-04-05 19:55:07;18.72
2020-04-05 20:53:22;18.72
2020-04-05 21:29:15;18.56
2020-04-05 22:40:54;18.4
2020-04-05 23:21:13;18.4
2020-04-06 01:13:13;18.24
2020-04-06 02:15:56;18.08
2020-04-06 02:56:15;18.08
2020-04-06 05:33:01;19.84
2020-04-06 06:04:23;20.64
2020-04-06 06:31:16;21.44
2020-04-06 07:11:38;22.24
2020-04-06 08:05:28;23.04
2020-04-06 09:03:51;23.2
2020-04-06 11:32:02;21.76
2020-04-06 12:52:49;21.6
2020-04-06 14:09:06;21.44
2020-04-06 15:07:26;21.28
2020-04-06 16:28:12;20.96
2020-04-06 17:48:56;20.64
2020-04-06 18:56:13;20.48
2020-04-06 20:03:29;20.32
2020-04-06 21:37:39;20.0
2020-04-06 22:18:00;19.84
2020-04-06 23:29:44;19.84
2020-04-07 00:28:01;19.68
2020-04-07 02:46:58;19.36
2020-04-07 04:03:10;19.36
2020-04-07 04:52:28;20.32
2020-04-07 05:41:46;21.12
2020-04-07 06:17:38;21.92
2020-04-07 06:40:04;22.72
2020-04-07 07:15:58;23.52
2020-04-07 08:14:21;24.32
2020-04-07 09:12:47;24.48
2020-04-07 11:09:38;23.2
2020-04-07 12:30:28;22.88
2020-05-15 17:53:17;22.56
2020-05-15 22:13:43;22.08
2020-05-15 23:30:03;22.08
2020-05-16 00:46:22;22.08
2020-05-16 01:40:14;22.08
2020-05-16 02:34:06;21.92
2020-05-16 03:18:59;21.76
2020-05-16 04:35:17;21.76
2020-05-16 05:33:38;22.72
2020-05-16 05:56:04;23.52
2020-05-16 06:18:31;24.32
2020-05-16 06:45:28;25.12
2020-05-16 07:12:25;25.92
2020-05-16 08:24:23;26.24
2020-05-16 09:04:53;26.08
2020-05-16 10:07:53;25.76
2020-05-16 10:57:22;25.28
2020-05-16 12:09:19;24.96
2020-05-16 13:03:17;24.8
2020-05-16 13:39:17;24.8
2020-05-16 14:42:12;24.8
2020-05-16 15:54:08;24.64
2020-05-16 17:46:30;24.16
2020-05-16 18:35:57;24.0
2020-05-16 19:38:51;23.68
2020-05-16 20:41:45;23.52
2020-05-16 21:17:42;23.52
2020-05-16 22:29:35;23.36
2020-05-16 23:32:28;23.2
2020-05-17 00:53:19;23.2
2020-05-17 02:00:42;23.04
2020-05-17 02:41:08;23.04
2020-05-17 03:21:33;23.04
2020-05-17 03:57:29;22.88
2020-05-17 05:04:51;23.04
2020-05-17 05:40:47;23.52
2020-05-17 06:30:12;23.52
2020-05-17 07:19:36;24.32
2020-05-17 08:00:03;25.12
2020-05-17 08:36:02;25.92
2020-05-17 09:52:32;26.08
2020-05-17 11:09:01;25.6
2020-05-17 12:12:00;25.44
2020-05-17 13:01:28;25.28
2020-05-17 14:17:56;25.28
2020-05-17 15:29:54;25.28
2020-05-17 16:23:52;25.12
2020-05-17 17:40:19;24.8
2020-05-17 18:52:16;24.48
2020-05-17 22:36:59;23.84
2020-05-17 23:30:54;23.68
2020-05-18 01:32:13;23.52
2020-05-18 04:49:54;23.68
2020-05-18 05:25:51;24.48
2020-05-18 05:48:19;25.28
2020-05-18 06:10:47;25.12
2020-05-18 06:33:16;24.96
2020-05-18 07:36:13;24.96
2020-05-18 08:34:41;24.8
2020-05-18 09:15:09;24.96
2020-05-18 10:04:37;25.28
2020-05-18 10:45:06;25.28
2020-05-18 11:03:05;25.12
2020-05-18 12:06:03;25.12
2020-05-18 12:55:31;25.12
2020-05-18 13:31:30;25.12
2020-05-18 14:16:29;25.28
2020-05-18 15:23:57;25.6
2020-05-18 16:26:57;25.6
2020-05-18 17:02:56;25.6
2020-05-18 17:38:55;25.44
2020-05-18 18:37:24;25.28
2020-05-18 19:31:22;25.12
2020-05-18 20:47:49;24.96
2020-05-18 21:50:47;24.8
2020-05-18 22:31:15;24.8
2020-05-18 23:34:12;24.64
2020-05-19 00:32:39;24.64
2020-05-19 01:17:37;24.64
2020-05-19 02:02:34;24.48
2020-05-19 03:10:00;24.48
2020-05-19 04:21:56;24.32
2020-05-19 05:06:53;24.48
2020-05-19 06:18:49;24.96
2020-05-19 07:08:18;25.76
2020-05-19 08:15:48;26.4
2020-05-19 09:27:49;26.4
2020-05-19 10:08:20;26.08
2020-05-19 11:20:19;25.76
2020-05-19 11:42:49;25.76
2020-05-19 12:54:49;25.76
2020-05-19 13:53:18;25.76
2020-05-19 14:42:47;25.76
2020-05-19 15:27:47;25.6
2020-05-19 16:08:17;25.76
2020-05-19 16:53:16;25.6
2020-05-19 17:29:15;25.44
2020-05-19 18:27:44;25.44
2020-05-19 19:21:43;25.28
2020-05-19 20:42:41;25.28
2020-05-19 21:54:39;25.28
2020-05-19 22:48:38;25.28
2020-05-19 23:56:06;25.28
2020-05-20 01:03:34;25.12
2020-05-20 01:48:33;25.12
2020-05-20 02:33:31;25.12
2020-05-20 03:09:30;25.12
2020-05-20 04:25:57;25.12
2020-05-20 05:46:55;25.28
2020-05-20 07:52:51;25.6
2020-05-20 09:00:20;25.28
2020-05-20 10:16:47;25.28
2020-05-20 11:55:45;25.44
2020-05-20 12:31:44;25.44
2020-05-20 13:21:13;25.44
2020-05-20 14:01:42;25.28
2020-05-20 15:22:41;25.44
2020-05-20 16:12:10;25.44
2020-05-20 17:10:39;25.44
2020-05-20 18:09:08;25.44
2020-05-20 18:49:38;25.44
2020-05-20 19:25:37;25.44
2020-05-20 20:06:06;25.44
2020-05-20 20:46:35;25.28
2020-05-20 21:49:33;25.28
2020-05-20 22:43:32;25.12
2020-05-20 23:24:00;25.12
2020-05-21 00:08:59;25.12
2020-05-21 01:29:56;24.96
2020-05-21 02:32:54;24.96
2020-05-21 03:31:22;24.8
2020-05-21 04:11:50;24.8
2020-05-21 04:47:49;24.8
2020-05-21 06:08:46;24.96
2020-05-21 06:53:44;25.76
2020-05-21 07:43:14;26.4
2020-05-21 08:59:46;26.56
2020-05-21 09:49:17;26.4
2020-05-21 11:10:17;26.08
2020-05-21 12:08:48;26.08
2020-05-21 13:16:18;26.08
2020-05-21 14:23:49;25.92
2020-05-21 15:04:19;25.92
2020-05-21 15:49:19;25.92
2020-05-21 16:25:20;25.92
2020-05-21 17:14:50;25.92
2020-05-21 18:04:20;25.92
2020-05-21 18:44:50;25.92
2020-05-21 20:05:49;25.6
2020-05-21 20:46:19;25.6
2020-05-21 21:26:48;25.6
2020-05-21 22:07:19;25.6
2020-05-21 23:19:16;25.44
2020-05-22 00:17:45;25.44
2020-05-22 00:58:14;25.44
2020-05-22 01:43:13;25.28
2020-05-22 02:41:41;25.28
2020-05-22 03:35:39;25.28
2020-05-22 04:29:38;25.12
2020-05-22 05:19:06;25.28
2020-05-22 07:29:32;25.76
2020-05-22 08:14:32;25.92
2020-05-22 08:50:31;26.08
2020-05-22 09:58:01;25.92
2020-05-22 10:34:01;25.92
2020-05-22 11:14:30;25.92
2020-05-22 11:55:00;26.08
2020-05-22 12:17:30;26.08
2020-05-22 13:02:30;26.08
2020-05-22 14:10:00;26.08
2020-05-22 15:26:31;26.08
2020-05-22 16:38:31;26.08
2020-05-22 17:55:01;25.92
2020-05-22 18:35:31;25.92
2020-05-22 19:11:31;25.92
2020-05-22 19:47:30;25.92
2020-05-22 20:28:00;25.76
2020-05-22 21:35:30;25.76
2020-05-22 22:42:59;25.76
2020-05-22 23:45:59;25.76
2020-05-23 00:39:58;25.6
2020-05-23 01:20:28;25.76
2020-05-23 02:14:27;25.6
2020-05-23 02:54:56;25.6
2020-05-23 04:11:25;25.6
2020-05-23 05:27:54;25.6
2020-05-23 06:48:54;25.76
2020-05-23 07:51:54;25.92
2020-05-23 09:12:54;26.08
2020-05-23 10:15:54;26.08
2020-05-23 11:23:24;26.08
2020-05-23 12:39:55;26.08
2020-05-23 14:00:56;26.24
2020-05-23 14:59:27;26.56
2020-05-23 15:48:58;26.4
2020-05-23 16:24:59;26.4
2020-05-23 17:37:00;26.08
2020-05-23 18:49:01;25.76
2020-05-23 20:01:00;25.76
2020-05-23 20:55:00;25.76
2020-05-23 21:44:30;25.6
2020-05-23 22:52:00;25.44
2020-05-23 23:50:29;25.44
2020-05-24 00:35:29;25.44
2020-05-24 01:20:28;25.28
2020-05-24 02:36:57;25.28
2020-05-24 03:39:56;25.28
2020-05-24 04:51:55;25.12
2020-05-24 05:36:54;25.12
2020-05-24 06:17:24;25.28
2020-05-24 07:29:22;25.28
2020-05-24 08:41:20;25.12
2020-05-24 09:30:49;25.28
2020-05-24 10:24:48;25.44
2020-05-24 11:05:18;25.44
2020-05-24 12:03:47;25.44
2020-05-24 12:57:47;25.44
2020-05-24 13:47:16;25.44
2020-05-24 14:41:15;25.44
2020-05-24 15:30:45;25.6
2020-05-24 16:38:14;25.44
2020-05-24 17:36:43;25.44
2020-05-24 18:17:12;25.28
2020-05-24 19:24:41;25.28
2020-05-24 20:18:40;25.12
2020-05-24 20:54:39;25.12
2020-05-24 22:15:36;24.96
2020-05-24 23:05:05;24.96
2020-05-25 00:57:31;24.8
2020-05-25 02:04:58;24.8
2020-05-25 03:07:56;24.8
2020-05-25 04:15:24;24.64
2020-05-25 05:09:21;24.64
2020-05-25 06:07:48;24.64
2020-05-25 06:52:47;24.64
2020-05-25 07:46:44;24.64
2020-05-25 08:45:12;24.96
2020-05-25 09:48:11;25.6
2020-05-25 10:55:40;25.28
2020-05-25 11:58:39;25.12
2020-05-25 13:01:37;25.12
2020-05-25 14:18:05;24.8
2020-05-25 14:54:03;24.8
2020-05-25 15:34:32;24.96
2020-05-25 16:19:30;24.8
2020-05-25 16:59:59;24.8
2020-05-25 18:20:55;24.8
2020-05-25 19:23:52;24.64
2020-05-25 20:04:20;24.64
2020-05-25 20:44:48;24.64
2020-05-25 21:25:16;24.48
2020-05-25 22:32:43;24.32
2020-05-25 23:22:10;24.32
2020-05-26 00:11:37;24.32
2020-05-26 00:52:05;24.32
2020-05-26 03:15:56;24.16
2020-05-26 04:09:53;24.16
2020-05-26 04:54:50;24.16
2020-05-26 05:57:46;24.32
2020-05-26 06:47:14;24.8
2020-05-26 08:26:08;24.64
2020-05-26 10:05:04;24.96
2020-05-26 12:10:59;24.8
2020-05-26 13:13:56;24.64
2020-05-26 14:07:54;24.48
2020-05-26 15:28:50;24.64
2020-05-26 16:09:18;24.64
2020-05-26 16:49:45;24.48
2020-05-26 18:06:11;24.32
2020-05-26 18:42:09;24.32
2020-05-26 19:18:07;24.32
2020-05-26 20:39:02;24.16
2020-05-26 21:41:58;24.16
2020-05-26 22:31:25;24.0
2020-05-26 23:07:22;24.0
2020-05-27 00:10:17;24.0
2020-05-27 01:17:42;23.84
2020-05-27 01:58:09;23.84
2020-05-27 02:38:36;23.84
2020-05-27 03:14:33;23.68
2020-05-27 04:30:56;23.68
2020-05-27 05:38:21;24.16
2020-05-27 06:18:48;24.96
2020-05-27 07:03:47;25.44
2020-05-27 08:51:47;26.08
2020-05-27 09:50:16;25.6
2020-05-27 11:11:15;25.44
2020-05-27 11:33:44;25.44
2020-05-27 12:14:14;25.28
2020-05-27 13:21:42;25.12
2020-05-27 14:02:10;25.12
2020-05-27 14:47:09;25.28
2020-05-27 15:59:08;25.28
2020-05-27 16:57:36;25.28
2020-05-27 17:51:34;25.12
2020-05-27 19:12:32;24.8
2020-05-27 19:48:30;24.8
2020-05-27 21:04:57;24.64
2020-05-27 21:40:55;24.48
2020-05-27 23:01:51;24.32
2020-05-27 23:51:18;24.32
2020-05-28 01:07:43;24.16
2020-05-28 02:15:10;24.16
2020-05-28 03:09:06;24.16
2020-05-28 03:58:32;24.0
2020-05-28 04:34:30;24.0
2020-05-28 05:10:27;24.16
2020-05-28 05:55:24;24.16
2020-05-28 06:17:53;24.32
2020-05-28 07:43:18;24.8
2020-05-28 10:02:38;23.84
2020-05-28 11:10:03;24.32
2020-05-28 11:50:30;24.32
2020-05-28 12:08:29;24.32
2020-05-28 12:44:27;24.48
2020-05-28 13:42:54;24.48
2020-05-28 14:59:20;24.48
2020-05-28 16:20:15;24.48
2020-05-28 17:32:11;24.32
2020-05-28 18:08:09;24.16
2020-05-28 19:15:35;24.16
2020-05-28 20:00:32;24.0
2020-05-28 21:21:26;23.84
2020-05-28 22:15:22;23.84
2020-05-28 23:13:48;23.84
2020-05-29 00:39:11;23.68
2020-05-29 01:42:06;23.68
2020-05-29 03:03:00;23.68
2020-05-29 03:56:55;23.52
2020-05-29 04:37:22;23.52
2020-05-29 05:22:18;23.52
2020-05-29 06:07:14;23.52
2020-05-29 06:52:10;23.52
2020-05-29 07:37:06;23.52
2020-05-29 08:58:00;23.68
2020-05-29 09:51:55;23.68
2020-05-29 11:57:44;23.68
2020-05-30 09:18:17;23.04
2020-05-31 10:23:16;23.04
2020-06-01 04:25:37;22.24
2020-06-01 19:55:37;23.04
2020-06-01 20:54:01;23.2
2020-06-02 01:54:58;22.72
2020-06-02 05:39:33;24.16
2020-06-02 06:24:29;25.76
2020-06-02 06:46:58;26.56
2020-06-03 05:25:05;24.16
2020-06-03 05:38:34;24.96
2020-06-03 06:50:31;25.28
2020-06-03 09:50:28;25.44
2020-06-03 11:42:56;24.96
2020-06-03 12:18:54;24.8
2020-06-03 13:26:22;24.8
2020-06-03 14:33:50;24.8
2020-06-03 15:09:48;24.96
2020-06-03 15:54:47;24.8
2020-06-03 17:15:45;24.8
2020-06-03 18:27:42;24.64
2020-06-03 19:48:39;24.48
2020-06-03 21:00:35;24.32
2020-06-03 23:06:28;24.32
2020-06-03 23:42:26;24.16
2020-06-04 00:45:22;24.16
2020-06-04 01:43:49;24.16
2020-06-04 03:45:11;24.0
2020-06-04 05:01:36;24.0
2020-06-04 06:13:32;24.0
2020-06-04 06:53:59;24.16
2020-06-04 07:47:56;24.32
2020-06-04 09:04:22;24.64
2020-06-04 09:58:20;24.96
2020-06-04 10:43:19;24.96
2020-06-04 11:32:47;24.96
2020-06-04 12:35:45;25.12
2020-06-04 12:58:15;25.12
2020-06-04 14:14:42;24.96
2020-06-04 15:13:11;25.12
2020-06-04 16:34:09;24.96
2020-06-04 17:46:07;24.96
2020-06-04 18:40:06;24.96
2020-06-04 19:38:34;24.8
2020-06-04 20:50:32;24.8
2020-06-04 21:53:29;24.8
2020-06-04 22:56:27;24.64
2020-06-04 23:45:55;24.64
2020-06-05 00:35:23;24.64
2020-06-05 01:15:52;24.48
2020-06-05 02:32:19;24.48
2020-06-05 05:00:42;24.48
2020-06-05 05:59:09;24.64
2020-06-05 07:11:07;25.12
2020-06-05 07:42:36;24.8
2020-06-05 08:00:36;24.96
2020-06-05 10:20:02;25.12
2020-06-05 11:41:00;24.8
2020-06-05 11:49:59;24.8
2020-06-05 12:25:58;24.64
2020-06-05 13:24:26;24.8
2020-06-05 14:36:25;25.12
2020-06-05 15:25:54;25.28
2020-06-05 16:37:53;25.12
2020-06-05 17:22:52;25.12
2020-06-05 18:07:51;24.96
2020-06-05 19:19:49;24.96
2020-06-05 20:04:48;24.8
2020-06-05 21:16:45;24.64
2020-06-05 22:10:43;24.48
2020-06-05 23:22:40;24.48
2020-06-06 00:34:37;24.48
2020-06-06 01:51:03;24.48
2020-06-06 02:45:01;24.32
2020-06-06 03:20:59;24.32
2020-06-06 03:56:59;24.32
2020-06-06 04:32:55;24.32
2020-06-06 05:08:54;24.48
2020-06-06 05:40:22;25.28
2020-06-06 06:20:50;26.08
2020-06-06 07:37:20;25.92
2020-06-06 08:26:51;25.92
2020-06-06 09:07:21;25.76
2020-06-06 10:05:51;25.76
2020-06-06 11:08:51;25.92
2020-06-06 11:49:22;25.92
2020-06-06 12:25:22;25.92
2020-06-06 13:05:52;25.92
2020-06-06 14:26:53;26.08
2020-06-06 15:38:54;26.24
2020-06-06 16:23:55;26.4
2020-06-06 17:26:56;26.24
2020-06-06 18:02:57;25.92
2020-06-06 18:52:28;25.92
2020-06-06 20:13:28;25.76
2020-06-06 21:02:58;25.6
2020-06-06 21:43:28;25.6
2020-06-06 22:50:58;25.6
2020-06-06 23:53:58;25.44
2020-06-07 00:52:27;25.44
2020-06-07 01:37:27;25.28
2020-06-07 02:58:26;25.28
2020-06-07 04:05:55;25.28
2020-06-07 05:17:54;25.44
2020-06-07 05:49:23;26.24
2020-06-07 06:11:53;27.04
2020-06-07 06:52:23;27.84
2020-06-07 07:50:58;28.0
2020-06-07 08:31:32;28.16
2020-06-07 09:30:08;28.32
2020-06-07 10:37:44;27.68
2020-06-07 11:54:20;27.52
2020-06-07 12:39:23;27.36
2020-06-07 13:33:26;27.2
2020-06-07 14:45:30;26.88
2020-06-07 15:39:32;26.56
2020-06-07 16:51:34;26.4
2020-06-07 18:12:36;26.24
2020-06-07 18:48:36;26.08
2020-06-07 20:00:37;26.08
2020-06-07 20:59:08;25.92
2020-06-07 21:39:39;25.92
2020-06-07 22:56:09;25.76
2020-06-07 23:50:09;25.76
2020-06-08 00:39:39;25.6
2020-06-08 01:15:39;25.6
2020-06-08 02:36:38;25.6
2020-06-08 03:57:37;25.44
2020-06-08 04:51:37;25.44
2020-06-08 05:45:36;25.44
2020-06-08 06:35:06;25.44
2020-06-08 07:11:05;25.44
2020-06-08 07:47:04;25.44
2020-06-08 08:23:04;25.44
2020-06-08 08:59:04;25.44
2020-06-08 09:53:03;25.44
2020-06-08 10:38:02;25.44
2020-06-08 11:36:32;25.44
2020-06-08 12:26:01;25.6
2020-06-08 13:38:01;25.6
2020-06-08 14:54:31;25.6
2020-06-08 16:02:01;25.44
2020-06-08 16:51:30;25.44
2020-06-08 17:41:00;25.44
2020-06-08 18:17:00;25.28
2020-06-08 19:28:59;25.28
2020-06-08 20:36:28;25.12
2020-06-08 21:21:27;25.12
2020-06-08 22:01:56;25.12
2020-06-08 23:22:54;25.12
2020-06-09 00:39:23;24.96
2020-06-09 01:33:21;24.96
2020-06-09 02:22:50;24.96
2020-06-09 03:21:18;24.8
2020-06-09 03:57:17;24.8
2020-06-09 05:13:45;24.8
2020-06-09 05:49:44;24.96
2020-06-09 06:12:14;24.96
2020-06-09 09:03:09;24.96
2020-06-09 10:01:38;25.12
2020-06-09 11:18:06;24.96
2020-06-09 12:21:05;24.96
2020-06-09 13:24:04;25.28
2020-06-09 14:18:03;25.28
2020-06-09 15:25:32;25.28
2020-06-09 16:28:31;25.12
2020-06-09 17:04:30;25.12
2020-06-09 17:40:29;25.12
2020-06-09 19:01:27;24.96
2020-06-09 20:04:26;24.96
2020-06-09 21:07:24;24.8
2020-06-09 22:55:21;24.8
2020-06-10 00:02:48;24.8
2020-06-10 01:05:46;24.64
2020-06-10 02:04:14;24.64
2020-06-10 02:49:13;24.64
2020-06-10 03:38:41;24.64
2020-06-10 04:32:38;24.64
2020-06-10 05:13:07;24.48
2020-06-10 06:29:34;24.48
2020-06-10 07:37:01;24.64
2020-06-10 08:12:59;24.64
2020-06-10 08:48:58;24.48
2020-06-10 10:00:55;24.64
2020-06-10 11:39:51;24.64
2020-06-10 12:11:20;24.8
2020-06-10 13:00:48;24.8
2020-06-10 14:08:16;24.8
2020-06-10 15:15:44;24.96
2020-06-10 16:00:42;24.8
2020-06-10 17:12:40;24.64
2020-06-10 18:11:08;24.64
2020-06-10 19:00:36;24.64
2020-06-10 19:50:04;24.48
2020-06-10 21:02:01;24.32
2020-06-10 21:51:28;24.48
2020-06-10 23:30:23;24.32
2020-06-11 00:19:51;24.32
2020-06-11 01:00:19;24.16
2020-06-11 02:12:15;24.16
2020-06-11 05:25:35;24.32
2020-06-11 07:22:29;24.64
2020-06-11 08:07:27;24.8
2020-06-11 09:10:25;25.6
2020-06-11 10:17:55;25.44
2020-06-11 11:16:25;25.28
2020-06-11 12:32:54;25.44
2020-06-11 13:22:23;25.6
2020-06-11 14:25:23;25.6
2020-06-11 15:01:23;25.76
2020-06-11 15:46:23;25.76
2020-06-11 16:49:23;25.76
2020-06-11 18:01:25;25.6
2020-06-11 19:13:23;25.44
2020-06-11 19:53:52;25.28
2020-06-11 20:52:21;25.28
2020-06-11 21:46:20;24.96
2020-06-11 23:52:17;24.96
2020-06-12 00:46:15;24.8
2020-06-12 02:07:13;24.8
2020-06-12 03:14:40;24.64
2020-06-12 05:16:06;24.8
2020-06-12 05:56:34;24.8
2020-06-12 08:20:31;25.44
2020-06-12 09:14:31;25.6
2020-06-12 09:32:31;25.44
2020-06-12 10:22:00;25.44
2020-06-12 11:33:58;25.28
2020-06-12 11:56:28;25.44
2020-06-12 13:08:27;25.6
2020-06-12 13:48:57;25.92
2020-06-12 15:09:58;26.08
2020-06-12 16:17:28;26.08
2020-06-12 17:38:30;26.08
2020-06-12 18:41:30;25.92
2020-06-12 20:02:31;25.76
2020-06-12 21:10:01;25.76
2020-06-12 21:55:01;25.76
2020-06-12 22:53:31;25.6
2020-06-12 23:34:01;25.6
2020-06-13 00:10:01;25.6
2020-06-13 00:46:00;25.6
2020-06-13 02:07:00;25.6
2020-06-13 03:14:30;25.6
2020-06-13 04:26:29;25.44
2020-06-13 05:24:59;25.6
2020-06-13 06:45:59;26.08
2020-06-13 07:53:30;26.24
2020-06-13 08:47:31;26.4
2020-06-13 09:28:02;26.4
2020-06-13 10:04:03;26.4
2020-06-13 11:25:06;26.56
2020-06-13 12:23:38;26.56
2020-06-13 13:31:10;26.72
2020-06-13 14:16:12;26.88
2020-06-13 15:23:45;27.2
2020-06-13 16:31:19;27.2
2020-06-13 17:38:53;27.04
2020-06-13 18:41:56;26.88
2020-06-13 19:58:30;26.72
2020-06-13 20:43:32;26.72
2020-06-13 21:28:33;26.72
2020-06-13 22:09:05;26.72
2020-06-13 22:54:07;26.56
2020-06-13 23:52:39;26.56
2020-06-14 01:00:11;26.4
2020-06-14 01:40:43;26.56
2020-06-14 02:30:14;26.4
2020-06-14 03:51:17;26.4
2020-06-14 04:31:48;26.4
2020-06-14 05:07:49;26.4
2020-06-14 05:48:21;26.4
2020-06-14 07:04:54;26.4
2020-06-14 08:12:25;26.4
2020-06-14 09:28:57;26.4
2020-06-14 10:31:59;26.4
2020-06-14 11:35:01;26.4
2020-06-14 12:42:34;26.24
2020-06-14 13:41:05;26.24
2020-06-14 14:21:36;26.24
2020-06-14 15:11:08;26.24
2020-06-14 15:51:39;26.24
2020-06-14 16:41:10;26.08
2020-06-14 18:02:12;26.08
2020-06-14 19:05:13;26.08
2020-06-14 20:17:15;26.08
2020-06-14 21:20:16;26.08
2020-06-14 22:14:17;25.92
2020-06-14 23:03:48;25.92
2020-06-14 23:39:49;25.92
2020-06-15 00:15:49;25.92
2020-06-15 00:51:49;25.76
2020-06-15 02:03:50;25.92
2020-06-15 02:39:51;25.76
2020-06-15 03:47:21;25.76
2020-06-15 04:45:51;25.76
2020-06-15 05:35:22;25.92
2020-06-15 06:11:22;25.92
2020-06-15 08:03:52;25.6
2020-06-15 09:11:21;25.12
2020-06-15 11:21:46;25.12
2020-06-15 12:38:14;25.28
2020-06-15 13:41:14;25.28
2020-06-15 14:44:13;25.28
2020-06-15 16:00:42;25.28
2020-06-15 17:12:41;25.28
2020-06-15 18:15:40;25.28
2020-06-15 19:27:39;25.12
2020-06-15 20:12:39;25.12
2020-06-15 20:48:38;25.12
2020-06-15 21:29:07;25.12
2020-06-15 22:14:07;24.96
2020-06-15 23:26:05;25.12
2020-06-16 00:47:04;25.12
2020-06-16 02:03:32;24.96
2020-06-16 03:02:01;24.96
2020-06-16 04:05:00;24.96
2020-06-16 04:58:58;25.12
2020-06-16 06:15:27;24.96
2020-06-16 07:22:55;25.28
2020-06-16 08:21:24;25.28
2020-06-16 09:19:53;25.28
2020-06-16 10:40:53;25.6
2020-06-16 14:16:54;25.92
2020-06-16 15:33:24;25.76
2020-06-16 16:36:25;25.76
2020-06-16 17:39:25;25.6
2020-06-16 19:00:25;25.44
2020-06-16 19:58:54;25.28
2020-06-16 21:19:53;25.28
2020-06-16 22:36:22;25.28
2020-06-17 00:33:20;25.12
2020-06-17 01:22:49;25.28
2020-06-17 02:16:48;25.12
2020-06-17 02:52:47;25.12
2020-06-17 03:28:47;25.12
2020-06-17 04:45:15;25.12
2020-06-17 06:01:44;25.44
2020-06-17 10:31:40;25.6
2020-06-17 11:12:10;25.76
2020-06-17 12:19:41;25.76
2020-06-17 12:51:11;25.92
2020-06-17 13:49:41;26.08
2020-06-17 14:48:12;26.08
2020-06-17 16:00:13;26.08
2020-06-17 17:07:44;26.08
2020-06-17 18:24:16;25.92
2020-06-17 19:04:46;25.76
2020-06-17 20:16:46;25.76
2020-06-17 21:01:47;25.6
2020-06-17 21:42:17;25.6
2020-06-17 22:22:47;25.6
2020-06-17 23:30:17;25.44
2020-06-18 00:24:16;25.44
2020-06-18 01:04:46;25.28
2020-06-18 02:16:46;25.28
2020-06-18 03:28:45;25.28
2020-06-18 04:31:44;25.28
2020-06-18 05:30:13;25.12
2020-06-18 06:19:42;25.28
2020-06-18 07:22:41;25.28
2020-06-18 08:21:10;25.28
2020-06-18 09:28:39;25.6
2020-06-18 10:04:39;25.76
2020-06-18 11:16:40;26.08
2020-06-18 12:19:41;26.24
2020-06-18 12:55:42;26.24
2020-06-18 13:31:43;26.08
2020-06-18 14:52:45;26.24
2020-06-18 15:46:46;26.4
2020-06-18 16:54:18;26.4
2020-06-18 18:01:49;26.08
2020-06-18 19:22:50;25.76
2020-06-18 20:25:51;25.6
2020-06-18 21:42:21;25.44
2020-06-18 22:36:20;25.44
2020-06-18 23:25:50;25.44
2020-06-19 00:06:19;25.28
2020-06-19 01:13:48;25.28
2020-06-19 02:12:17;25.12
2020-06-19 02:48:16;25.12
2020-06-19 04:04:44;24.96
2020-06-19 06:01:42;25.44
2020-06-19 06:19:41;25.6
2020-06-19 07:36:11;25.28
2020-06-19 08:57:09;25.12
2020-06-19 10:18:08;25.76
2020-06-19 11:16:38;25.92
2020-06-19 12:06:09;26.08
2020-06-19 13:18:10;26.08
2020-06-19 14:21:10;25.6
2020-06-19 15:01:40;25.6
2020-06-19 16:09:10;25.6
2020-06-19 17:12:09;25.44
2020-06-19 17:57:08;25.28
2020-06-19 18:55:37;25.12
2020-06-19 19:45:06;25.12
2020-06-19 21:06:05;25.12
2020-06-19 21:46:34;25.12
2020-06-19 23:07:32;24.96
2020-06-20 00:06:01;24.96
2020-06-20 00:55:29;24.96
2020-06-20 01:40:28;24.8
2020-06-20 02:56:55;24.8
2020-06-20 03:32:54;24.8
2020-06-20 04:35:52;24.8
2020-06-20 05:38:50;24.64
2020-06-20 06:37:17;24.64
2020-06-20 07:35:46;24.64
2020-06-20 08:29:44;24.64
2020-06-20 09:23:42;24.64
2020-06-20 10:13:11;24.64
2020-06-20 10:58:09;24.64
2020-06-20 11:52:07;24.64
2020-06-20 12:46:06;24.8
2020-06-20 13:53:34;24.96
2020-06-20 14:38:33;24.96
2020-06-20 15:28:01;24.96
2020-06-20 16:13:00;24.96
2020-06-20 16:57:59;24.8
2020-06-20 17:33:58;24.8
2020-06-20 18:36:56;24.8
2020-06-20 19:39:54;24.64
2020-06-20 20:24:52;24.48
2020-06-20 21:41:19;24.48
2020-06-20 22:44:16;24.32
2020-06-20 23:24:44;24.32
2020-06-21 00:14:12;24.32
2020-06-21 00:50:10;24.32
2020-06-21 01:35:08;24.32
2020-06-21 02:15:36;24.32
2020-06-21 03:36:32;24.16
2020-06-21 04:30:29;24.16
2020-06-21 05:33:26;24.16
2020-06-21 06:18:24;24.16
2020-06-21 07:21:21;24.16
2020-06-21 08:19:48;24.32
2020-06-21 09:36:14;24.32
2020-06-21 10:57:10;24.32
2020-06-21 12:13:36;24.16
2020-06-21 13:25:33;24.16
2020-06-21 14:24:00;24.16
2020-06-21 15:31:26;24.16
2020-06-21 16:25:23;24.16
2020-06-21 17:14:51;24.16
2020-06-21 17:59:48;24.16
2020-06-21 18:44:45;24.0
2020-06-21 19:25:13;24.0
2020-06-21 20:46:08;24.0
2020-06-21 22:02:33;23.84
2020-06-21 22:56:30;24.0
2020-06-21 23:59:26;24.0
2020-06-22 01:11:21;23.84
2020-06-22 02:00:48;23.84
2020-06-22 02:36:46;23.68
2020-06-22 03:53:11;23.84
2020-06-22 04:29:08;23.68
2020-06-22 05:41:03;24.0
2020-06-22 06:17:01;24.32
2020-06-22 06:52:59;24.32
2020-06-22 08:09:25;24.32
2020-06-22 08:58:53;24.48
2020-06-22 09:57:21;24.96
2020-06-22 10:51:20;25.12
2020-06-22 11:36:19;25.28
2020-06-22 12:34:49;25.44
2020-06-22 13:15:18;25.28
2020-06-22 14:36:18;25.28
2020-06-22 15:48:16;25.12
2020-06-22 16:28:46;25.12
2020-06-22 18:48:12;24.96
2020-06-22 19:33:11;24.8
2020-06-22 21:30:07;24.64
2020-06-22 23:18:03;24.48
2020-06-23 00:21:00;24.48
2020-06-23 01:23:58;24.32
2020-06-23 01:59:56;24.32
2020-06-23 02:40:24;24.32
2020-06-23 04:50:49;24.64
2020-06-23 05:35:47;25.28
2020-06-23 07:10:16;25.76
2020-06-23 07:32:45;25.44
2020-06-23 08:31:15;25.44
2020-06-23 08:49:15;25.44
2020-06-23 09:07:15;25.44
2020-06-23 12:11:43;25.28
2020-06-23 13:14:42;25.44
2020-06-23 13:55:12;25.6
2020-06-23 15:56:43;25.76
2020-06-23 16:41:43;25.76
2020-06-23 17:53:44;25.76
2020-06-23 19:46:13;25.28
2020-06-23 22:28:10;25.12
2020-06-24 02:08:35;24.8
2020-06-24 03:29:32;24.8
2020-06-24 04:41:30;24.96
2020-06-24 05:26:28;24.96
2020-06-24 05:53:27;25.76
2020-06-24 06:24:56;26.56
2020-06-24 07:18:56;27.36
2020-06-24 08:22:00;27.04
2020-06-24 08:58:02;27.04
2020-06-24 09:47:35;26.72
2020-06-24 10:37:07;26.4
2020-06-24 13:14:40;26.24
2020-06-24 14:04:11;26.24
2020-06-24 14:44:42;25.92
2020-06-24 15:25:12;25.92
2020-06-24 16:46:13;25.76
2020-06-24 19:14:43;25.44
2020-06-24 20:04:12;25.44
2020-06-24 22:01:10;25.12
2020-06-24 22:50:40;25.12
2020-06-25 00:07:09;25.12
2020-06-25 00:43:07;25.12
2020-06-25 01:59:35;24.96
2020-06-25 03:25:06;24.96
2020-06-25 04:23:31;24.96
2020-06-25 05:26:30;24.8
2020-06-25 05:57:56;25.6
2020-06-25 07:54:55;25.28
2020-06-25 09:11:23;25.44
2020-06-25 09:47:23;25.92
2020-06-25 10:23:23;25.92
2020-06-25 10:54:53;25.6
2020-06-25 12:56:22;25.6
2020-06-25 13:27:52;25.6
2020-06-25 14:44:21;25.44
2020-06-25 15:20:20;25.44
2020-06-25 15:56:20;25.28
2020-06-25 16:54:49;25.28
2020-06-25 18:15:48;25.12
2020-06-25 18:51:47;25.12
2020-06-25 19:41:16;24.96
2020-06-25 20:39:44;24.96
2020-06-25 21:38:12;24.8
2020-06-25 22:18:41;24.8
2020-06-25 22:59:10;24.8
2020-06-26 00:11:07;24.64
2020-06-26 01:09:35;24.48
2020-06-26 02:30:32;24.48
2020-06-26 03:46:58;24.48
2020-06-26 04:54:25;24.64
2020-06-26 05:30:23;24.96
2020-06-26 05:48:22;25.76
2020-06-26 07:00:20;25.92
2020-06-26 07:40:50;26.72
2020-06-26 08:12:22;27.52
2020-06-26 09:28:58;28.0
2020-06-26 10:27:33;27.2
2020-06-26 11:35:06;27.04
2020-06-26 12:15:38;26.72
2020-06-26 13:05:11;26.88
2020-06-26 14:03:43;26.56
2020-06-26 15:15:46;26.72
2020-06-26 15:51:47;26.72
2020-06-26 16:27:49;26.56
2020-06-26 17:26:21;26.4
2020-06-26 18:06:52;26.24
2020-06-26 19:05:23;26.08
2020-06-26 20:12:54;26.08
2020-06-26 21:15:55;25.76
2020-06-26 22:23:25;25.76
2020-06-26 23:21:56;25.76
2020-06-27 00:20:26;25.76
2020-06-27 01:05:26;25.6
2020-06-27 01:45:56;25.6
2020-06-27 02:21:56;25.6
2020-06-27 03:29:27;25.6
2020-06-27 04:45:56;25.6
2020-06-27 05:53:26;25.6
2020-06-27 06:33:56;26.4
2020-06-27 07:50:27;26.72
2020-06-27 08:40:00;27.2
2020-06-27 09:16:02;27.84
2020-06-27 09:56:36;27.84
2020-06-27 10:37:09;27.52
2020-06-27 11:26:43;27.36
2020-06-27 12:34:17;27.36
2020-06-27 13:28:21;27.36
2020-06-27 14:17:55;27.52
2020-06-27 15:39:01;27.52
2020-06-27 16:28:35;27.52
2020-06-27 17:18:08;27.36
2020-06-27 18:21:13;27.2
2020-06-27 19:28:46;26.88
2020-06-27 20:36:20;26.88
2020-06-27 21:34:52;26.56
2020-06-27 22:46:55;26.4
2020-06-27 23:27:27;26.56
2020-06-28 00:16:58;26.56
2020-06-28 01:06:30;26.4
2020-06-28 02:27:33;26.4
2020-06-28 03:44:06;26.4
2020-06-28 05:00:38;26.24
2020-06-28 05:45:39;27.04
2020-06-28 06:35:11;27.84
2020-06-28 06:48:41;28.64
2020-06-28 07:15:44;29.44
2020-06-28 08:09:52;30.24
2020-06-28 09:08:34;30.4
2020-06-28 10:16:16;29.76
2020-06-28 10:52:22;29.28
2020-06-28 11:46:30;28.96
2020-06-28 12:31:36;28.96
2020-06-28 13:52:46;28.8
2020-06-28 14:46:53;28.8
2020-06-28 15:59:03;28.8
2020-06-28 17:11:12;28.64
2020-06-28 18:00:47;28.48
2020-06-28 18:45:52;28.16
2020-06-28 19:35:27;28.16
2020-06-28 20:16:01;28.16
2020-06-28 21:01:06;27.84
2020-06-28 21:59:41;27.84
2020-06-28 22:53:46;27.84
2020-06-28 23:29:50;27.68
2020-06-29 00:46:25;27.68
2020-06-29 01:49:30;27.52
2020-06-29 02:34:34;27.52
2020-06-29 03:55:40;27.52
2020-06-29 04:31:43;27.36
2020-06-29 05:39:18;27.36
2020-06-29 06:51:21;26.72
2020-06-29 07:09:22;26.4
2020-06-29 08:30:23;26.24
2020-06-29 10:09:26;26.08
2020-06-29 12:38:01;26.72
2020-06-29 13:23:03;26.88
2020-06-29 14:21:36;26.88
2020-06-29 15:38:10;27.04
2020-06-29 16:36:44;27.2
2020-06-29 18:29:21;27.04
2020-06-29 19:05:23;27.04
2020-06-29 19:50:25;26.88
2020-06-29 20:53:28;26.72
2020-06-29 21:43:01;26.72
2020-06-29 23:04:05;26.72
2020-06-30 00:20:38;26.56
2020-06-30 01:19:10;26.56
2020-06-30 02:22:12;26.56
2020-06-30 03:16:14;26.4
2020-06-30 04:28:17;26.4
2020-06-30 05:04:18;26.72
2020-06-30 06:11:50;27.52
2020-06-30 06:43:21;28.32
2020-06-30 07:14:54;29.12
2020-06-30 08:00:01;29.76
2020-06-30 09:16:44;29.76
2020-06-30 10:10:53;29.28
2020-06-30 11:05:00;28.8
2020-06-30 12:12:38;28.64
2020-06-30 13:29:17;28.32
2020-06-30 14:50:25;28.32
2020-06-30 15:53:32;28.16
2020-06-30 16:52:08;28.16
2020-06-30 17:50:44;28.0
2020-06-30 18:31:18;27.84
2020-06-30 19:25:22;27.68
2020-06-30 20:37:28;27.52
2020-06-30 21:54:04;27.36
2020-06-30 22:48:07;27.2
2020-06-30 23:28:40;27.2
2020-07-01 00:09:12;27.2
2020-07-01 01:16:47;27.04
2020-07-01 02:10:50;27.04
2020-07-01 02:51:22;27.04
2020-07-01 03:27:24;26.88
2020-07-01 04:43:58;27.04
2020-07-01 05:29:01;27.2
2020-07-01 06:09:33;27.2
2020-07-01 07:26:08;27.52
2020-07-01 07:53:10;27.52
2020-07-01 08:15:42;27.36
2020-07-01 08:29:13;27.36
2020-07-01 08:47:14;27.36
2020-07-01 09:05:15;27.52
2020-07-01 09:18:46;27.84
2020-07-01 09:36:47;27.84
2020-07-01 10:57:55;28.0
2020-07-01 11:33:58;28.0
2020-07-01 12:50:35;28.16
2020-07-01 13:35:39;28.16
2020-07-01 14:25:15;28.48
2020-07-01 15:05:49;28.32
2020-07-01 16:13:26;28.16
2020-07-01 17:34:34;27.84
2020-07-01 18:28:38;27.84
2020-07-01 19:09:11;27.84
2020-07-01 19:45:14;27.68
2020-07-01 21:06:21;27.68
2020-07-01 22:04:55;27.52
2020-07-01 22:54:29;27.52
2020-07-01 23:35:02;27.52
2020-07-02 00:15:35;27.52
2020-07-02 01:32:10;27.36
2020-07-02 02:44:16;27.36
2020-07-02 03:29:19;27.36
2020-07-02 04:14:21;27.2
2020-07-02 04:50:24;27.36
2020-07-02 05:35:27;27.52
2020-07-02 06:11:30;27.68
2020-07-02 07:05:34;27.84
2020-07-02 07:55:09;28.0
2020-07-02 09:02:44;27.68
2020-07-02 10:14:50;27.68
2020-07-02 11:22:26;27.84
2020-07-02 12:07:29;27.84
2020-07-02 12:57:04;28.0
2020-07-02 14:18:12;28.0
2020-07-02 14:58:46;28.16
2020-07-02 15:43:50;28.16
2020-07-02 16:55:57;28.0
2020-07-02 17:36:31;28.0
2020-07-02 18:53:08;27.84
2020-07-02 19:51:43;27.84
2020-07-02 20:36:47;27.84
2020-07-02 21:21:51;27.68
2020-07-02 22:42:58;27.68
2020-07-02 23:59:34;27.68
2020-07-03 00:58:09;27.68
2020-07-03 02:01:14;27.52
2020-07-03 02:50:47;27.52
2020-07-03 03:35:51;27.36
2020-07-03 04:43:26;27.36
2020-07-03 05:55:31;27.52
2020-07-03 06:36:04;27.36
2020-07-03 07:39:08;26.88
2020-07-03 08:24:10;26.56
2020-07-03 09:22:42;26.56
2020-07-03 09:58:43;27.04
2020-07-03 10:21:14;26.88
2020-07-03 11:42:19;27.36
2020-07-03 12:54:24;27.36
2020-07-03 14:01:59;27.68
2020-07-03 14:56:03;27.68
2020-07-03 16:03:38;27.84
2020-07-03 16:39:41;27.68
2020-07-03 17:42:46;27.68
2020-07-03 18:41:21;27.52
2020-07-03 19:30:54;27.36
2020-07-03 20:42:59;27.36
2020-07-03 21:50:34;27.36
2020-07-03 23:02:38;27.2
2020-07-03 23:38:41;27.2
2020-07-04 00:14:43;27.2
2020-07-04 00:55:16;27.2
2020-07-04 02:02:49;27.04
2020-07-04 03:01:23;27.04
2020-07-04 03:59:56;26.88
2020-07-04 05:21:00;27.2
2020-07-04 06:28:35;27.68
2020-07-04 07:45:12;28.32
2020-07-04 09:06:22;28.64
2020-07-04 09:51:27;28.64
2020-07-04 10:41:02;28.48
2020-07-04 11:21:37;28.32
2020-07-04 14:12:53;28.32
2020-07-04 16:50:40;28.32
2020-07-04 17:53:46;28.16
2020-07-04 18:38:50;28.0
2020-07-04 19:55:27;27.84
2020-07-04 20:40:31;27.84
2020-07-04 22:28:39;27.68
2020-07-04 23:22:42;27.52
2020-07-05 00:07:45;27.52
2020-07-05 00:43:48;27.52
2020-07-05 02:00:23;27.36
2020-07-05 02:45:26;27.36
2020-07-05 03:34:58;27.2
2020-07-05 05:45:36;27.36
2020-07-05 06:44:10;28.16
2020-07-05 07:47:17;28.64
2020-07-05 08:59:26;28.96
2020-07-05 09:35:30;28.8
2020-07-05 10:52:09;28.48
2020-07-05 11:41:45;28.48
2020-07-05 12:35:50;28.32
2020-07-05 14:28:32;28.48
2020-07-05 15:27:09;28.48
2020-07-05 16:30:16;28.48
2020-07-05 18:50:02;28.32
2020-07-05 19:57:39;28.16
2020-07-05 20:51:44;28.16
2020-07-05 21:36:48;28.16
2020-07-05 22:21:52;28.0
2020-07-05 23:38:29;28.0
2020-07-06 00:46:05;27.84
2020-07-06 01:44:40;27.84
2020-07-06 02:29:43;27.68
2020-07-06 03:50:50;27.68
2020-07-06 04:53:55;27.84
2020-07-06 05:29:58;27.84
2020-07-06 06:24:03;28.16
2020-07-06 07:04:37;28.48
2020-07-06 08:07:45;28.96
2020-07-06 08:48:21;29.12
2020-07-06 10:05:01;28.96
2020-07-06 11:03:39;28.8
2020-07-06 12:02:16;28.64
2020-07-06 12:51:52;28.64
2020-07-06 14:13:01;28.48
2020-07-06 15:07:07;28.16
2020-07-06 17:04:18;28.0
2020-07-06 18:16:25;27.84
2020-07-06 19:05:59;27.84
2020-07-06 19:46:33;27.84
2020-07-06 20:27:06;27.68
2020-07-06 21:39:12;27.52
2020-07-06 22:28:46;27.68
2020-07-06 23:27:20;27.36
2020-07-07 00:39:26;27.36
2020-07-07 01:42:30;27.2
2020-07-07 02:18:33;27.2
2020-07-07 03:26:07;27.04
2020-07-07 04:15:40;26.88
2020-07-07 05:00:42;26.72
2020-07-07 05:36:43;25.92
2020-07-07 06:53:15;26.56
2020-07-07 07:38:16;26.56
2020-07-07 08:32:18;26.56
2020-07-07 09:17:19;26.4
2020-07-07 10:33:50;26.08
2020-07-07 11:45:51;26.08
2020-07-07 13:06:52;26.4
2020-07-07 14:14:24;26.56
2020-07-07 15:17:26;26.72
2020-07-07 16:06:58;26.72
2020-07-07 16:56:30;26.72
2020-07-07 17:32:31;26.72
2020-07-07 18:13:03;26.72
2020-07-07 19:29:35;26.4
2020-07-07 20:50:37;26.4
2020-07-07 21:53:38;26.24
2020-07-07 22:43:09;26.08
2020-07-07 23:59:40;26.08
2020-07-08 00:53:41;25.92
2020-07-08 01:38:41;25.92
2020-07-08 02:14:41;25.76
2020-07-08 03:13:11;25.76
2020-07-08 04:02:41;25.6
2020-07-08 04:43:10;25.76
2020-07-08 05:28:10;24.96
2020-07-08 06:22:08;24.8
2020-07-08 06:58:07;24.96
2020-07-08 07:34:05;25.12
2020-07-08 08:55:04;25.44
2020-07-08 09:35:33;25.28
2020-07-08 10:52:02;25.6
2020-07-08 11:28:01;25.6
2020-07-08 12:08:31;25.92
2020-07-08 13:29:32;26.08
2020-07-08 14:41:33;26.24
2020-07-08 15:26:34;26.24
2020-07-08 16:25:05;26.24
2020-07-08 17:01:05;26.24
2020-07-08 17:37:06;26.08
2020-07-08 18:58:07;26.08
2020-07-08 20:05:37;25.92
2020-07-08 20:55:08;25.92
2020-07-08 21:40:08;25.92
2020-07-08 22:20:39;25.92
2020-07-08 22:56:39;25.92
2020-07-08 23:32:39;25.92
2020-07-09 00:49:10;25.92
2020-07-09 01:25:10;25.76
2020-07-09 02:23:40;25.76
2020-07-09 03:31:10;25.76
2020-07-09 04:25:10;25.76
2020-07-09 05:10:12;25.6
2020-07-09 06:04:09;25.6
2020-07-09 06:58:10;26.24
2020-07-09 07:52:12;26.56
2020-07-09 08:59:46;27.04
2020-07-09 09:35:47;26.88
2020-07-09 10:11:49;27.2
2020-07-09 10:25:19;26.88
2020-07-09 11:46:22;26.56
2020-07-09 12:53:55;26.88
2020-07-09 13:56:58;26.88
2020-07-09 14:33:00;26.88
2020-07-09 15:36:03;27.04
2020-07-09 16:34:36;27.2
2020-07-09 17:42:10;27.04
2020-07-09 18:22:42;26.88
2020-07-09 19:30:15;26.72
2020-07-09 20:10:47;26.72
2020-07-09 21:31:50;26.56
2020-07-09 22:21:22;26.4
2020-07-09 23:01:53;26.4
2020-07-10 00:18:25;26.24
2020-07-10 01:07:57;26.24
2020-07-10 02:01:58;26.08
2020-07-10 03:13:59;25.92
2020-07-10 03:54:30;26.08
2020-07-10 04:53:01;26.24
2020-07-10 05:38:02;26.08
2020-07-10 06:09:32;26.4
2020-07-10 07:35:05;26.72
2020-07-10 07:53:06;26.88
2020-07-10 08:33:38;27.36
2020-07-10 08:56:10;27.68
2020-07-10 09:32:13;28.48
2020-07-10 09:45:45;28.48
2020-07-10 10:03:47;28.8
2020-07-10 10:08:17;28.8
2020-07-10 10:53:23;28.8
2020-07-10 11:56:32;29.12
2020-07-10 13:44:46;28.64
2020-07-10 14:20:51;28.64
2020-07-10 14:29:52;28.64
2020-07-10 14:47:54;28.64
2020-07-10 15:10:26;28.48
2020-07-10 15:46:30;28.48
2020-07-10 17:03:09;28.48
2020-07-10 17:43:43;28.16
2020-07-10 20:03:25;27.36
2020-07-10 20:48:28;27.2
2020-07-10 23:21:36;26.88
2020-07-11 01:23:11;26.72
2020-07-11 01:59:13;26.56
2020-07-11 03:02:16;26.56
2020-07-11 04:09:48;26.56
2020-07-11 05:03:52;26.56
2020-07-11 05:53:24;26.4
2020-07-11 08:39:57;26.08
2020-07-11 09:56:29;25.92
2020-07-11 10:41:30;25.92
2020-07-11 12:07:02;25.92
2020-07-11 12:43:02;25.76
2020-07-11 13:41:33;25.6
2020-07-11 16:10:04;25.44
2020-07-11 16:46:04;25.28
2020-07-11 18:07:03;25.28
2020-07-11 22:00:59;24.8
2020-07-11 23:17:27;24.48
2020-07-12 00:38:23;24.48
2020-07-12 01:32:21;24.32
2020-07-12 02:48:47;24.0
2020-07-12 04:45:40;24.0
2020-07-12 06:02:06;24.0
2020-07-12 07:23:01;24.0
2020-07-12 08:25:57;24.0
2020-07-12 09:01:54;24.16
2020-07-12 09:51:22;24.48
2020-07-12 11:03:18;24.48
2020-07-12 11:43:47;24.32
2020-07-12 12:46:44;24.32
2020-07-12 13:13:44;24.32
2020-07-12 14:03:10;24.48
2020-07-12 16:13:36;24.64
2020-07-12 17:30:02;24.48
2020-07-12 18:37:29;24.32
2020-07-12 19:58:24;24.16
2020-07-12 20:43:21;24.0
2020-07-12 22:58:12;23.68
2020-07-12 23:56:38;23.52
2020-07-13 01:39:59;23.36
2020-07-13 02:29:25;23.2
2020-07-13 03:36:49;22.88
2020-07-13 04:57:41;23.52
2020-07-13 05:38:09;24.0
2020-07-13 06:45:35;26.4
2020-07-13 07:30:35;27.2
2020-07-13 07:44:05;27.04
2020-07-13 09:18:38;26.24
2020-07-13 10:35:08;25.44
2020-07-13 11:56:06;24.96
2020-07-13 13:03:33;24.96
2020-07-13 13:53:02;24.96
2020-07-13 14:38:00;24.8
2020-07-13 15:58:57;24.8
2020-07-13 17:01:54;24.48
2020-07-13 18:18:19;24.0
2020-07-13 19:03:15;23.84
2020-07-13 19:48:12;24.32
2020-07-13 20:46:39;24.48
2020-07-13 22:07:35;24.0
2020-07-13 23:28:28;23.36
2020-07-14 00:31:22;23.2
2020-07-14 01:47:44;23.52
2020-07-14 02:28:11;23.68
2020-07-14 03:44:35;23.84
2020-07-14 04:20:32;23.84
2020-07-14 05:05:29;24.0
2020-07-14 05:50:25;24.8
2020-07-14 06:08:24;25.6
2020-07-14 06:48:52;26.4
2020-07-14 07:56:20;26.56
2020-07-14 08:41:21;26.56
2020-07-14 09:30:52;26.4
2020-07-14 10:29:23;25.6
2020-07-14 11:41:22;25.28
2020-07-14 12:57:50;25.28
2020-07-14 13:56:20;25.44
2020-07-14 15:53:19;25.92
2020-07-14 16:29:19;25.92
2020-07-14 17:09:49;25.92
2020-07-14 18:21:49;25.6
2020-07-14 19:33:48;25.28
2020-07-14 20:41:17;25.28
2020-07-14 21:39:46;25.12
2020-07-14 23:00:44;24.96
2020-07-15 00:12:42;24.96
2020-07-15 01:02:10;24.8
2020-07-15 02:18:39;24.8
2020-07-15 03:26:05;24.64
2020-07-15 04:11:03;24.64
2020-07-15 05:09:31;24.8
2020-07-15 05:45:30;25.28
2020-07-15 06:03:29;26.08
2020-07-15 06:30:28;26.88
2020-07-15 06:52:58;27.68
2020-07-15 07:47:00;28.48
2020-07-15 08:54:36;28.64
2020-07-15 09:44:12;28.32
2020-07-15 10:42:47;27.52
2020-07-15 11:09:49;27.68
2020-07-15 12:30:55;27.52
2020-07-15 13:52:00;27.04
2020-07-15 14:32:31;26.88
2020-07-15 15:40:03;26.88
2020-07-15 16:43:06;26.72
2020-07-15 18:04:08;26.4
2020-07-15 19:25:10;26.24
2020-07-15 20:10:11;26.08
2020-07-15 21:17:42;25.92
2020-07-15 22:07:12;25.92
2020-07-15 23:23:42;25.76
2020-07-16 00:13:12;25.76
2020-07-16 01:07:12;25.6
2020-07-16 01:47:42;25.6
2020-07-16 03:04:11;25.44
2020-07-16 04:02:41;25.6
2020-07-16 04:38:41;25.6
2020-07-16 05:01:11;25.76
2020-07-16 05:46:11;25.76
2020-07-16 06:26:40;25.44
2020-07-16 07:43:10;25.76
2020-07-16 08:10:10;25.76
2020-07-16 09:31:10;25.76
2020-07-16 10:34:10;26.08
2020-07-16 11:50:41;26.08
2020-07-16 12:53:42;26.4
2020-07-16 13:56:44;26.08
2020-07-16 15:17:45;26.08
2020-07-16 16:16:16;26.08
2020-07-16 17:10:17;25.92
2020-07-16 18:26:47;25.76
2020-07-16 19:11:47;25.44
2020-07-16 20:10:16;25.44
2020-07-16 20:59:46;25.44
2020-07-16 21:35:45;25.44
2020-07-16 22:11:45;25.28
2020-07-16 23:28:14;25.12
2020-07-17 00:17:43;25.12
2020-07-17 01:07:12;25.12
2020-07-17 01:47:41;24.96
2020-07-17 02:55:10;24.96
2020-07-17 04:02:38;24.96
2020-07-17 04:47:37;24.8
2020-07-17 05:28:06;24.8
2020-07-17 06:04:05;24.8
2020-07-17 06:40:04;25.12
2020-07-17 07:20:33;25.12
2020-07-17 07:56:32;25.28
2020-07-17 09:13:01;25.28
2020-07-17 10:25:01;25.44
2020-07-17 11:10:00;25.44
2020-07-17 11:59:30;25.28
2020-07-17 13:20:29;25.28
2020-07-17 14:36:58;25.44
2020-07-17 15:17:28;25.28
2020-07-17 16:24:57;25.44
2020-07-17 17:05:26;25.28
2020-07-17 18:12:55;25.12
2020-07-17 18:48:55;24.96
2020-07-17 20:00:53;24.96
2020-07-17 20:54:51;24.8
2020-07-17 22:15:49;24.8
2020-07-17 23:18:47;24.64
2020-07-18 00:12:45;24.64
2020-07-18 01:02:13;24.64
2020-07-18 01:38:12;24.48
2020-07-18 02:54:39;24.48
2020-07-18 04:02:06;24.48
2020-07-18 04:56:04;24.32
2020-07-18 05:45:32;24.32
2020-07-18 06:26:00;24.32
2020-07-18 07:10:58;24.48
2020-07-18 08:04:55;24.32
2020-07-18 08:54:23;24.48
2020-07-18 09:48:21;24.32
2020-07-18 10:37:48;24.48
2020-07-18 11:40:45;24.48
2020-07-18 12:39:12;24.48
2020-07-18 13:51:09;24.64
2020-07-18 14:49:36;24.64
2020-07-18 15:25:35;24.48
2020-07-18 16:42:02;24.48
2020-07-18 17:44:59;24.48
2020-07-18 18:38:57;24.32
2020-07-18 19:23:55;24.32
2020-07-18 19:59:53;24.32
2020-07-18 21:16:20;24.16
2020-07-18 22:19:16;24.16
2020-07-18 23:26:43;24.16
2020-07-19 00:29:39;24.16
2020-07-19 01:19:07;24.16
2020-07-19 02:22:03;24.16
2020-07-19 03:11:31;24.0
2020-07-19 03:47:28;24.0
2020-07-19 04:27:56;24.0
2020-07-19 05:48:52;24.0
2020-07-19 06:29:20;24.0
2020-07-19 07:05:18;24.0
2020-07-19 07:41:16;24.16
2020-07-19 08:35:13;24.16
2020-07-19 09:20:10;24.16
2020-07-19 10:32:07;24.48
2020-07-19 11:48:34;24.96
2020-07-19 13:00:33;25.12
2020-07-19 13:41:02;25.12
2020-07-19 14:30:31;24.96
2020-07-19 15:29:00;24.96
2020-07-19 16:31:59;24.96
2020-07-19 17:30:27;24.96
2020-07-19 18:15:26;24.8
2020-07-19 18:55:56;24.8
2020-07-19 19:58:54;24.64
2020-07-19 20:43:53;24.64
2020-07-19 21:24:21;24.48
2020-07-19 22:45:19;24.48
2020-07-20 00:06:16;24.48
2020-07-20 01:00:14;24.48
2020-07-20 02:03:11;24.32
2020-07-20 02:43:40;24.32
2020-07-20 03:33:08;24.32
2020-07-20 04:54:05;24.32
2020-07-20 05:43:33;24.48
2020-07-20 06:42:01;25.28
2020-07-20 06:55:30;26.08
2020-07-20 07:26:59;26.88
2020-07-20 08:25:32;27.68
2020-07-20 09:46:40;27.84
2020-07-20 10:49:45;27.2
2020-07-20 11:25:48;27.04
2020-07-20 12:24:21;27.04
2020-07-20 13:00:24;26.88
2020-07-20 14:16:58;26.88
2020-07-20 15:11:01;26.88
2020-07-20 16:09:34;26.88
2020-07-20 17:17:08;26.72
2020-07-20 18:38:11;26.4
2020-07-20 19:45:43;26.08
2020-07-20 20:57:45;25.92
2020-07-20 21:47:16;25.92
2020-07-20 22:23:17;25.76
2020-07-20 23:30:48;25.76
2020-07-21 00:20:19;25.76
2020-07-21 01:09:49;25.76
2020-07-21 01:54:50;25.76
2020-07-21 02:39:50;25.6
2020-07-21 04:00:51;25.6
2020-07-21 05:08:21;25.6
2020-07-21 05:44:21;26.24
2020-07-21 06:02:21;27.04
2020-07-21 06:29:22;27.84
2020-07-21 06:51:54;28.64
2020-07-21 07:41:27;29.28
2020-07-21 08:35:35;29.6
2020-07-21 09:43:17;29.6
2020-07-21 10:41:56;28.96
2020-07-21 11:36:03;28.48
2020-07-21 12:39:10;28.32
2020-07-21 13:51:18;28.16
2020-07-21 14:45:24;28.16
2020-07-21 15:25:58;28.0
2020-07-21 16:38:05;27.84
2020-07-21 17:36:40;27.68
2020-07-21 18:44:15;27.36
2020-07-21 19:51:50;27.2
2020-07-21 20:27:52;27.2
2020-07-21 21:35:26;27.04
2020-07-21 22:24:59;26.88
2020-07-21 23:28:03;26.88
2020-07-22 00:35:36;26.72
2020-07-22 01:11:38;26.72
2020-07-22 01:52:10;26.56
2020-07-22 02:59:43;26.56
2020-07-22 04:02:45;26.56
2020-07-22 04:52:17;26.56
2020-07-22 05:41:49;26.72
2020-07-22 06:26:51;27.52
2020-07-22 07:38:55;28.32
2020-07-22 08:55:34;28.8
2020-07-22 09:58:43;29.12
2020-07-22 11:06:22;28.64
2020-07-22 11:55:58;28.48
2020-07-22 12:59:06;28.48
2020-07-22 13:53:12;28.48
2020-07-22 14:56:20;28.48
2020-07-22 15:50:26;28.32
2020-07-22 16:26:30;28.32
2020-07-22 17:34:07;28.16
2020-07-22 18:19:13;28.0
2020-07-22 19:26:48;27.68
2020-07-22 20:38:55;27.52
2020-07-22 22:00:01;27.36
2020-07-22 22:54:05;27.36
2020-07-22 23:39:08;27.2
2020-07-23 00:55:43;27.04
2020-07-23 01:49:47;27.04
2020-07-23 02:30:19;26.88
2020-07-23 03:51:24;26.88
2020-07-23 04:49:57;27.04
2020-07-23 05:25:59;27.04
2020-07-23 06:02:01;27.84
2020-07-23 06:33:33;28.64
2020-07-23 07:32:08;28.64
2020-07-23 08:48:48;29.44
2020-07-23 10:10:01;29.28
2020-07-23 11:08:39;28.96
2020-07-23 11:49:15;28.96
2020-07-23 12:34:21;28.8
2020-07-23 13:37:29;28.8
2020-07-23 14:40:38;28.8
2020-07-23 15:39:15;28.64
2020-07-23 16:28:52;28.64
2020-07-23 17:41:01;28.48
2020-07-23 18:44:08;28.16
2020-07-23 19:24:42;28.0
2020-07-23 20:05:16;27.84
2020-07-23 20:50:21;27.84
2020-07-23 21:26:24;27.68
2020-07-23 22:38:30;27.68
2020-07-23 23:37:05;27.36
2020-07-24 00:44:40;27.36
2020-07-24 01:34:14;27.36
2020-07-24 02:23:47;27.2
2020-07-24 02:59:49;27.2
2020-07-24 04:11:54;27.04
2020-07-24 05:10:27;27.04
2020-07-24 06:00:00;27.36
2020-07-24 06:45:03;28.32
2020-07-24 07:03:04;29.12
2020-07-24 07:39:08;29.92
2020-07-24 08:24:16;30.56
2020-07-24 09:00:23;30.72
2020-07-24 09:41:02;30.72
2020-07-24 10:17:12;30.4
2020-07-24 11:33:54;30.08
2020-07-24 12:23:33;29.76
2020-07-24 13:13:11;29.44
2020-07-24 14:02:48;29.12
2020-07-24 15:05:56;28.64
2020-07-24 15:55:32;28.64
2020-07-24 17:07:40;28.32
2020-07-24 18:19:48;28.16
2020-07-24 19:00:22;28.0
2020-07-24 20:16:59;27.84
2020-07-24 20:53:02;27.84
2020-07-24 21:29:06;27.68
2020-07-24 22:45:42;27.68
2020-07-24 23:48:48;27.36
2020-07-25 00:56:23;27.36
2020-07-25 02:08:28;27.36
2020-07-25 03:02:32;27.36
2020-07-25 03:52:06;27.2
2020-07-25 05:13:11;27.2
2020-07-25 06:25:16;27.2
2020-07-25 07:46:21;27.36
2020-07-25 08:31:25;27.52
2020-07-25 09:34:30;28.32
2020-07-25 10:55:40;28.48
2020-07-25 12:03:18;28.64
2020-07-25 13:19:58;28.48
2020-07-25 14:05:03;28.32
2020-07-25 15:17:10;28.16
2020-07-25 16:29:18;28.16
2020-07-25 17:18:52;28.0
2020-07-25 17:54:56;27.84
2020-07-25 18:49:01;27.68
2020-07-25 20:01:07;27.52
2020-07-25 21:17:43;27.36
2020-07-25 22:29:48;27.2
2020-07-25 23:05:50;27.2
2020-07-26 00:17:55;27.04
2020-07-26 01:11:58;26.88
2020-07-26 02:33:02;26.88
2020-07-26 03:36:06;26.72
2020-07-26 04:21:08;26.88
2020-07-26 05:15:11;27.04
2020-07-26 05:51:12;27.68
2020-07-26 06:09:13;28.48
2020-07-26 06:27:14;29.28
2020-07-26 06:49:46;30.08
2020-07-26 07:39:24;30.88
2020-07-26 08:29:04;30.08
2020-07-26 09:41:17;29.6
2020-07-26 10:39:56;29.44
2020-07-26 11:16:01;29.28
2020-07-26 13:04:16;28.8
2020-07-26 14:20:56;29.28
2020-07-26 15:01:32;29.12
2020-07-26 16:09:11;28.8
2020-07-26 17:12:19;28.64
2020-07-26 18:24:27;28.32
2020-07-26 19:27:33;28.0
2020-07-26 20:44:11;28.0
2020-07-26 21:51:47;27.68
2020-07-26 23:03:53;27.52
2020-07-26 23:53:27;27.52
2020-07-27 01:14:33;27.36
2020-07-27 02:22:08;27.36
2020-07-27 03:11:41;27.2
2020-07-27 04:19:16;27.2
2020-07-27 05:31:20;27.04
2020-07-27 06:11:52;27.84
2020-07-27 06:29:53;28.64
2020-07-27 07:05:56;29.6
2020-07-27 07:51:02;30.4
2020-07-27 08:54:14;30.08
2020-07-27 09:52:55;30.08
2020-07-27 11:00:37;29.6
2020-07-27 11:54:45;29.28
2020-07-27 12:39:52;29.28
2020-07-27 13:20:28;29.12
2020-07-27 14:28:07;29.12
2020-07-27 15:31:16;28.96
2020-07-27 16:07:21;28.96
2020-07-27 16:56:57;28.96
2020-07-27 17:42:03;28.8
2020-07-27 18:40:41;28.48
2020-07-27 19:34:47;28.32
2020-07-27 20:51:25;28.16
2020-07-27 22:03:32;28.0
2020-07-27 23:11:08;27.84
2020-07-28 00:00:42;27.84
2020-07-28 00:36:46;27.68
2020-07-28 01:48:51;27.52
2020-07-28 03:32:29;27.52
2020-07-28 04:53:35;27.52
2020-07-28 05:43:09;27.84
2020-07-28 06:01:10;28.64
2020-07-28 06:41:44;29.44
2020-07-28 07:35:53;30.24
2020-07-28 09:01:42;31.52
2020-07-28 09:37:51;31.52
2020-07-28 10:36:34;30.88
2020-07-28 11:57:50;30.24
2020-07-28 12:33:57;30.08
2020-07-28 13:41:40;30.08
2020-07-28 14:44:51;30.08
2020-07-28 15:39:01;29.92
2020-07-28 16:15:07;29.92
2020-07-28 17:27:19;29.6
2020-07-28 18:21:27;29.44
2020-07-28 19:38:09;29.28
2020-07-28 20:18:45;29.12
2020-07-28 21:26:24;28.96
2020-07-28 22:11:30;28.96
2020-07-28 22:56:36;28.8
2020-07-29 01:02:53;28.64
2020-07-29 01:43:28;28.64
2020-07-29 02:28:34;28.64
2020-07-29 03:49:44;28.64
2020-07-29 05:01:52;28.48
2020-07-29 06:05:00;28.64
2020-07-29 07:26:10;29.28
2020-07-29 07:57:46;30.08
2020-07-29 08:56:26;30.08
2020-07-29 09:41:35;30.88
2020-07-29 10:49:19;30.4
2020-07-29 11:48:01;30.24
2020-07-29 12:33:09;30.24
2020-07-29 13:49:54;30.08
2020-07-29 14:48:35;30.08
2020-07-29 15:38:14;30.08
2020-07-29 16:27:52;29.92
2020-07-29 17:40:05;29.76
2020-07-29 19:01:18;29.44
2020-07-29 20:22:30;29.28
2020-07-29 21:16:38;29.12
2020-07-29 22:24:18;28.96
2020-07-29 23:18:25;28.96
2020-07-30 00:39:36;28.64
2020-07-30 01:24:42;28.8
2020-07-30 02:23:19;28.64
2020-07-30 03:44:29;28.48
2020-07-30 04:38:35;28.48
2020-07-30 05:32:42;28.8
2020-07-30 05:59:45;29.76
2020-07-30 06:22:18;30.56
2020-07-30 06:49:23;31.36
2020-07-30 07:30:04;32.16
2020-07-30 08:24:19;32.8
2020-07-30 09:36:42;32.8
2020-07-30 10:35:28;32.16
2020-07-30 11:43:15;31.36
2020-07-30 13:04:34;31.2
2020-07-30 13:58:46;31.04
2020-07-30 14:39:25;31.04
2020-07-30 15:56:12;30.88
2020-07-30 16:50:23;30.72
2020-07-30 18:07:09;30.4
2020-07-30 19:19:23;30.24
2020-07-30 20:31:36;29.92
2020-07-30 21:07:42;29.92
2020-07-30 22:28:56;29.76
2020-07-30 23:18:34;29.76
2020-07-31 00:39:48;29.6
2020-07-31 01:42:57;29.28
2020-07-31 02:50:38;29.28
2020-07-31 03:44:46;29.12
2020-07-31 04:20:51;29.12
2020-07-31 05:42:02;29.44
2020-07-31 06:00:05;30.24
2020-07-31 06:18:07;31.04
2020-07-31 06:45:13;32.0
2020-07-31 07:30:25;32.8
2020-07-31 08:20:11;33.44
2020-07-31 09:32:35;33.44
2020-07-31 10:13:18;32.96
2020-07-31 10:49:28;32.48
2020-07-31 11:34:40;32.16
2020-07-31 12:15:22;32.0
2020-07-31 13:18:37;31.68
2020-07-31 14:12:50;31.68
2020-07-31 15:07:03;31.68
2020-07-31 15:56:45;31.52
2020-07-31 17:04:32;31.36
2020-07-31 17:45:11;31.2
2020-07-31 18:57:27;30.72
2020-07-31 19:38:06;30.72
2020-07-31 20:54:52;30.56
2020-07-31 21:49:03;30.56
2020-07-31 22:25:10;30.4
2020-07-31 23:28:22;30.24
2020-08-01 00:49:37;30.08
2020-08-01 01:43:47;29.92
2020-08-01 02:19:53;29.92
2020-08-01 03:36:37;29.76
2020-08-01 04:35:16;29.76
2020-08-01 05:24:55;29.92
2020-08-01 05:56:30;30.72
2020-08-01 06:14:33;31.52
2020-08-01 06:41:39;32.32
2020-08-01 07:13:18;33.12
2020-08-01 08:03:06;33.92
2020-08-01 09:15:31;34.08
2020-08-01 10:23:25;33.44
2020-08-01 11:17:41;32.64
2020-08-01 12:30:02;32.48
2020-08-01 13:15:14;32.32
2020-08-01 14:32:05;32.16
2020-08-01 15:08:15;32.0
2020-08-01 16:25:05;31.84
2020-08-01 17:14:47;31.84
2020-08-01 18:27:05;31.36
2020-08-01 19:25:49;31.2
2020-08-01 20:38:05;31.04
2020-08-01 21:18:45;31.04
2020-08-01 22:31:00;30.88
2020-08-01 23:20:41;30.72
2020-08-02 00:37:26;30.56
2020-08-02 01:27:07;30.56
2020-08-02 02:16:47;30.4
2020-08-02 03:33:32;30.24
2020-08-02 04:23:11;30.4
2020-08-02 05:26:23;30.4
2020-08-02 05:57:59;31.2
2020-08-02 06:29:36;32.0
2020-08-02 07:46:27;32.16
2020-08-02 09:07:49;32.48
2020-08-02 09:57:33;32.16
2020-08-02 10:47:16;32.16
2020-08-02 12:08:38;31.84
2020-08-02 12:58:20;31.68
2020-08-02 14:01:36;31.68
2020-08-02 15:04:51;31.52
2020-08-02 16:17:09;31.36
2020-08-02 17:38:27;30.88
2020-08-02 18:46:12;30.88
2020-08-02 19:40:24;30.72
2020-08-02 20:52:39;30.56
2020-08-02 21:37:48;30.56
2020-08-02 22:22:57;30.4
2020-08-02 23:35:11;30.4
2020-08-03 00:42:54;30.24
2020-08-03 01:23:32;30.24
2020-08-03 02:04:09;30.08
2020-08-03 03:11:52;30.08
2020-08-03 04:15:03;30.08
2020-08-03 05:00:11;29.92
2020-08-03 05:36:18;29.92
2020-08-03 06:12:24;29.92
2020-08-03 07:29:08;29.92
2020-08-03 08:36:49;29.92
2020-08-03 09:44:31;29.76
2020-08-03 10:38:40;29.92
2020-08-03 11:46:22;29.92
2020-08-03 12:58:35;29.92
2020-08-03 14:15:18;30.08
2020-08-03 15:13:59;29.92
2020-08-03 16:35:13;29.76
2020-08-03 17:11:19;29.76
2020-08-03 17:47:25;29.76
2020-08-03 19:08:38;29.44
2020-08-03 19:44:43;29.44
2020-08-03 20:56:55;29.44
2020-08-03 22:09:06;29.28
2020-08-03 23:07:45;29.28
2020-08-03 23:57:22;29.28
2020-08-04 00:37:58;29.12
2020-08-04 01:41:07;29.12
2020-08-04 02:44:16;28.96
2020-08-04 03:24:52;28.96
2020-08-04 04:05:28;28.8
2020-08-04 05:22:08;28.8
2020-08-04 06:29:47;28.8
2020-08-04 07:32:56;28.8
2020-08-04 08:49:36;28.96
2020-08-04 09:25:41;28.96
2020-08-04 10:19:49;28.96
2020-08-04 11:13:57;28.8
2020-08-04 12:26:06;28.8
2020-08-04 13:42:47;28.8
2020-08-04 14:45:55;28.8
2020-08-04 15:44:32;28.64
2020-08-04 17:01:11;28.48
2020-08-04 17:41:46;28.32
2020-08-04 19:02:55;28.32
2020-08-04 20:10:33;28.16
2020-08-04 21:00:08;28.16
2020-08-04 21:45:13;28.16
2020-08-04 22:30:17;28.0
2020-08-04 23:51:25;27.84
2020-08-05 00:50:01;27.84
2020-08-05 01:30:34;27.84
2020-08-05 02:06:38;27.84
2020-08-05 02:42:41;27.68
2020-08-05 03:45:47;27.52
2020-08-05 04:35:21;27.52
2020-08-05 05:11:24;27.52
2020-08-05 05:51:57;27.52
2020-08-05 07:13:04;27.52
2020-08-05 07:53:37;27.52
2020-08-05 08:34:11;27.52
2020-08-05 09:23:45;27.52
2020-08-05 10:08:49;27.52
2020-08-05 10:58:23;27.52
2020-08-05 11:34:26;27.68
2020-08-05 12:51:02;27.68
2020-08-05 13:54:08;27.68
2020-08-05 14:57:13;27.52
2020-08-05 15:37:46;27.52
2020-08-05 16:58:53;27.36
2020-08-05 18:01:57;27.36
2020-08-05 19:05:02;27.2
2020-08-05 19:45:35;27.2
2020-08-05 20:53:10;27.04
2020-08-05 21:42:43;27.04
2020-08-05 22:23:16;26.88
2020-08-05 23:35:20;26.88
2020-08-06 00:38:24;26.88
2020-08-06 01:36:57;26.72
2020-08-06 02:12:59;26.72
2020-08-06 03:34:03;26.56
2020-08-06 04:46:06;26.72
2020-08-06 05:26:38;26.88
2020-08-06 05:58:10;27.68
2020-08-06 06:25:12;28.48
2020-08-06 06:56:46;29.28
2020-08-06 07:41:54;30.08
2020-08-06 08:49:37;30.72
2020-08-06 09:57:21;30.24
2020-08-06 10:33:28;29.92
2020-08-06 11:09:34;29.76
2020-08-06 11:54:41;29.6
2020-08-06 12:53:21;29.28
2020-08-06 14:01:01;29.28
2020-08-06 14:41:37;29.12
2020-08-06 16:02:48;28.96
2020-08-06 16:56:56;28.96
2020-08-06 17:42:02;28.8
2020-08-06 18:36:09;28.64
2020-08-06 19:57:19;28.32
2020-08-06 21:04:56;28.32
2020-08-06 22:17:04;28.16
2020-08-06 23:02:08;28.0
2020-08-06 23:42:42;28.0
2020-08-07 00:54:49;27.84
2020-08-07 01:48:54;27.84
2020-08-07 02:24:57;27.68
2020-08-07 03:41:34;27.68
2020-08-07 04:49:09;27.68
2020-08-07 05:52:14;28.48
2020-08-07 06:19:16;29.28
2020-08-07 06:46:20;30.08
2020-08-07 07:22:28;30.88
2020-08-07 08:16:40;31.68
2020-08-07 09:33:30;31.84
2020-08-07 10:09:40;31.52
2020-08-07 10:54:50;30.72
2020-08-07 12:02:34;30.4
2020-08-07 13:14:47;30.24
2020-08-07 13:55:25;30.24
2020-08-07 15:12:09;30.08
2020-08-07 16:01:47;29.92
2020-08-07 16:42:24;29.92
2020-08-07 18:03:38;29.6
2020-08-07 19:15:49;29.44
2020-08-07 20:28:00;29.28
2020-08-07 21:08:36;29.12
2020-08-07 22:11:44;28.96
2020-08-07 22:52:20;28.96
2020-08-08 00:13:30;28.8
2020-08-08 01:16:38;28.64
2020-08-08 01:57:13;28.64
2020-08-08 03:18:23;28.48
2020-08-08 04:16:59;28.48
2020-08-08 05:06:35;28.48
2020-08-08 05:51:40;29.28
2020-08-08 06:18:43;30.08
2020-08-08 06:50:18;30.88
2020-08-08 07:26:27;31.68
2020-08-08 08:11:39;32.48
2020-08-08 09:19:28;32.8
2020-08-08 10:13:43;32.16
2020-08-08 11:07:57;31.52
2020-08-08 11:44:06;31.36
2020-08-08 12:38:18;31.2
2020-08-08 13:32:30;31.04
2020-08-08 14:53:48;31.04
2020-08-08 16:06:03;30.72
2020-08-08 16:42:11;30.72
2020-08-08 17:58:56;30.4
2020-08-08 19:15:41;30.08
2020-08-08 20:09:50;29.92
2020-08-08 20:45:57;29.92
2020-08-08 21:58:09;29.76
2020-08-08 22:43:16;29.76
2020-08-08 23:28:24;29.76
2020-08-09 00:09:00;29.6
2020-08-09 01:07:39;29.44
2020-08-09 01:48:16;29.44
2020-08-09 03:04:57;29.28
2020-08-09 03:45:33;29.12
2020-08-09 04:21:38;29.28
2020-08-09 05:06:45;29.28
2020-08-09 05:51:52;30.08
2020-08-09 06:18:55;31.04
2020-08-09 06:55:03;31.84
2020-08-09 07:40:16;32.64
2020-08-09 08:43:35;33.12
2020-08-09 09:24:18;33.28
2020-08-09 10:14:04;32.8
2020-08-09 11:21:53;32.16
2020-08-09 12:02:33;32.0
2020-08-09 13:19:23;31.84
2020-08-09 13:55:32;31.84
2020-08-09 15:07:51;31.68
2020-08-09 16:02:04;31.52
2020-08-09 17:23:23;31.36
2020-08-09 18:13:05;31.2
2020-08-09 19:11:48;30.88
2020-08-09 20:15:01;30.72
2020-08-09 21:36:18;30.56
2020-08-09 22:12:25;30.4
2020-08-09 23:29:10;30.4
2020-08-10 00:23:20;30.24
2020-08-10 00:59:27;30.24
2020-08-10 02:11:40;30.08
2020-08-10 03:05:50;30.08
2020-08-10 03:55:29;29.92
2020-08-10 05:07:41;30.08
2020-08-10 05:52:49;30.72
2020-08-10 06:19:54;31.52
2020-08-10 06:51:31;32.32
2020-08-10 07:32:14;33.12
2020-08-10 08:12:57;33.76
2020-08-10 09:07:16;34.08
2020-08-10 10:15:10;33.6
2020-08-10 11:23:01;32.96
2020-08-10 11:59:12;32.8
2020-08-10 12:57:58;32.48
2020-08-10 14:01:16;32.48
2020-08-10 14:46:29;32.16
2020-08-10 15:40:43;32.16
2020-08-10 16:25:55;32.0
2020-08-10 17:38:14;31.68
2020-08-10 18:36:58;31.52
2020-08-10 19:17:38;31.36
2020-08-10 20:16:22;31.2
2020-08-10 21:28:39;31.2
2020-08-26 14:51:00;31.04
2020-08-27 13:57:09;31.36
2020-08-31 22:44:44;27.36
2020-09-01 03:46:32;26.88
2020-09-05 16:21:52;27.68
;