time;NMSGrein_SR04rH_018a3891_tem-ms1
2019-11-19 09:01:51;20.96
2019-11-19 10:45:06;21.44
2019-11-19 12:14:53;20.32
2019-11-19 12:37:19;20.48
2019-11-19 13:17:43;20.16
2019-11-19 15:27:51;19.84
2019-11-19 16:21:42;19.68
2019-11-19 17:42:27;19.68
2019-11-19 18:49:45;19.36
2019-11-19 20:01:31;19.36
2019-11-19 21:04:19;19.2
2019-11-19 21:49:10;19.2
2019-11-19 22:34:02;19.2
2019-11-19 23:09:55;19.04
2019-11-20 00:08:13;19.04
2019-11-20 00:53:04;18.88
2019-11-20 02:09:19;18.88
2019-11-20 03:16:35;18.72
2019-11-20 07:41:15;21.76
2019-11-20 08:26:09;21.76
2019-11-20 09:15:33;22.08
2019-11-20 09:42:30;22.56
2019-11-20 10:58:52;22.4
2019-11-20 11:21:20;23.2
2019-11-20 12:01:47;22.88
2019-11-20 13:13:40;22.72
2019-11-20 14:03:05;22.56
2019-11-20 14:52:30;22.56
2019-11-20 15:59:53;22.56
2019-11-20 17:11:45;22.56
2019-11-20 18:23:38;22.88
2019-11-20 19:35:31;22.88
2019-11-20 20:11:28;22.56
2019-11-20 21:32:19;22.88
2019-11-20 22:12:46;22.88
2019-11-20 23:20:09;22.72
2019-11-20 23:56:05;22.88
2019-11-21 01:12:27;22.72
2019-11-21 02:15:21;22.72
2019-11-21 03:18:14;22.88
2019-11-21 04:25:38;22.72
2019-11-21 05:10:33;23.04
2019-11-21 05:55:29;22.72
2019-11-21 06:49:24;23.2
2019-11-21 07:02:53;23.52
2019-11-21 07:43:20;24.0
2019-11-21 08:37:16;24.32
2019-11-21 09:53:42;23.84
2019-11-21 10:02:41;23.84
2019-11-21 10:38:39;23.84
2019-11-21 10:52:08;23.52
2019-11-21 11:41:34;23.04
2019-11-21 12:22:01;23.68
2019-11-21 13:24:56;23.68
2019-11-21 14:00:54;23.84
2019-11-21 14:36:52;23.68
2019-11-21 15:26:18;23.84
2019-11-21 16:11:15;23.68
2019-11-21 16:47:12;23.36
2019-11-21 18:08:06;23.68
2019-11-21 19:29:00;23.68
2019-11-21 20:49:53;23.36
2019-11-21 22:10:47;23.68
2019-11-21 22:51:13;23.52
2019-11-21 23:36:10;23.52
2019-11-22 00:21:06;23.68
2019-11-22 01:28:31;23.84
2019-11-22 02:13:27;23.68
2019-11-22 03:29:51;23.52
2019-11-22 04:23:46;23.68
2019-11-22 05:40:09;23.52
2019-11-22 06:20:35;23.68
2019-11-22 06:56:32;23.68
2019-11-22 07:28:00;23.84
2019-11-22 08:30:56;24.32
2019-11-22 09:38:21;24.0
2019-11-22 10:05:20;24.32
2019-11-22 11:03:46;24.48
2019-11-22 11:26:15;24.64
2019-11-22 11:57:43;24.48
2019-11-22 12:38:11;24.32
2019-11-22 12:42:41;24.32
2019-11-22 12:47:11;24.32
2019-11-23 00:50:51;23.68
2019-11-23 13:26:01;24.64
2019-11-23 16:25:53;24.64
2019-11-24 00:26:57;24.16
2019-11-24 03:22:16;24.16
2019-11-24 07:02:31;24.0
2019-11-24 10:42:48;24.64
2019-11-24 12:17:13;24.64
2019-11-24 15:35:04;24.32
2019-11-24 18:30:25;24.48
2019-11-25 04:50:45;24.0
2019-11-25 05:35:42;24.16
2019-11-25 07:01:07;24.64
2019-11-25 07:14:36;24.32
2019-11-25 08:08:32;24.48
2019-11-25 08:49:01;25.12
2019-11-25 09:47:28;24.8
2019-11-25 10:59:25;24.48
2019-11-25 12:51:50;24.8
2019-11-25 13:32:18;24.8
2019-11-25 15:02:14;24.64
2019-11-25 16:23:09;24.32
2019-11-25 18:06:34;24.32
2019-11-25 20:52:54;24.32
2019-11-25 21:42:21;24.16
2019-11-26 02:43:32;24.0
2019-11-26 04:22:26;24.32
2019-11-26 05:38:50;24.16
2019-11-26 08:07:11;23.68
2019-11-26 08:38:39;24.32
2019-11-26 09:05:38;24.32
2019-11-26 10:17:35;24.64
2019-11-26 11:38:31;24.48
2019-11-26 12:45:58;24.16
2019-11-26 19:03:37;24.48
2019-11-26 20:06:33;24.48
2019-11-26 21:05:00;24.32
2019-11-26 21:54:27;24.32
2019-11-27 00:18:18;24.16
2019-11-27 03:22:36;24.16
2019-11-27 04:07:32;24.0
2019-11-27 04:48:00;23.84
2019-11-27 06:58:21;24.16
2019-11-27 07:25:20;24.96
2019-11-27 07:38:49;24.96
2019-11-27 08:23:48;24.96
2019-11-27 08:55:17;24.64
2019-11-27 09:04:16;24.48
2019-11-27 09:31:15;23.52
2019-11-27 10:25:11;24.32
2019-11-27 10:47:39;23.52
2019-11-27 11:23:37;24.32
2019-11-27 12:26:34;24.64
2019-11-27 15:03:56;24.32
2019-11-27 17:05:20;24.48
2019-11-27 17:59:17;24.32
2019-11-28 02:58:45;23.84
2019-11-28 05:18:06;24.16
2019-11-28 07:01:29;24.16
2019-11-28 07:19:29;24.64
2019-11-28 08:08:57;25.12
2019-11-28 08:26:57;24.64
2019-11-28 08:44:56;24.32
2019-11-28 09:29:53;23.52
2019-11-28 09:56:52;23.68
2019-11-28 10:14:50;23.84
2019-11-28 11:08:48;24.48
2019-11-28 12:11:45;24.48
2019-11-28 12:20:45;24.32
2019-11-28 12:25:14;24.48
2019-11-28 12:47:44;24.64
2019-11-28 18:15:59;24.16
2019-11-28 19:14:26;24.16
2019-11-28 20:17:22;24.16
2019-11-28 21:15:49;24.16
2019-11-28 22:05:17;24.16
2019-11-28 23:08:12;24.16
2019-11-29 01:05:05;24.16
2019-11-29 02:39:29;24.0
2019-11-29 04:54:20;24.0
2019-11-29 05:34:48;24.16
2019-11-29 06:28:45;24.16
2019-11-29 07:00:13;24.32
2019-11-29 07:13:42;24.64
2019-11-29 08:07:40;24.16
2019-11-29 08:34:39;24.96
2019-11-29 11:48:04;24.64
2019-12-02 07:31:34;23.52
2019-12-02 08:21:01;23.52
2019-12-02 09:19:26;23.36
2019-12-02 09:32:55;23.2
2019-12-02 09:46:24;22.88
2019-12-02 10:35:50;23.04
2019-12-02 10:58:18;23.2
2019-12-02 11:38:46;24.0
2019-12-02 12:14:43;23.68
2019-12-02 12:23:43;23.84
2019-12-02 13:49:07;23.52
2019-12-02 16:30:55;23.36
2019-12-02 22:16:57;23.36
2019-12-02 23:15:23;23.2
2019-12-03 07:07:10;23.36
2019-12-03 07:25:09;23.52
2019-12-03 08:19:06;24.0
2019-12-03 09:35:32;23.84
2019-12-03 09:58:01;23.84
2019-12-03 13:29:18;23.52
2019-12-03 15:17:10;23.68
2019-12-03 19:28:53;23.36
2019-12-03 21:52:42;22.72
2019-12-04 02:40:06;20.8
2019-12-04 06:24:36;21.6
2019-12-04 06:51:32;21.6
2019-12-04 10:54:12;23.68
2019-12-04 11:03:11;23.52
2019-12-04 11:12:10;23.36
2019-12-04 11:25:40;23.2
2019-12-04 12:42:04;22.88
2019-12-04 13:00:02;22.72
2019-12-04 14:07:26;22.72
2019-12-04 15:28:19;22.56
2019-12-04 16:22:13;22.56
2019-12-04 19:08:26;22.4
2019-12-05 01:34:43;21.6
2019-12-05 02:24:07;21.6
2019-12-05 04:52:19;21.76
2019-12-05 05:59:41;21.6
2019-12-05 09:21:52;23.04
2019-12-05 10:51:45;22.88
2019-12-05 12:26:08;23.04
2019-12-05 13:20:04;23.04
2019-12-05 13:47:02;22.56
2019-12-05 14:09:30;22.24
2019-12-05 14:18:29;22.4
2019-12-05 15:21:23;22.4
2019-12-05 16:46:45;22.4
2019-12-05 17:22:41;22.4
2019-12-05 22:41:39;22.08
2019-12-06 04:54:25;21.44
2019-12-06 07:09:08;22.24
2019-12-06 09:01:28;22.88
2019-12-06 09:19:27;23.04
2019-12-06 22:43:31;21.44
2019-12-07 22:53:56;21.28
2019-12-08 01:40:05;21.12
2019-12-08 06:36:24;21.28
2019-12-08 10:52:23;21.76
2019-12-09 07:00:23;21.6
2019-12-09 07:13:51;21.92
2019-12-09 07:49:48;22.4
2019-12-09 09:28:38;22.24
2019-12-09 13:49:13;22.24
2019-12-11 08:38:27;22.08
2019-12-11 09:23:23;22.4
2019-12-11 10:03:49;22.72
2019-12-11 11:11:13;22.72
2019-12-11 11:47:11;22.72
2019-12-11 12:27:37;22.24
2019-12-11 14:24:25;21.76
2019-12-12 05:22:25;20.32
2019-12-12 07:01:10;20.8
2019-12-12 07:19:08;21.12
2019-12-12 09:24:51;20.96
2019-12-12 10:05:16;21.12
2019-12-12 10:32:13;21.76
2019-12-12 11:12:39;21.92
2019-12-12 12:15:32;21.92
2019-12-12 12:24:31;21.92
2019-12-13 11:40:57;21.92
2019-12-16 12:01:44;21.12
2019-12-17 08:04:48;20.96
2019-12-17 11:49:21;21.12
2019-12-17 12:25:16;21.12
2019-12-17 13:05:41;20.96
2019-12-17 14:39:58;20.8
2019-12-17 16:00:47;20.8
2019-12-17 16:45:40;20.8
2019-12-17 18:06:29;20.64
2019-12-17 19:13:49;20.64
2019-12-17 21:41:58;20.48
2019-12-17 22:22:22;20.32
2019-12-17 23:11:44;20.48
2019-12-18 02:24:45;20.32
2019-12-18 03:23:07;20.32
2019-12-18 04:21:28;20.32
2019-12-18 05:06:21;20.32
2019-12-18 07:12:02;20.8
2019-12-18 08:01:26;21.12
2019-12-18 08:37:21;20.96
2019-12-18 09:40:13;20.96
2019-12-18 10:16:08;21.12
2019-12-18 10:43:05;21.6
2019-12-18 11:14:31;21.6
2019-12-18 12:17:24;21.44
2019-12-18 12:44:21;21.44
2019-12-18 13:33:45;21.28
2019-12-18 18:57:03;20.8
2019-12-18 21:02:46;20.8
2019-12-19 02:08:01;20.16
2019-12-19 06:01:26;20.16
2019-12-19 06:50:48;20.48
2019-12-19 07:08:46;20.8
2019-12-19 08:52:03;20.96
2019-12-19 10:08:23;21.28
2019-12-20 08:04:07;21.76
2019-12-20 08:17:35;21.92
2019-12-20 09:33:59;22.08
2019-12-20 11:26:17;21.76
2019-12-20 12:38:10;22.08
2019-12-20 20:29:46;21.76
2019-12-21 00:41:15;21.6
2019-12-21 03:49:53;21.6
2019-12-21 05:51:08;21.44
2019-12-21 08:50:43;20.16
2019-12-22 03:59:12;18.08
2019-12-23 03:26:56;16.8
2019-12-23 08:13:45;16.48
2019-12-23 22:47:37;16.16
2019-12-24 05:53:17;15.84
2019-12-24 13:03:29;16.0
2019-12-24 14:06:14;16.0
2019-12-24 16:02:44;15.84
2019-12-24 21:02:57;15.52
2019-12-25 05:11:20;15.36
2019-12-25 10:20:29;15.36
2019-12-26 12:55:24;15.36
2019-12-26 22:24:22;14.56
2019-12-27 08:06:39;14.08
2019-12-27 12:21:57;14.08
2019-12-28 03:26:36;13.6
2019-12-28 04:47:12;13.6
2019-12-28 05:31:58;13.6
2019-12-28 07:14:58;13.28
2019-12-28 08:53:28;13.28
2019-12-28 09:47:13;13.44
2019-12-29 01:05:10;12.8
2019-12-29 09:04:11;12.48
2019-12-30 10:57:35;11.52
2019-12-30 12:53:58;11.36
2019-12-30 13:43:12;11.36
2019-12-30 14:27:58;11.36
2019-12-30 15:03:46;11.36
2019-12-30 15:48:32;11.2
2019-12-30 18:47:33;11.04
2019-12-30 21:24:11;10.88
2019-12-30 22:17:53;10.88
2019-12-30 23:11:36;10.88
2019-12-30 23:51:52;10.72
2019-12-31 02:19:34;10.72
2019-12-31 03:26:41;10.56
2019-12-31 04:20:23;10.56
2019-12-31 05:14:04;10.56
2019-12-31 05:54:21;10.56
2019-12-31 06:39:06;10.4
2019-12-31 08:35:27;10.56
2019-12-31 15:22:41;10.72
2020-01-01 01:58:08;10.4
2020-01-01 07:38:12;10.24
2020-01-01 08:14:00;10.24
2020-01-01 08:49:48;10.4
2020-01-01 12:06:43;10.72
2020-01-01 13:54:08;10.56
2020-01-01 15:46:01;10.4
2020-01-01 16:35:15;10.4
2020-01-01 23:22:27;9.92
2020-01-02 05:56:10;9.6
2020-01-02 08:46:17;14.72
2020-01-02 12:16:55;16.32
2020-01-02 22:22:19;18.88
2020-01-03 04:07:38;18.08
2020-01-10 13:10:20;22.24
2020-01-11 22:47:20;21.92
2020-01-12 13:59:09;22.24
2020-01-12 15:33:30;22.08
2020-01-12 20:07:32;22.08
2020-01-14 07:50:14;21.76
2020-01-14 14:43:35;22.08
2020-01-14 15:19:31;21.92
2020-01-27 08:59:19;19.84
2020-01-27 11:04:58;19.68
2020-01-27 13:15:08;19.84
2020-01-28 09:17:32;20.0
2020-01-29 06:58:48;19.04
2020-01-29 10:38:44;20.48
2020-01-29 10:56:42;20.32
2020-01-29 11:41:36;20.64
2020-01-29 11:55:04;20.64
2020-01-29 14:41:16;22.24
2020-01-29 15:30:41;22.08
2020-01-29 16:11:07;22.24
2020-01-30 04:50:29;22.72
2020-01-30 07:05:17;23.36
2020-01-30 07:36:45;22.88
2020-01-30 08:21:41;23.68
2020-01-30 10:14:04;23.36
2020-01-30 11:48:30;24.16
2020-01-30 12:24:28;24.0
2020-01-30 14:48:20;23.36
2020-01-30 16:09:14;23.36
2020-01-31 06:59:01;23.04
2020-01-31 08:15:26;23.84
2020-01-31 08:51:24;23.84
2020-01-31 10:16:49;23.84
2020-01-31 12:45:11;23.68
2020-01-31 13:57:06;23.68
2020-01-31 15:04:32;23.68
2020-01-31 15:40:30;23.52
2020-01-31 16:34:27;23.52
2020-01-31 17:10:25;23.52
2020-01-31 18:04:21;23.52
2020-01-31 19:07:17;23.68
2020-01-31 20:14:43;23.36
2020-01-31 21:26:38;23.2
2020-01-31 22:20:34;23.2
2020-01-31 23:14:30;23.36
2020-02-01 00:17:26;23.2
2020-02-01 01:06:52;23.36
2020-02-01 02:09:48;23.2
2020-02-01 02:59:14;23.2
2020-02-01 03:39:41;23.36
2020-02-01 05:00:35;23.2
2020-02-01 05:36:32;23.36
2020-02-01 06:48:27;23.2
2020-02-01 07:28:54;23.36
2020-02-01 08:49:48;23.52
2020-02-01 09:25:46;23.84
2020-02-01 11:36:10;24.0
2020-02-01 12:16:38;24.16
2020-02-01 13:06:05;24.0
2020-02-01 14:18:02;24.32
2020-02-01 15:34:29;24.0
2020-02-01 16:14:56;24.0
2020-02-01 16:59:54;23.84
2020-02-01 19:19:16;24.0
2020-02-01 20:35:41;23.84
2020-02-01 21:25:08;23.84
2020-02-01 22:37:04;24.0
2020-02-01 23:53:30;23.84
2020-02-02 00:42:56;23.68
2020-02-02 02:03:51;23.84
2020-02-02 02:57:48;23.68
2020-02-02 03:38:15;23.52
2020-02-02 04:36:41;23.52
2020-02-02 05:30:38;23.68
2020-02-02 06:38:03;23.68
2020-02-02 07:14:01;23.52
2020-02-02 08:03:28;23.68
2020-02-02 08:39:26;23.84
2020-02-02 09:46:53;24.0
2020-02-02 11:03:19;24.16
2020-02-02 12:06:17;24.16
2020-02-02 13:13:44;24.16
2020-02-02 14:16:41;24.0
2020-02-02 14:57:09;24.16
2020-02-02 15:46:37;24.16
2020-02-02 16:31:35;24.0
2020-02-02 17:48:01;24.0
2020-02-02 18:59:57;24.0
2020-02-02 19:40:25;24.0
2020-02-02 21:28:20;24.0
2020-02-02 23:43:13;24.16
2020-02-03 00:32:41;24.0
2020-02-03 01:49:07;24.0
2020-02-03 02:29:35;23.84
2020-02-03 03:37:01;24.0
2020-02-03 04:17:29;23.84
2020-02-03 05:15:56;23.84
2020-02-03 06:09:53;23.84
2020-02-03 06:50:21;24.16
2020-02-03 07:44:19;24.0
2020-02-03 09:00:45;24.0
2020-02-03 09:36:43;23.52
2020-02-03 10:12:40;23.36
2020-02-03 11:20:06;24.0
2020-02-03 13:30:30;24.0
2020-02-03 14:46:56;24.0
2020-02-03 17:01:49;23.84
2020-02-03 17:55:46;23.84
2020-02-03 19:39:10;23.68
2020-02-03 20:19:38;23.84
2020-02-03 21:31:34;23.68
2020-02-03 22:52:29;23.84
2020-02-03 23:41:57;23.84
2020-02-04 00:49:23;23.84
2020-02-04 01:34:20;23.68
2020-02-04 02:46:16;23.84
2020-02-04 03:35:42;23.68
2020-02-04 04:56:37;23.68
2020-02-04 06:13:03;23.68
2020-02-04 07:11:29;23.52
2020-02-04 07:38:28;24.32
2020-02-04 08:27:57;24.64
2020-02-04 09:08:25;24.32
2020-02-04 09:17:25;24.16
2020-02-04 09:30:54;24.0
2020-02-04 09:48:53;23.52
2020-02-04 11:00:50;23.84
2020-02-04 12:12:47;23.84
2020-02-04 13:24:45;23.84
2020-02-04 15:21:37;23.84
2020-02-04 15:26:07;23.84
2020-02-04 18:07:56;23.68
2020-02-04 19:15:23;23.52
2020-02-04 20:04:49;23.52
2020-02-04 20:45:16;23.36
2020-02-04 21:43:42;23.36
2020-02-04 22:46:37;23.2
2020-02-04 23:27:05;23.04
2020-02-05 01:41:53;23.2
2020-02-05 02:58:16;22.88
2020-02-05 03:34:13;22.88
2020-02-05 04:14:40;22.72
2020-02-05 05:17:35;22.88
2020-02-05 06:29:28;23.2
2020-02-05 07:00:56;23.36
2020-02-05 09:51:46;24.0
2020-02-05 10:23:14;23.68
2020-02-05 11:03:41;22.56
2020-02-05 11:48:38;22.56
2020-02-05 12:02:06;21.12
2020-02-05 13:18:27;21.12
2020-02-06 13:47:50;23.36
2020-02-06 14:19:18;23.2
2020-02-07 06:25:14;21.92
2020-02-09 20:20:01;21.44
2020-02-09 21:13:55;21.44
2020-02-09 23:46:35;20.96
2020-02-10 01:07:24;20.8
2020-02-10 01:52:18;20.96
2020-02-10 03:04:08;20.8
2020-02-10 03:44:33;20.96
2020-02-10 04:51:53;20.8
2020-02-10 05:32:17;20.96
2020-02-10 08:00:28;21.6
2020-02-10 12:38:59;22.72
2020-02-10 13:46:23;22.56
2020-02-10 14:08:51;22.4
2020-02-10 14:44:48;22.24
2020-02-10 16:10:09;22.08
2020-02-10 16:50:35;21.92
2020-02-10 17:35:31;21.92
2020-02-10 18:33:54;21.76
2020-02-10 19:36:47;21.6
2020-02-10 20:21:42;21.6
2020-02-11 03:01:25;21.44
2020-02-11 04:35:42;21.28
2020-02-12 12:06:42;22.24
2020-02-13 11:50:32;22.24
2020-02-13 13:29:23;22.24
2020-02-14 07:00:23;21.76
2020-02-14 07:40:48;22.08
2020-02-14 07:58:47;22.24
2020-02-14 08:34:43;22.72
2020-02-14 08:43:43;22.72
2020-02-14 09:33:08;22.4
2020-02-14 10:58:29;21.92
2020-02-16 07:40:10;21.6
2020-02-16 19:43:24;21.6
2020-02-16 21:53:39;21.6
2020-02-17 02:14:09;21.44
2020-02-17 03:57:26;21.28
2020-02-17 07:06:01;20.32
2020-02-18 06:17:13;18.56
2020-02-18 18:46:25;18.24
2020-02-18 22:17:14;18.08
2020-02-19 02:19:26;17.76
2020-02-19 04:38:28;17.6
2020-02-19 08:22:39;17.6
2020-02-19 09:03:01;17.6
2020-02-19 09:52:20;17.6
2020-02-19 10:55:08;17.76
2020-02-19 12:11:22;17.6
2020-02-19 13:50:02;17.44
2020-02-19 15:51:06;17.44
2020-02-19 16:53:53;17.44
2020-02-19 18:41:29;17.28
2020-02-19 21:31:53;17.12
2020-02-20 01:56:22;16.8
2020-02-20 03:30:30;16.64
2020-02-20 04:51:10;16.48
2020-02-20 06:20:49;16.48
2020-02-20 07:45:58;17.12
2020-02-20 08:53:14;17.92
2020-02-20 10:05:00;18.4
2020-02-20 12:24:05;18.72
2020-02-20 15:41:31;19.36
2020-02-20 19:07:55;19.2
2020-02-20 19:57:17;19.36
2020-02-20 20:55:37;19.36
2020-02-20 23:50:37;19.04
2020-02-21 04:46:45;18.88
2020-02-21 07:23:48;19.2
2020-02-21 08:04:11;19.36
2020-02-21 09:11:30;19.52
2020-02-21 11:17:09;19.36
2020-02-21 13:45:16;19.84
2020-02-21 14:30:09;19.68
2020-02-21 15:41:57;19.68
2020-02-21 17:25:10;19.68
2020-02-21 18:32:29;19.68
2020-02-27 06:42:10;21.28
2020-02-27 08:07:31;22.24
2020-02-27 12:55:06;22.88
2020-02-27 14:33:58;22.4
2020-02-28 07:02:03;21.44
2020-02-28 10:19:44;21.92
2020-02-28 10:51:11;22.72
2020-02-28 11:36:08;22.72
2020-02-28 11:54:06;22.4
2020-02-28 11:58:36;21.92
2020-02-28 12:07:36;21.44
2020-02-28 12:21:04;21.12
2020-02-28 12:34:32;20.8
2020-02-28 13:59:51;21.28
2020-02-28 14:44:46;21.6
2020-02-28 16:01:08;21.44
2020-02-28 17:08:30;21.44
2020-02-28 18:11:23;21.44
2020-02-28 20:17:08;21.44
2020-02-28 21:06:32;21.44
2020-02-29 00:24:11;20.8
2020-02-29 01:40:28;20.64
2020-02-29 03:28:13;20.64
2020-02-29 04:31:04;20.64
2020-02-29 05:42:55;20.64
2020-02-29 12:22:34;21.28
2020-03-02 11:45:16;22.72
2020-03-02 18:07:08;21.6
2020-03-02 18:52:03;21.76
2020-03-02 21:33:46;21.6
2020-03-02 23:12:35;21.44
2020-03-03 01:22:50;21.76
2020-03-03 03:24:06;21.6
2020-03-03 06:59:43;21.92
2020-03-03 09:14:32;22.56
2020-03-03 10:30:56;22.88
2020-03-03 13:08:13;22.4
2020-03-03 14:29:05;21.76
2020-03-03 15:40:58;22.24
2020-03-03 16:39:22;22.08
2020-03-03 17:19:48;22.08
2020-03-03 18:00:14;22.08
2020-03-03 19:57:02;21.76
2020-03-03 22:38:45;21.76
2020-03-03 23:55:06;21.6
2020-03-04 00:31:02;21.76
2020-03-04 01:29:25;21.76
2020-03-04 06:21:20;21.44
2020-03-04 06:57:16;21.76
2020-03-04 08:22:38;22.4
2020-03-04 09:39:02;22.72
2020-03-04 10:41:57;22.88
2020-03-04 10:50:57;22.88
2020-03-04 11:04:25;22.72
2020-03-04 11:31:24;23.04
2020-03-04 12:16:20;22.72
2020-03-04 12:47:48;22.72
2020-03-04 14:17:40;21.92
2020-03-04 15:16:04;21.76
2020-03-04 16:27:57;22.08
2020-03-04 17:48:48;21.92
2020-03-04 18:33:44;21.92
2020-03-04 19:23:08;21.76
2020-03-04 21:10:57;21.76
2020-03-04 23:03:14;21.6
2020-03-05 00:24:04;21.28
2020-03-05 01:00:00;21.28
2020-03-05 01:40:25;21.12
2020-03-05 02:34:18;20.96
2020-03-05 03:46:09;21.12
2020-03-05 04:22:04;20.8
2020-03-05 05:02:30;20.96
2020-03-05 06:05:21;20.8
2020-03-05 07:17:12;21.6
2020-03-05 08:02:07;21.92
2020-03-05 08:42:33;21.6
2020-03-05 09:27:28;21.6
2020-03-05 10:03:24;22.08
2020-03-05 10:16:53;22.24
2020-03-05 12:22:39;21.12
2020-03-05 12:45:06;21.92
2020-03-05 14:28:25;20.64
2020-03-05 15:26:47;20.8
2020-03-05 17:41:31;21.44
2020-03-05 19:33:48;21.44
2020-03-06 01:19:35;21.44
2020-03-06 04:46:09;21.28
2020-03-06 06:33:56;21.76
2020-03-06 08:17:16;22.4
2020-03-06 09:11:11;22.56
2020-03-06 09:42:39;22.72
2020-03-06 10:50:04;23.2
2020-03-06 15:10:42;22.56
2020-03-06 16:40:34;22.24
2020-03-06 21:59:32;21.92
2020-03-06 22:53:26;21.76
2020-03-07 14:41:12;21.92
2020-03-07 16:55:58;21.92
2020-03-08 04:14:12;21.44
2020-03-09 00:13:34;21.44
2020-03-09 09:21:33;22.56
2020-03-09 12:16:48;22.24
2020-03-09 14:04:38;22.4
2020-03-09 17:22:19;22.08
2020-03-09 18:38:40;21.92
2020-03-09 19:37:05;21.92
2020-03-09 22:54:42;21.76
2020-03-10 01:40:53;21.6
2020-03-10 02:57:14;21.44
2020-03-10 04:09:05;21.44
2020-03-10 05:02:59;21.28
2020-03-10 05:43:24;21.44
2020-03-10 06:50:46;21.76
2020-03-10 10:48:55;22.88
2020-03-10 11:24:52;22.88
2020-03-16 06:52:50;22.08
2020-03-17 11:51:52;23.04
2020-03-17 14:02:13;23.04
2020-03-30 18:44:46;16.8
2020-03-31 13:56:45;17.12
2020-04-04 08:30:03;16.16
2020-04-06 05:19:54;16.96
2020-04-06 05:46:49;17.76
2020-04-06 06:58:35;18.24
2020-04-06 07:52:24;18.08
2020-04-06 09:13:09;17.76
2020-04-06 10:24:54;17.92
2020-04-06 11:05:16;18.08
2020-04-06 12:08:04;18.08
2020-04-06 13:24:20;18.24
2020-04-06 14:27:08;18.4
2020-04-06 15:16:29;18.4
2020-04-06 16:37:14;18.4
2020-04-06 17:26:35;18.4
2020-04-06 18:42:50;18.24
2020-04-06 19:45:38;18.24
2020-04-06 20:48:25;18.08
2020-04-06 21:24:18;18.24
2020-04-06 22:31:35;18.24
2020-04-06 23:16:26;18.24
2020-04-07 00:05:46;18.08
2020-04-07 00:46:08;18.08
2020-04-07 01:57:53;17.92
2020-04-07 02:47:13;18.08
2020-04-07 03:50:00;17.92
2020-04-07 04:30:22;17.76
2020-04-07 05:15:13;18.4
2020-04-07 05:28:41;18.56
2020-04-07 05:37:39;18.4
2020-04-07 05:55:35;18.24
2020-04-07 06:35:58;18.08
2020-04-07 07:34:16;18.24
2020-04-07 08:55:01;18.24
2020-04-07 10:06:48;18.56
2020-04-07 11:09:37;18.72
2020-04-07 11:54:29;19.04
2020-04-07 12:39:21;18.88
2020-05-15 11:27:38;23.2
2020-05-15 13:38:00;23.68
2020-05-15 17:22:46;23.2
2020-05-15 17:58:44;23.04
2020-05-15 18:57:09;23.04
2020-05-15 19:51:05;22.88
2020-05-15 21:02:59;22.88
2020-05-15 22:14:52;22.72
2020-05-15 22:55:20;22.56
2020-05-16 00:11:42;22.56
2020-05-16 01:28:05;22.4
2020-05-16 02:04:02;22.4
2020-05-16 02:39:59;22.4
2020-05-16 03:56:21;22.24
2020-05-16 04:50:16;22.24
2020-05-16 05:53:11;22.4
2020-05-16 07:09:34;22.4
2020-05-16 07:54:30;22.56
2020-05-16 08:57:25;22.72
2020-05-16 09:37:51;22.88
2020-05-16 10:49:46;23.04
2020-05-16 11:57:12;23.04
2020-05-16 13:04:37;23.36
2020-05-16 14:03:04;23.52
2020-05-16 14:57:01;23.84
2020-05-16 15:46:28;23.68
2020-05-16 17:07:24;23.68
2020-05-16 17:43:22;23.68
2020-05-16 18:59:48;23.36
2020-05-16 20:07:13;23.36
2020-05-16 21:23:38;23.36
2020-05-16 22:31:04;23.04
2020-05-16 23:42:59;23.2
2020-05-17 01:03:53;23.2
2020-05-17 02:20:18;23.04
2020-05-17 03:32:13;23.04
2020-05-17 04:39:38;23.04
2020-05-17 05:42:34;23.36
2020-05-17 06:41:00;23.2
2020-05-17 07:25:57;23.52
2020-05-17 08:24:24;23.68
2020-05-17 09:00:23;23.68
2020-05-17 09:36:21;23.68
2020-05-17 10:16:49;23.84
2020-05-17 11:06:16;24.0
2020-05-17 11:46:45;24.32
2020-05-17 12:58:42;24.48
2020-05-17 14:06:10;24.48
2020-05-17 15:22:38;24.8
2020-05-17 16:25:37;24.48
2020-05-17 17:42:06;24.64
2020-05-17 18:22:34;24.64
2020-05-17 19:43:31;24.32
2020-05-17 20:59:58;24.16
2020-05-17 21:58:26;24.0
2020-05-17 22:43:24;24.0
2020-05-17 23:59:50;24.0
2020-05-18 01:20:46;23.68
2020-05-18 02:41:43;23.68
2020-05-18 04:02:36;23.36
2020-05-18 05:19:02;23.68
2020-05-18 05:37:01;24.0
2020-05-18 06:08:30;24.16
2020-05-18 06:26:29;24.0
2020-05-18 07:47:26;24.16
2020-05-18 08:54:54;24.48
2020-05-18 09:48:53;24.48
2020-05-18 09:53:22;24.32
2020-05-18 10:42:51;24.8
2020-05-18 11:41:20;24.8
2020-05-18 11:59:20;25.12
2020-05-18 12:12:50;25.28
2020-05-18 12:39:50;25.44
2020-05-18 13:29:20;25.76
2020-05-18 14:32:20;25.76
2020-05-18 15:17:20;25.6
2020-05-18 16:33:51;25.76
2020-05-18 17:41:22;25.76
2020-05-18 18:48:52;25.44
2020-05-18 19:33:52;25.28
2020-05-18 20:41:21;25.28
2020-05-18 21:39:50;25.12
2020-05-18 22:24:50;25.12
2020-05-18 23:41:18;24.96
2020-05-19 00:35:17;24.8
2020-05-19 01:42:45;24.8
2020-05-19 03:03:43;24.64
2020-05-19 03:39:42;24.48
2020-05-19 04:51:40;24.8
2020-05-19 05:59:09;24.64
2020-05-19 06:57:38;24.8
2020-05-19 08:09:37;25.12
2020-05-19 08:50:06;25.12
2020-05-19 10:06:36;25.6
2020-05-19 11:09:36;26.08
2020-05-19 11:27:37;26.08
2020-05-19 12:21:37;26.08
2020-05-19 13:20:09;26.56
2020-05-19 14:09:41;26.88
2020-05-19 15:08:14;26.72
2020-05-19 15:48:45;26.56
2020-05-19 16:56:17;26.24
2020-05-19 17:36:47;26.08
2020-05-19 18:44:19;26.08
2020-05-19 19:38:19;25.92
2020-05-19 20:27:50;25.92
2020-05-19 21:48:51;25.92
2020-05-19 23:00:51;25.76
2020-05-19 23:59:22;25.92
2020-05-20 01:20:22;25.76
2020-05-20 02:14:23;25.6
2020-05-20 03:26:23;25.76
2020-05-20 04:24:54;26.08
2020-05-20 05:27:55;26.24
2020-05-20 06:03:56;26.4
2020-05-20 06:39:57;26.56
2020-05-20 07:20:28;26.4
2020-05-20 08:05:30;26.72
2020-05-20 09:08:33;27.04
2020-05-20 09:53:35;27.2
2020-05-20 10:07:06;26.4
2020-05-20 11:19:08;26.56
2020-05-20 11:32:39;26.56
2020-05-20 11:50:40;26.72
2020-05-20 13:11:43;26.88
2020-05-20 14:23:47;26.88
2020-05-20 15:22:20;26.88
2020-05-20 16:34:23;27.04
2020-05-20 17:10:27;26.88
2020-05-20 18:17:58;26.72
2020-05-20 19:07:30;26.72
2020-05-20 20:28:33;26.56
2020-05-20 21:31:35;26.4
2020-05-20 22:52:37;26.24
2020-05-20 23:33:07;25.92
2020-05-21 00:22:38;25.76
2020-05-21 01:21:08;25.76
2020-05-21 02:10:38;25.6
2020-05-21 03:27:07;25.6
2020-05-21 04:30:07;25.44
2020-05-21 05:19:37;25.6
2020-05-21 06:27:07;25.76
2020-05-21 07:12:08;25.92
2020-05-21 08:24:09;26.08
2020-05-21 09:31:41;26.24
2020-05-21 10:30:12;26.24
2020-05-21 11:28:44;26.4
2020-05-21 12:49:47;26.72
2020-05-21 13:39:19;26.72
2020-05-21 15:00:22;26.56
2020-05-21 16:03:24;26.72
2020-05-21 17:19:57;26.72
2020-05-21 18:31:59;26.56
2020-05-21 19:17:00;26.24
2020-05-21 20:06:31;26.24
2020-05-21 20:56:02;26.08
2020-05-21 22:17:03;26.08
2020-05-21 23:33:35;26.08
2020-05-22 00:45:35;26.08
2020-05-22 02:06:37;26.08
2020-05-22 03:14:08;26.08
2020-05-22 04:35:09;26.24
2020-05-22 05:15:41;26.24
2020-05-22 06:00:41;26.4
2020-05-22 06:59:13;26.4
2020-05-22 08:20:15;26.72
2020-05-22 09:00:47;26.88
2020-05-22 09:59:20;27.04
2020-05-22 10:48:52;27.2
2020-05-22 11:24:54;27.2
2020-05-22 12:32:28;27.52
2020-05-22 13:44:32;27.68
2020-05-22 14:38:36;27.52
2020-05-22 15:19:09;27.68
2020-05-22 16:13:12;27.52
2020-05-22 16:58:15;27.36
2020-05-22 18:05:49;27.2
2020-05-22 19:26:53;27.2
2020-05-22 20:29:56;27.04
2020-05-22 21:19:29;27.04
2020-05-22 22:04:31;27.04
2020-05-22 22:45:03;26.88
2020-05-23 00:06:07;26.88
2020-05-23 01:18:09;26.88
2020-05-23 02:39:12;26.72
2020-05-23 03:28:44;26.88
2020-05-23 04:31:47;26.72
2020-05-23 05:07:48;26.72
2020-05-23 05:52:50;26.88
2020-05-23 07:04:54;27.04
2020-05-23 07:49:56;27.04
2020-05-23 08:39:29;27.04
2020-05-23 09:38:02;27.2
2020-05-23 10:59:07;27.2
2020-05-23 12:15:42;27.2
2020-05-23 12:56:14;27.52
2020-05-23 14:08:19;27.52
2020-05-23 14:44:21;27.52
2020-05-23 15:24:54;27.36
2020-05-23 16:32:28;27.2
2020-05-23 17:35:31;26.88
2020-05-23 18:47:33;26.56
2020-05-23 19:50:34;26.4
2020-05-23 20:26:35;26.4
2020-05-23 21:34:06;26.24
2020-05-23 22:32:37;26.08
2020-05-23 23:44:38;25.92
2020-05-24 00:34:09;25.92
2020-05-24 01:19:10;26.08
2020-05-24 02:17:40;25.92
2020-05-24 03:38:41;25.76
2020-05-24 04:46:12;25.76
2020-05-24 05:53:42;25.92
2020-05-24 07:14:43;25.92
2020-05-24 08:35:44;25.92
2020-05-24 09:11:44;25.92
2020-05-24 10:32:46;26.08
2020-05-24 11:44:47;26.08
2020-05-24 12:56:49;26.24
2020-05-24 13:37:19;26.08
2020-05-24 14:44:50;26.24
2020-05-24 15:38:52;26.24
2020-05-24 16:37:23;26.08
2020-05-24 17:49:24;26.08
2020-05-24 18:47:55;25.92
2020-05-24 19:59:55;25.76
2020-05-24 20:49:25;25.6
2020-05-24 22:05:55;25.6
2020-05-24 23:22:25;25.44
2020-05-24 23:58:25;25.44
2020-05-25 01:19:24;25.28
2020-05-25 02:31:24;25.12
2020-05-25 03:16:23;25.28
2020-05-25 04:19:23;25.12
2020-05-25 05:08:52;25.12
2020-05-25 05:49:21;25.12
2020-05-25 06:38:51;25.44
2020-05-25 07:14:51;25.28
2020-05-25 08:17:51;25.6
2020-05-25 09:25:21;25.76
2020-05-25 10:19:22;25.76
2020-05-25 11:13:22;25.6
2020-05-25 11:22:22;25.6
2020-05-25 12:29:53;25.6
2020-05-25 13:05:53;25.44
2020-05-25 14:04:23;25.28
2020-05-25 15:11:53;25.44
2020-05-25 15:52:23;25.44
2020-05-25 16:32:53;25.44
2020-05-25 17:13:23;25.12
2020-05-25 17:58:22;25.12
2020-05-25 18:38:52;25.12
2020-05-25 19:19:21;25.12
2020-05-25 20:40:20;24.8
2020-05-25 21:16:19;24.8
2020-05-25 22:37:18;24.8
2020-05-25 23:17:47;24.64
2020-05-26 00:43:15;24.64
2020-05-26 01:28:13;24.48
2020-05-26 02:44:41;24.48
2020-05-26 03:43:08;24.48
2020-05-26 04:50:36;24.32
2020-05-26 05:49:04;24.64
2020-05-26 07:10:02;24.8
2020-05-26 07:46:02;24.8
2020-05-26 08:22:01;24.96
2020-05-26 08:53:31;24.64
2020-05-26 09:34:00;24.64
2020-05-26 10:00:59;23.84
2020-05-26 10:41:28;24.64
2020-05-26 11:26:26;23.68
2020-05-26 11:44:26;24.0
2020-05-26 11:57:55;24.32
2020-05-26 12:51:54;24.8
2020-05-26 14:08:22;24.64
2020-05-26 14:44:21;24.8
2020-05-26 15:56:20;25.12
2020-05-26 17:08:19;24.8
2020-05-26 18:56:16;24.48
2020-05-26 19:59:14;24.32
2020-05-26 20:39:42;24.32
2020-05-26 21:29:10;24.16
2020-05-26 22:36:37;24.16
2020-05-26 23:35:05;24.0
2020-05-27 00:15:33;24.0
2020-05-27 01:36:29;24.0
2020-05-27 02:52:55;23.68
2020-05-27 03:28:53;23.84
2020-05-27 04:13:50;23.84
2020-05-27 04:58:48;23.84
2020-05-27 06:10:45;24.0
2020-05-27 06:51:14;24.16
2020-05-27 07:45:12;24.16
2020-05-27 08:52:40;24.48
2020-05-27 10:04:38;24.64
2020-05-27 10:49:38;24.8
2020-05-27 11:25:36;24.8
2020-05-27 12:37:35;25.12
2020-05-27 14:48:03;25.28
2020-05-27 16:00:03;25.28
2020-05-27 17:12:03;25.28
2020-05-27 18:24:02;25.12
2020-05-27 19:00:02;24.96
2020-05-27 21:59:58;24.64
2020-05-27 22:35:57;24.48
2020-05-27 23:52:25;24.32
2020-05-28 01:49:20;24.16
2020-05-28 02:52:18;24.16
2020-05-28 03:41:46;24.16
2020-05-28 04:31:14;24.0
2020-05-28 05:11:42;24.16
2020-05-28 05:56:41;24.32
2020-05-28 06:41:40;23.84
2020-05-28 07:13:08;23.36
2020-05-28 08:02:35;23.84
2020-05-28 09:05:32;24.16
2020-05-28 09:37:02;24.8
2020-05-28 10:26:31;25.6
2020-05-28 10:58:02;25.44
2020-05-28 11:34:01;25.12
2020-05-28 12:32:31;24.96
2020-05-28 13:26:30;25.12
2020-05-28 14:42:59;25.12
2020-05-28 15:59:29;25.6
2020-05-28 17:06:59;25.6
2020-05-28 18:23:28;24.96
2020-05-28 19:12:57;24.8
2020-05-28 20:24:56;24.64
2020-05-28 21:05:25;24.48
2020-05-28 22:03:53;24.32
2020-05-28 22:53:21;24.48
2020-05-29 00:00:49;24.32
2020-05-29 01:17:16;24.16
2020-05-29 02:24:43;24.16
2020-05-29 03:14:11;24.0
2020-05-29 03:54:39;24.16
2020-05-29 04:44:07;24.0
2020-05-29 05:24:35;24.0
2020-05-29 06:05:03;23.84
2020-05-29 07:17:00;24.32
2020-05-29 07:57:28;24.48
2020-05-29 09:13:56;24.32
2020-05-29 09:49:55;24.32
2020-05-29 10:34:53;24.32
2020-05-29 11:19:51;24.32
2020-05-29 12:49:48;24.48
2020-05-29 14:01:46;24.8
2020-05-29 15:18:14;24.48
2020-05-29 16:30:12;24.32
2020-05-29 17:10:40;24.16
2020-05-29 18:13:37;24.16
2020-05-29 19:07:35;24.0
2020-05-29 19:52:33;24.0
2020-05-29 21:08:59;24.0
2020-05-29 21:44:57;23.84
2020-05-29 22:52:24;23.84
2020-05-29 23:37:21;23.68
2020-05-30 00:17:49;23.68
2020-05-30 00:58:17;23.52
2020-05-30 01:56:43;23.52
2020-05-30 02:41:40;23.52
2020-05-30 03:31:07;23.36
2020-05-30 04:43:02;23.36
2020-05-30 05:54:57;23.36
2020-05-30 07:06:52;23.52
2020-05-30 07:51:50;23.52
2020-05-30 08:32:17;23.36
2020-05-30 09:53:12;23.52
2020-05-30 10:29:10;23.52
2020-05-30 11:54:35;23.84
2020-05-30 12:48:32;23.68
2020-05-30 13:29:00;23.68
2020-05-30 14:04:58;23.84
2020-05-30 14:49:56;23.84
2020-05-30 15:48:23;24.16
2020-05-30 16:33:21;24.0
2020-05-30 17:13:49;24.0
2020-05-30 19:24:13;23.68
2020-05-30 20:40:38;23.52
2020-05-30 21:21:06;23.36
2020-05-30 22:33:01;23.36
2020-05-30 23:31:27;23.2
2020-05-31 00:52:22;23.2
2020-05-31 02:08:46;23.04
2020-05-31 02:58:12;23.04
2020-05-31 04:01:07;22.88
2020-05-31 04:37:04;22.88
2020-05-31 05:57:58;23.04
2020-05-31 06:56:24;23.04
2020-05-31 07:59:20;23.2
2020-05-31 08:53:16;23.2
2020-05-31 09:38:13;23.2
2020-05-31 10:18:40;23.2
2020-05-31 11:03:38;23.36
2020-05-31 12:06:34;23.36
2020-05-31 13:27:28;23.36
2020-05-31 14:25:54;23.2
2020-05-31 15:46:49;23.2
2020-05-31 17:03:13;22.88
2020-05-31 17:43:40;22.88
2020-05-31 18:19:37;22.88
2020-05-31 19:00:04;22.72
2020-05-31 19:54:00;22.72
2020-05-31 20:56:55;22.88
2020-05-31 22:04:19;22.72
2020-05-31 22:53:44;22.56
2020-06-01 00:50:34;22.56
2020-06-01 01:44:30;22.56
2020-06-01 03:05:23;22.4
2020-06-01 03:54:48;22.56
2020-06-01 05:06:42;22.56
2020-06-01 06:09:37;22.56
2020-06-01 07:21:31;22.72
2020-06-01 08:19:56;22.88
2020-06-01 09:36:21;23.36
2020-06-01 10:43:47;23.52
2020-06-01 11:28:44;23.68
2020-06-01 12:45:10;24.0
2020-06-01 13:21:09;24.0
2020-06-01 14:06:07;24.16
2020-06-01 15:00:04;23.84
2020-06-01 16:07:31;24.0
2020-06-01 16:48:00;24.0
2020-06-01 18:08:56;23.84
2020-06-01 19:07:23;23.84
2020-06-01 20:05:50;23.52
2020-06-01 21:04:16;23.52
2020-06-01 22:07:12;23.52
2020-06-01 23:10:08;23.36
2020-06-02 00:17:33;23.36
2020-06-02 01:29:28;23.2
2020-06-02 02:18:54;23.04
2020-06-02 03:30:49;23.04
2020-06-02 04:42:44;23.2
2020-06-02 06:03:39;23.52
2020-06-02 06:48:36;23.68
2020-06-02 08:05:02;24.0
2020-06-02 09:25:59;24.32
2020-06-02 10:42:26;24.32
2020-06-02 11:54:23;24.48
2020-06-02 13:06:21;24.48
2020-06-02 14:18:19;24.64
2020-06-02 15:16:48;24.64
2020-06-02 15:57:17;24.64
2020-06-02 16:46:45;24.64
2020-06-02 17:31:44;24.64
2020-06-02 19:15:11;24.32
2020-06-02 19:51:09;24.32
2020-06-02 20:27:07;24.32
2020-06-02 21:48:04;24.16
2020-06-02 22:42:01;24.16
2020-06-02 23:35:59;24.0
2020-06-03 00:56:55;24.0
2020-06-03 01:37:23;24.0
2020-06-03 02:13:21;23.84
2020-06-03 03:07:18;23.84
2020-06-03 04:10:15;23.84
2020-06-03 05:17:41;23.84
2020-06-03 06:34:08;24.48
2020-06-03 07:05:38;24.48
2020-06-03 07:55:06;24.48
2020-06-03 08:17:36;24.64
2020-06-03 09:07:05;24.96
2020-06-03 09:20:34;24.8
2020-06-03 10:32:34;25.12
2020-06-03 11:13:03;24.96
2020-06-03 11:40:03;24.96
2020-06-03 12:25:03;24.96
2020-06-03 13:28:02;24.96
2020-06-03 14:31:02;25.44
2020-06-03 15:52:02;25.44
2020-06-03 16:32:32;25.44
2020-06-03 17:13:02;25.28
2020-06-03 18:07:01;25.12
2020-06-03 18:52:01;25.12
2020-06-03 20:04:00;24.96
2020-06-03 20:48:59;24.8
2020-06-03 21:51:57;24.64
2020-06-03 22:45:56;24.48
2020-06-03 23:53:24;24.48
2020-06-04 00:51:52;24.48
2020-06-04 01:54:50;24.32
2020-06-04 03:06:47;24.32
2020-06-04 03:42:45;24.16
2020-06-04 04:50:13;24.32
2020-06-04 05:26:12;24.48
2020-06-04 06:29:10;24.48
2020-06-04 07:45:38;24.8
2020-06-04 09:02:07;24.96
2020-06-04 10:05:07;25.28
2020-06-04 11:21:36;25.6
2020-06-04 12:29:07;25.76
2020-06-04 12:56:07;25.92
2020-06-04 13:54:38;25.76
2020-06-04 14:48:39;25.92
2020-06-04 16:00:40;26.08
2020-06-04 16:14:10;26.4
2020-06-04 16:32:11;26.56
2020-06-04 16:59:12;26.56
2020-06-04 18:06:44;26.56
2020-06-04 18:38:15;26.08
2020-06-04 19:54:46;25.6
2020-06-04 20:35:16;25.76
2020-06-04 21:29:16;25.6
2020-06-04 22:45:46;25.44
2020-06-04 23:30:45;25.44
2020-06-05 00:20:15;25.44
2020-06-05 01:41:14;25.12
2020-06-05 02:30:44;25.12
2020-06-05 03:11:13;25.12
2020-06-05 04:23:12;25.12
2020-06-05 06:02:10;25.28
2020-06-05 06:42:40;24.96
2020-06-05 07:36:39;25.28
2020-06-05 07:54:39;25.44
2020-06-05 08:35:09;24.64
2020-06-05 10:45:36;24.64
2020-06-05 11:26:05;24.8
2020-06-05 12:06:34;24.8
2020-06-05 12:42:34;25.28
2020-06-05 13:23:04;25.28
2020-06-05 14:39:34;25.76
2020-06-05 15:29:05;25.76
2020-06-05 16:23:05;25.76
2020-06-05 17:17:06;25.76
2020-06-05 18:24:37;25.6
2020-06-05 19:27:37;25.44
2020-06-05 20:08:06;25.44
2020-06-05 20:53:06;25.44
2020-06-05 22:14:06;25.12
2020-06-05 23:03:35;25.28
2020-06-06 00:06:34;25.12
2020-06-06 01:27:33;25.12
2020-06-06 02:44:02;24.96
2020-06-06 03:42:31;24.96
2020-06-06 04:27:30;24.96
2020-06-06 05:35:00;25.12
2020-06-06 06:46:59;25.28
2020-06-06 07:58:59;25.6
2020-06-06 09:19:59;25.76
2020-06-06 10:23:00;26.08
2020-06-06 11:35:02;26.08
2020-06-06 12:51:34;26.24
2020-06-06 13:45:35;26.4
2020-06-06 14:53:07;26.56
2020-06-06 15:56:10;26.72
2020-06-06 16:36:41;26.72
2020-06-06 17:17:13;26.56
2020-06-06 18:20:15;26.56
2020-06-06 19:23:16;26.4
2020-06-06 20:30:48;26.56
2020-06-06 21:15:49;26.24
2020-06-06 22:14:20;26.08
2020-06-06 23:26:21;26.08
2020-06-07 00:42:52;26.08
2020-06-07 01:41:23;26.08
2020-06-07 02:35:24;26.08
2020-06-07 03:33:54;25.92
2020-06-07 05:39:56;26.08
2020-06-07 06:33:57;26.08
2020-06-07 07:45:59;26.56
2020-06-07 08:31:01;26.56
2020-06-07 09:38:33;26.72
2020-06-07 10:28:05;26.88
2020-06-07 11:35:39;27.2
2020-06-07 12:38:42;27.36
2020-06-07 13:32:46;27.2
2020-06-07 14:13:18;27.04
2020-06-07 14:58:20;26.88
2020-06-07 15:52:22;26.72
2020-06-07 18:29:56;26.4
2020-06-07 19:37:27;26.4
2020-06-07 20:40:29;26.24
2020-06-07 21:16:29;26.24
2020-06-07 21:57:00;26.08
2020-06-07 23:00:01;25.92
2020-06-07 23:45:01;26.08
2020-06-08 00:39:02;25.92
2020-06-08 02:00:02;25.76
2020-06-08 02:58:33;25.76
2020-06-08 04:06:03;25.76
2020-06-08 05:04:33;25.76
2020-06-08 05:58:33;25.76
2020-06-08 06:43:33;25.6
2020-06-08 08:04:34;25.92
2020-06-08 09:25:35;25.92
2020-06-08 10:42:06;26.08
2020-06-08 11:36:06;25.92
2020-06-08 12:16:37;26.08
2020-06-08 13:24:08;26.08
2020-06-08 14:22:39;26.24
2020-06-08 15:03:10;26.24
2020-06-08 15:57:11;26.08
2020-06-08 16:55:43;25.92
2020-06-08 17:40:42;25.92
2020-06-08 18:21:12;25.92
2020-06-08 19:33:12;25.6
2020-06-08 20:13:44;25.6
2020-06-08 20:49:42;25.6
2020-06-08 21:25:42;25.6
2020-06-08 22:42:12;25.6
2020-06-08 23:45:12;25.44
2020-06-09 00:21:12;25.28
2020-06-09 01:28:41;25.28
2020-06-09 02:45:10;25.12
2020-06-09 03:34:40;25.12
2020-06-09 04:24:09;25.12
2020-06-09 05:09:09;25.28
2020-06-09 05:58:39;25.28
2020-06-09 06:25:39;25.6
2020-06-09 09:48:08;25.28
2020-06-09 12:16:39;25.44
2020-06-09 13:15:09;25.76
2020-06-09 14:13:40;25.76
2020-06-09 14:58:40;25.92
2020-06-09 16:15:11;25.6
2020-06-09 16:55:41;25.76
2020-06-09 17:40:41;25.44
2020-06-09 18:39:11;25.44
2020-06-09 19:28:41;25.44
2020-06-09 20:13:41;25.44
2020-06-09 20:54:10;25.44
2020-06-09 23:00:09;25.28
2020-06-10 00:12:09;25.28
2020-06-10 02:45:07;25.28
2020-06-10 04:55:35;25.12
2020-06-10 05:31:34;25.12
2020-06-10 06:21:03;24.96
2020-06-10 07:19:32;25.12
2020-06-10 07:55:32;25.28
2020-06-10 08:58:31;25.12
2020-06-10 09:34:30;25.12
2020-06-10 11:27:00;25.12
2020-06-10 12:16:29;25.28
2020-06-10 13:32:59;25.28
2020-06-10 14:49:29;25.44
2020-06-10 15:38:59;25.44
2020-06-10 16:23:59;25.28
2020-06-10 18:38:57;25.28
2020-06-10 19:46:27;24.96
2020-06-10 20:49:26;25.12
2020-06-10 22:05:55;24.96
2020-06-11 00:43:20;24.8
2020-06-11 01:59:48;24.96
2020-06-11 02:49:17;24.8
2020-06-11 03:52:16;24.8
2020-06-11 04:55:14;24.8
2020-06-11 06:47:42;24.96
2020-06-11 07:55:11;25.44
2020-06-11 09:16:11;25.44
2020-06-11 10:01:11;25.6
2020-06-11 12:20:41;25.76
2020-06-11 13:28:12;25.92
2020-06-11 14:08:42;26.08
2020-06-11 15:07:13;26.24
2020-06-11 15:43:14;26.24
2020-06-11 16:32:45;26.24
2020-06-11 21:07:20;25.92
2020-06-12 00:16:21;25.6
2020-06-12 02:53:50;25.44
2020-06-12 03:29:50;25.28
2020-06-12 06:07:18;25.44
2020-06-12 06:56:48;25.6
2020-06-12 09:38:50;26.24
2020-06-12 10:41:52;26.24
2020-06-12 11:40:23;26.24
2020-06-12 12:11:53;26.4
2020-06-12 13:14:55;26.56
2020-06-12 14:13:27;26.72
2020-06-12 15:30:00;26.88
2020-06-12 16:33:02;26.88
2020-06-12 17:45:05;27.04
2020-06-12 18:39:07;26.72
2020-06-12 19:55:39;26.56
2020-06-12 20:54:11;26.56
2020-06-12 21:57:13;26.56
2020-06-12 22:51:14;26.56
2020-06-12 23:45:16;26.56
2020-06-13 00:34:47;26.4
2020-06-13 01:10:48;26.4
2020-06-13 02:27:20;26.4
2020-06-13 03:39:21;26.24
2020-06-13 04:37:52;26.4
2020-06-13 05:45:24;26.4
2020-06-13 07:06:26;26.56
2020-06-13 07:06:27;26.56
2020-06-13 08:09:29;26.88
2020-06-13 09:08:01;26.88
2020-06-13 10:24:34;27.2
2020-06-13 10:24:35;27.2
2020-06-13 11:41:08;27.36
2020-06-13 12:26:11;27.36
2020-06-13 13:24:44;27.52
2020-06-13 14:14:18;27.52
2020-06-13 15:03:51;27.68
2020-06-13 16:20:27;27.84
2020-06-13 17:19:02;28.0
2020-06-13 18:31:08;27.84
2020-06-13 19:29:42;27.84
2020-06-13 20:05:45;27.68
2020-06-13 21:17:50;27.68
2020-06-13 22:16:24;27.68
2020-06-13 23:28:29;27.52
2020-06-14 00:18:02;27.68
2020-06-14 01:12:06;27.52
2020-06-14 02:33:10;27.36
2020-06-14 03:31:43;27.52
2020-06-14 04:48:18;27.36
2020-06-14 05:51:21;27.36
2020-06-14 06:45:24;27.2
2020-06-14 06:45:25;27.2
2020-06-14 07:25:57;27.36
2020-06-14 08:10:59;27.36
2020-06-14 09:00:32;27.2
2020-06-14 10:21:36;27.2
2020-06-14 10:57:38;27.2
2020-06-14 12:14:12;27.2
2020-06-14 13:30:46;27.2
2020-06-14 14:38:19;27.04
2020-06-14 15:36:51;27.04
2020-06-14 16:17:23;27.04
2020-06-14 17:06:55;27.04
2020-06-14 17:42:57;26.88
2020-06-14 18:59:30;26.88
2020-06-14 20:11:33;26.72
2020-06-14 20:52:04;26.72
2020-06-14 21:28:06;26.72
2020-06-14 22:08:37;26.72
2020-06-14 22:49:08;26.72
2020-06-15 01:08:43;26.56
2020-06-15 02:07:14;26.56
2020-06-15 02:56:46;26.4
2020-06-15 04:13:18;26.4
2020-06-15 05:34:20;26.56
2020-06-15 07:40:21;25.44
2020-06-15 08:29:52;25.6
2020-06-15 10:58:22;25.6
2020-06-15 11:38:52;25.76
2020-06-15 12:32:53;25.92
2020-06-15 13:08:53;25.92
2020-06-15 14:29:54;26.08
2020-06-15 15:23:55;26.08
2020-06-15 16:31:26;25.92
2020-06-15 17:47:57;25.92
2020-06-15 18:32:58;25.92
2020-06-15 19:17:58;25.76
2020-06-15 20:25:29;25.76
2020-06-15 21:23:59;25.92
2020-06-15 23:48:00;25.76
2020-06-16 01:22:30;25.76
2020-06-16 03:15:01;25.6
2020-06-16 03:55:31;25.6
2020-06-16 07:36:01;25.76
2020-06-16 08:30:02;25.76
2020-06-16 09:37:33;25.92
2020-06-16 10:13:33;26.08
2020-06-16 11:30:06;26.24
2020-06-16 12:19:37;26.56
2020-06-16 13:09:09;26.56
2020-06-16 14:16:42;26.4
2020-06-16 15:42:15;26.72
2020-06-16 16:58:48;26.56
2020-06-16 17:43:49;26.4
2020-06-16 18:24:21;26.4
2020-06-16 19:04:52;26.4
2020-06-16 20:12:23;26.24
2020-06-16 21:01:55;26.24
2020-06-16 21:46:56;26.24
2020-06-16 22:22:56;26.08
2020-06-16 23:39:28;26.08
2020-06-17 00:42:29;25.92
2020-06-17 01:31:59;25.92
2020-06-17 02:08:00;25.92
2020-06-17 02:48:30;25.92
2020-06-17 04:09:31;25.76
2020-06-17 05:17:02;25.92
2020-06-17 05:53:03;26.08
2020-06-17 06:42:34;25.92
2020-06-17 07:54:35;25.6
2020-06-17 08:21:36;25.92
2020-06-17 10:59:11;26.88
2020-06-17 11:57:43;26.72
2020-06-17 12:33:44;26.72
2020-06-17 13:18:46;26.72
2020-06-17 13:59:18;27.04
2020-06-17 15:11:22;27.04
2020-06-17 16:23:25;27.04
2020-06-17 17:12:58;27.2
2020-06-17 18:20:32;26.88
2020-06-17 19:41:35;26.88
2020-06-17 20:35:38;26.72
2020-06-17 21:47:40;26.56
2020-06-17 22:37:12;26.56
2020-06-17 23:44:44;26.4
2020-06-18 00:20:46;26.4
2020-06-18 01:28:18;26.4
2020-06-18 02:40:19;26.08
2020-06-18 04:01:21;26.24
2020-06-18 04:50:53;26.24
2020-06-18 05:26:53;26.24
2020-06-18 06:02:54;26.08
2020-06-18 07:05:55;26.24
2020-06-18 07:50:57;26.24
2020-06-18 08:40:28;26.4
2020-06-18 09:57:00;26.56
2020-06-18 11:04:33;26.72
2020-06-18 11:54:05;27.04
2020-06-18 12:34:37;26.88
2020-06-18 13:46:41;27.04
2020-06-18 14:45:14;27.04
2020-06-18 15:30:16;27.04
2020-06-18 16:15:19;27.04
2020-06-18 17:09:22;27.04
2020-06-18 18:07:55;27.04
2020-06-18 19:06:27;26.88
2020-06-18 20:18:30;26.72
2020-06-18 20:54:32;26.72
2020-06-18 22:15:35;26.56
2020-06-18 23:09:37;26.4
2020-06-19 00:26:09;26.4
2020-06-19 01:33:41;26.08
2020-06-19 02:50:13;26.08
2020-06-19 03:57:44;26.08
2020-06-19 05:00:45;26.08
2020-06-19 05:59:17;26.4
2020-06-19 06:30:48;26.4
2020-06-19 07:33:50;26.88
2020-06-19 08:54:52;26.08
2020-06-19 10:29:24;26.08
2020-06-19 11:45:56;26.56
2020-06-19 12:12:57;26.24
2020-06-19 12:30:58;26.56
2020-06-19 13:34:00;26.56
2020-06-19 14:23:32;26.4
2020-06-19 15:35:34;26.24
2020-06-19 16:29:35;26.24
2020-06-19 17:05:36;26.08
2020-06-19 18:22:07;26.08
2020-06-19 19:34:08;25.92
2020-06-19 20:23:39;26.08
2020-06-19 21:22:10;25.92
2020-06-19 21:58:10;25.76
2020-06-19 23:05:41;25.76
2020-06-20 00:13:12;25.76
2020-06-20 01:11:42;25.6
2020-06-20 01:47:42;25.6
2020-06-20 02:28:13;25.6
2020-06-20 03:04:13;25.6
2020-06-20 04:25:13;25.6
2020-06-20 05:28:13;25.6
2020-06-20 06:31:13;25.6
2020-06-20 07:34:13;25.6
2020-06-20 08:37:13;25.44
2020-06-20 09:35:43;25.44
2020-06-20 10:29:43;25.44
2020-06-20 11:23:43;25.44
2020-06-20 12:04:13;25.44
2020-06-20 12:53:44;25.6
2020-06-20 13:34:14;25.76
2020-06-20 14:32:45;25.6
2020-06-20 15:13:15;25.76
2020-06-20 16:07:16;25.76
2020-06-20 17:10:16;25.6
2020-06-20 18:26:47;25.6
2020-06-20 19:29:47;25.44
2020-06-20 20:10:17;25.28
2020-06-20 21:22:16;25.44
2020-06-20 21:58:16;25.28
2020-06-20 23:01:16;25.12
2020-06-20 23:37:15;25.28
2020-06-21 00:31:15;25.12
2020-06-21 01:52:14;25.12
2020-06-21 02:28:13;25.12
2020-06-21 03:49:12;24.96
2020-06-21 04:38:41;24.96
2020-06-21 05:41:40;24.96
2020-06-21 06:35:39;24.96
2020-06-21 07:25:08;24.96
2020-06-21 08:14:37;25.12
2020-06-21 09:26:36;24.8
2020-06-21 10:43:04;24.96
2020-06-21 11:32:33;24.8
2020-06-21 12:13:03;24.8
2020-06-21 13:34:01;24.96
2020-06-21 14:28:00;24.8
2020-06-21 15:44:28;24.8
2020-06-21 16:20:27;24.8
2020-06-21 17:00:57;24.8
2020-06-21 18:12:55;24.8
2020-06-21 19:24:53;24.64
2020-06-21 20:18:52;24.64
2020-06-21 21:12:50;24.8
2020-06-21 22:29:18;24.64
2020-06-21 23:14:17;24.64
2020-06-21 23:59:17;24.64
2020-06-22 00:44:14;24.64
2020-06-22 01:24:43;24.64
2020-06-22 02:45:40;24.48
2020-06-22 03:53:07;24.48
2020-06-22 04:51:35;24.48
2020-06-22 05:50:03;24.8
2020-06-22 07:02:02;24.8
2020-06-22 07:42:31;25.12
2020-06-22 08:59:01;25.28
2020-06-22 10:11:00;25.44
2020-06-22 10:47:00;25.6
2020-06-22 12:08:01;25.92
2020-06-22 13:29:02;26.08
2020-06-22 14:36:33;25.92
2020-06-22 15:26:03;25.92
2020-06-22 16:15:34;25.92
2020-06-22 17:05:04;25.92
2020-06-22 18:21:35;26.08
2020-06-22 19:15:35;25.6
2020-06-22 19:56:05;25.6
2020-06-22 21:12:35;25.6
2020-06-22 21:48:35;25.44
2020-06-22 22:38:05;25.44
2020-06-22 23:59:05;25.28
2020-06-23 01:11:04;25.28
2020-06-23 02:09:33;25.28
2020-06-23 03:26:03;25.28
2020-06-23 04:20:02;25.28
2020-06-23 05:32:02;25.6
2020-06-23 05:59:02;25.76
2020-06-23 08:23:03;25.92
2020-06-23 08:27:33;25.76
2020-06-23 08:45:34;25.76
2020-06-23 08:54:33;25.44
2020-06-23 09:26:04;26.24
2020-06-23 09:44:04;26.4
2020-06-23 10:11:05;26.72
2020-06-23 15:08:14;26.72
2020-06-23 17:41:20;26.72
2020-06-23 18:21:51;26.56
2020-06-23 19:29:23;26.56
2020-06-23 21:26:26;26.24
2020-06-23 22:20:27;26.24
2020-06-23 23:05:28;26.08
2020-06-24 00:12:59;26.08
2020-06-24 01:16:00;26.08
2020-06-24 02:14:30;25.76
2020-06-24 03:22:00;25.76
2020-06-24 05:10:02;25.92
2020-06-24 05:55:02;25.92
2020-06-24 07:07:03;25.92
2020-06-24 08:59:35;26.24
2020-06-24 11:32:39;26.56
2020-06-24 12:22:11;26.72
2020-06-24 13:56:45;26.88
2020-06-24 15:44:49;26.72
2020-06-24 16:29:50;26.72
2020-06-24 19:29:55;26.24
2020-06-24 20:14:56;26.24
2020-06-24 20:50:56;26.08
2020-06-24 22:56:58;25.92
2020-06-25 02:28:29;25.6
2020-06-25 05:01:29;25.76
2020-06-25 05:55:29;25.76
2020-06-25 06:35:59;25.44
2020-06-25 07:25:29;25.12
2020-06-25 08:10:28;25.12
2020-06-25 08:32:58;24.8
2020-06-25 09:13:27;25.12
2020-06-25 10:34:26;24.96
2020-06-25 10:52:26;25.76
2020-06-25 12:58:27;26.08
2020-06-25 13:52:28;25.92
2020-06-25 14:41:58;25.92
2020-06-25 15:31:29;25.76
2020-06-25 16:43:29;25.92
2020-06-25 18:04:30;25.76
2020-06-25 18:54:00;25.6
2020-06-25 20:01:30;25.44
2020-06-25 20:46:30;25.6
2020-06-25 21:49:29;25.44
2020-06-25 22:25:29;25.28
2020-06-25 23:28:29;25.28
2020-06-26 00:40:28;25.12
2020-06-26 01:29:57;25.12
2020-06-26 02:10:27;25.12
2020-06-26 03:31:25;24.96
2020-06-26 04:29:54;25.12
2020-06-26 05:41:53;24.96
2020-06-26 06:49:22;25.28
2020-06-26 07:47:52;25.28
2020-06-26 09:04:22;25.44
2020-06-26 09:53:52;25.76
2020-06-26 10:38:53;25.76
2020-06-26 11:32:53;25.76
2020-06-26 12:22:24;26.08
2020-06-26 13:38:55;26.08
2020-06-26 14:50:57;26.4
2020-06-26 15:31:28;26.56
2020-06-26 16:21:00;26.56
2020-06-26 17:06:01;26.56
2020-06-26 17:51:02;26.56
2020-06-26 18:45:04;26.24
2020-06-26 19:25:34;26.24
2020-06-26 20:06:05;26.24
2020-06-26 21:00:06;26.08
2020-06-26 22:12:07;26.08
2020-06-26 23:10:38;26.08
2020-06-27 00:09:09;25.92
2020-06-27 00:58:39;25.92
2020-06-27 01:39:10;25.92
2020-06-27 02:24:10;25.92
2020-06-27 03:04:40;25.92
2020-06-27 03:45:11;25.92
2020-06-27 04:57:12;25.92
2020-06-27 06:13:43;25.92
2020-06-27 07:03:14;26.08
2020-06-27 08:10:46;26.24
2020-06-27 09:00:17;26.24
2020-06-27 09:58:49;26.56
2020-06-27 10:52:51;26.56
2020-06-27 11:51:23;26.72
2020-06-27 12:27:25;26.72
2020-06-27 13:17:01;27.04
2020-06-27 14:15:30;27.2
2020-06-27 15:27:34;27.36
2020-06-27 17:42:43;27.52
2020-06-27 18:23:16;27.36
2020-06-27 19:12:48;27.36
2020-06-27 19:57:51;27.2
2020-06-27 22:17:28;27.04
2020-06-27 22:53:29;27.04
2020-06-27 23:43:01;26.88
2020-06-28 00:59:34;26.88
2020-06-28 02:16:07;26.88
2020-06-28 03:10:10;26.88
2020-06-28 04:13:12;26.72
2020-06-28 05:02:44;26.72
2020-06-28 05:52:16;26.88
2020-06-28 06:55:19;27.04
2020-06-28 07:40:22;27.04
2020-06-28 08:34:25;27.2
2020-06-28 09:14:58;27.36
2020-06-28 10:13:31;27.52
2020-06-28 11:30:07;27.68
2020-06-28 12:46:42;27.68
2020-06-28 13:31:46;28.0
2020-06-28 14:39:21;28.16
2020-06-28 15:33:26;28.32
2020-06-28 16:14:00;28.32
2020-06-28 17:03:35;28.48
2020-06-28 18:15:41;28.32
2020-06-28 20:17:22;28.16
2020-06-28 21:15:57;28.0
2020-06-28 22:37:03;28.0
2020-06-28 23:13:06;28.0
2020-06-29 00:29:42;28.0
2020-06-29 01:37:16;27.84
2020-06-29 02:35:50;27.84
2020-06-29 03:25:24;27.84
2020-06-29 04:05:56;27.84
2020-06-29 05:58:34;27.52
2020-06-29 06:16:35;26.88
2020-06-29 07:33:07;26.72
2020-06-29 08:22:40;27.2
2020-06-29 08:58:42;27.04
2020-06-29 09:52:44;27.2
2020-06-29 11:04:48;27.2
2020-06-29 12:25:52;27.2
2020-06-29 17:23:11;27.52
2020-06-29 22:38:29;27.04
2020-06-29 23:32:32;27.04
2020-06-30 05:14:47;26.72
2020-06-30 08:19:24;26.72
2020-06-30 09:40:27;26.88
2020-06-30 11:24:02;27.04
2020-07-01 05:02:33;26.88
2020-07-01 06:01:05;27.36
2020-07-01 08:07:12;27.52
2020-07-01 12:15:01;28.0
2020-07-01 13:04:35;28.16
2020-07-01 13:58:40;28.16
2020-07-01 15:42:19;28.32
2020-07-01 22:27:50;27.68
2020-07-02 00:56:30;27.68
2020-07-02 04:23:42;27.52
2020-07-02 05:44:48;27.52
2020-07-02 06:20:51;27.68
2020-07-02 08:36:01;27.84
2020-07-02 10:46:41;27.68
2020-07-02 11:49:46;28.16
2020-07-03 06:22:46;27.84
2020-07-03 08:10:53;27.68
2020-07-03 09:50:00;27.52
2020-07-03 10:17:01;27.52
2020-07-03 10:48:33;27.36
2020-07-03 16:30:59;28.16
2020-07-03 18:10:07;28.16
2020-07-03 20:16:16;27.84
2020-07-04 04:31:48;27.36
2020-07-04 05:16:50;27.36
2020-07-04 06:19:54;27.52
2020-07-04 07:36:29;27.52
2020-07-04 08:26:03;27.52
2020-07-04 11:08:15;28.0
2020-07-04 13:09:55;28.16
2020-07-04 15:52:10;28.32
2020-07-04 18:25:24;28.32
2020-07-04 19:10:28;28.16
2020-07-04 21:03:06;28.0
2020-07-04 22:24:13;27.84
2020-07-05 05:05:09;27.52
2020-07-05 08:59:25;27.84
2020-07-05 09:35:28;27.84
2020-07-05 10:25:02;28.0
2020-07-05 12:08:40;28.16
2020-07-05 17:01:39;28.8
2020-07-05 18:58:51;28.64
2020-07-05 21:50:07;28.32
2020-07-05 22:30:41;28.32
2020-07-06 01:30:58;28.16
2020-07-06 04:22:12;28.0
2020-07-06 05:34:18;28.0
2020-07-06 09:46:41;28.48
2020-07-06 10:49:47;28.48
2020-07-06 12:46:59;28.8
2020-07-06 16:23:21;28.32
2020-07-06 19:19:06;27.84
2020-07-06 23:08:53;27.52
2020-07-07 00:29:58;27.36
2020-07-07 04:55:42;26.88
2020-07-07 06:12:13;25.44
2020-07-07 06:21:13;24.64
2020-07-07 06:30:13;23.84
2020-07-07 07:10:41;24.64
2020-07-07 07:51:11;25.12
2020-07-07 09:12:11;25.44
2020-07-07 11:00:11;25.92
2020-07-07 12:25:43;26.08
2020-07-07 14:22:46;26.4
2020-07-07 15:43:49;26.56
2020-07-07 16:51:22;26.72
2020-07-07 17:27:23;26.72
2020-07-07 18:57:27;26.72
2020-07-07 20:09:29;26.56
2020-07-07 20:59:01;26.4
2020-07-07 22:20:03;26.4
2020-07-07 23:23:04;26.24
2020-07-07 23:59:05;26.24
2020-07-08 00:39:36;26.08
2020-07-08 01:38:07;26.08
2020-07-08 02:32:07;25.92
2020-07-08 03:08:07;25.76
2020-07-08 04:15:38;25.76
2020-07-08 05:14:09;25.28
2020-07-08 06:21:38;24.96
2020-07-08 06:53:07;25.12
2020-07-08 08:00:38;25.44
2020-07-08 08:59:08;25.6
2020-07-08 09:44:08;25.76
2020-07-08 11:50:09;25.76
2020-07-08 12:35:10;26.24
2020-07-08 13:15:41;26.24
2020-07-08 14:05:12;26.56
2020-07-08 14:59:14;26.72
2020-07-08 16:15:47;26.56
2020-07-08 17:23:20;26.56
2020-07-08 18:21:52;26.56
2020-07-08 19:15:54;26.56
2020-07-08 20:14:26;26.56
2020-07-08 20:59:27;26.4
2020-07-08 22:11:29;26.4
2020-07-08 23:28:01;26.24
2020-07-09 00:17:32;26.4
2020-07-09 01:34:04;26.24
2020-07-09 02:32:36;26.24
2020-07-09 03:17:37;26.08
2020-07-09 04:34:08;26.08
2020-07-09 05:10:12;26.08
2020-07-09 05:59:39;26.08
2020-07-09 07:11:42;26.4
2020-07-09 08:19:14;26.56
2020-07-09 09:08:46;25.92
2020-07-09 09:58:17;26.4
2020-07-09 11:05:50;26.72
2020-07-09 12:22:23;27.04
2020-07-09 13:16:26;27.04
2020-07-09 13:52:28;27.04
2020-07-09 14:24:00;27.04
2020-07-09 15:00:02;27.2
2020-07-09 16:12:06;27.36
2020-07-09 17:06:10;27.36
2020-07-09 17:55:43;27.2
2020-07-09 18:36:16;27.36
2020-07-09 19:21:18;27.2
2020-07-09 20:24:21;27.04
2020-07-09 21:13:54;27.04
2020-07-09 21:49:56;26.88
2020-07-09 22:52:59;26.72
2020-07-09 23:42:31;26.72
2020-07-10 01:03:34;26.56
2020-07-10 02:11:06;26.56
2020-07-10 03:09:38;26.4
2020-07-10 04:26:10;26.4
2020-07-10 05:33:43;26.24
2020-07-10 06:05:13;26.24
2020-07-10 06:23:14;26.72
2020-07-10 07:12:46;26.56
2020-07-10 08:20:19;26.72
2020-07-10 09:18:52;26.88
2020-07-10 10:12:55;27.2
2020-07-10 11:34:00;27.52
2020-07-10 11:47:31;27.52
2020-07-10 12:46:05;27.84
2020-07-10 13:40:09;28.16
2020-07-10 14:25:13;28.16
2020-07-10 14:52:16;28.16
2020-07-10 15:19:18;28.16
2020-07-10 16:17:53;28.16
2020-07-10 17:34:30;28.0
2020-07-10 18:37:35;27.68
2020-07-10 18:42:05;27.68
2020-07-10 19:00:07;27.52
2020-07-10 20:03:11;27.36
2020-07-10 20:57:14;27.36
2020-07-10 21:51:18;27.36
2020-07-10 22:49:51;27.36
2020-07-10 23:34:54;27.36
2020-07-11 00:19:57;27.2
2020-07-11 00:55:59;27.2
2020-07-11 02:12:33;27.2
2020-07-11 03:20:07;27.04
2020-07-11 04:09:40;27.04
2020-07-11 04:54:42;26.88
2020-07-11 06:11:17;26.88
2020-07-11 06:38:18;26.56
2020-07-11 07:41:20;26.72
2020-07-11 08:17:22;26.72
2020-07-11 09:38:25;26.56
2020-07-11 10:36:58;26.72
2020-07-11 11:49:01;26.4
2020-07-11 12:52:04;26.56
2020-07-11 13:37:06;26.4
2020-07-11 14:53:38;26.24
2020-07-11 15:52:10;26.24
2020-07-11 16:28:11;26.24
2020-07-11 17:04:12;26.08
2020-07-11 18:25:14;26.08
2020-07-11 19:23:46;25.92
2020-07-11 20:44:47;25.76
2020-07-11 21:38:47;25.6
2020-07-11 22:14:47;25.44
2020-07-11 23:13:18;25.28
2020-07-12 00:29:48;25.28
2020-07-12 01:23:47;25.12
2020-07-12 02:35:47;24.8
2020-07-12 03:16:16;24.8
2020-07-12 04:28:15;24.8
2020-07-12 05:31:14;24.64
2020-07-12 06:20:43;24.64
2020-07-12 07:05:42;24.64
2020-07-12 07:59:41;24.64
2020-07-12 08:58:11;24.96
2020-07-12 09:47:41;24.96
2020-07-12 10:55:10;25.12
2020-07-12 12:16:10;25.28
2020-07-12 13:14:40;25.44
2020-07-12 13:55:11;25.6
2020-07-12 14:49:11;25.44
2020-07-12 15:43:12;25.44
2020-07-12 16:41:42;25.44
2020-07-12 17:40:12;25.44
2020-07-12 18:29:42;25.44
2020-07-12 19:14:42;25.28
2020-07-12 20:08:41;25.12
2020-07-12 21:29:40;24.96
2020-07-12 22:14:40;24.8
2020-07-12 23:35:37;24.48
2020-07-13 00:52:05;24.32
2020-07-13 01:32:34;24.16
2020-07-13 02:35:31;24.0
2020-07-13 03:20:29;23.84
2020-07-13 04:14:27;24.0
2020-07-13 04:50:26;24.16
2020-07-13 05:39:54;24.16
2020-07-13 06:47:22;24.32
2020-07-13 07:27:51;24.48
2020-07-13 07:50:21;24.64
2020-07-13 08:03:51;24.64
2020-07-13 09:02:20;24.8
2020-07-13 09:33:49;24.8
2020-07-13 10:50:18;24.8
2020-07-13 12:06:47;24.8
2020-07-13 13:27:46;25.12
2020-07-13 14:44:16;25.12
2020-07-13 15:56:15;25.12
2020-07-13 16:41:15;25.12
2020-07-13 17:17:15;25.12
2020-07-13 17:53:15;25.12
2020-07-13 19:05:13;24.96
2020-07-13 19:54:43;25.12
2020-07-13 20:39:42;25.12
2020-07-13 21:51:41;24.96
2020-07-13 22:45:40;24.8
2020-07-13 23:44:09;24.8
2020-07-14 00:47:07;24.64
2020-07-14 01:23:06;24.64
2020-07-14 02:44:04;24.64
2020-07-14 04:00:32;24.48
2020-07-14 05:21:30;24.48
2020-07-14 06:24:28;24.64
2020-07-14 07:04:58;24.8
2020-07-14 08:16:57;24.96
2020-07-14 09:15:27;25.12
2020-07-14 09:51:26;25.12
2020-07-14 10:40:56;25.28
2020-07-14 11:48:26;25.44
2020-07-14 12:42:26;25.44
2020-07-14 13:40:57;25.6
2020-07-14 14:16:57;25.76
2020-07-14 15:15:28;25.92
2020-07-14 15:55:58;25.92
2020-07-14 16:36:29;26.08
2020-07-14 17:21:31;26.24
2020-07-14 18:02:01;26.08
2020-07-14 19:05:02;25.92
2020-07-14 19:50:03;25.92
2020-07-14 20:26:03;25.76
2020-07-14 21:29:04;25.76
2020-07-14 22:27:34;25.6
2020-07-14 23:03:35;25.6
2020-07-14 23:39:35;25.6
2020-07-15 00:51:35;25.6
2020-07-15 01:54:35;25.44
2020-07-15 02:30:35;25.28
2020-07-15 03:33:35;25.28
2020-07-15 04:27:35;25.28
2020-07-15 05:39:35;25.28
2020-07-15 06:56:06;25.44
2020-07-15 08:17:06;25.6
2020-07-15 08:53:07;25.76
2020-07-15 09:42:38;25.92
2020-07-15 10:54:39;26.08
2020-07-15 12:06:41;26.24
2020-07-15 12:56:12;26.4
2020-07-15 14:03:44;26.24
2020-07-15 14:57:46;26.4
2020-07-15 16:00:48;26.56
2020-07-15 16:54:50;26.4
2020-07-15 18:02:22;26.24
2020-07-15 18:51:53;26.24
2020-07-15 19:32:24;26.24
2020-07-15 20:12:55;26.08
2020-07-15 21:33:57;26.08
2020-07-15 22:36:58;25.92
2020-07-15 23:17:29;25.92
2020-07-15 23:53:30;25.92
2020-07-16 00:29:30;25.92
2020-07-16 01:46:01;25.76
2020-07-16 02:44:32;25.76
2020-07-16 03:43:03;25.6
2020-07-16 04:14:33;25.76
2020-07-16 04:19:03;25.92
2020-07-16 04:32:34;25.92
2020-07-16 04:37:04;25.92
2020-07-16 04:41:34;26.08
2020-07-16 04:50:34;25.92
2020-07-16 04:55:04;25.92
2020-07-16 05:04:04;25.76
2020-07-16 05:17:35;25.76
2020-07-16 05:53:35;25.76
2020-07-16 06:38:36;25.6
2020-07-16 07:19:07;25.92
2020-07-16 08:35:38;26.08
2020-07-16 09:02:39;25.6
2020-07-16 09:25:09;25.12
2020-07-16 09:29:39;25.12
2020-07-16 09:38:39;25.28
2020-07-16 09:47:39;25.12
2020-07-16 10:37:10;25.92
2020-07-16 11:31:11;25.92
2020-07-16 12:52:14;26.08
2020-07-16 14:13:16;26.08
2020-07-16 17:31:22;25.92
2020-07-16 18:47:54;25.92
2020-07-16 19:59:56;25.76
2020-07-16 21:34:27;25.6
2020-07-17 00:20:58;25.44
2020-07-17 00:56:58;25.44
2020-07-17 02:17:58;25.28
2020-07-17 03:11:58;25.28
2020-07-17 04:10:28;25.12
2020-07-17 05:35:57;25.12
2020-07-17 06:11:57;25.12
2020-07-17 07:28:27;25.28
2020-07-17 08:22:27;25.28
2020-07-17 09:29:58;25.44
2020-07-17 10:19:28;25.28
2020-07-17 11:35:59;25.28
2020-07-17 12:47:59;25.44
2020-07-17 13:46:30;25.44
2020-07-17 15:07:31;25.28
2020-07-17 16:19:32;25.44
2020-07-17 17:04:32;25.44
2020-07-17 18:25:32;25.12
2020-07-17 21:34:31;24.8
2020-07-17 22:10:31;24.8
2020-07-17 22:46:30;24.8
2020-07-17 23:58:29;24.8
2020-07-18 01:14:58;24.64
2020-07-18 01:50:57;24.64
2020-07-18 02:35:56;24.48
2020-07-18 03:52:24;24.48
2020-07-18 04:59:53;24.48
2020-07-18 06:07:21;24.48
2020-07-18 07:50:49;24.48
2020-07-18 08:58:17;24.32
2020-07-18 09:43:16;24.32
2020-07-18 10:32:45;24.48
2020-07-18 11:35:44;24.32
2020-07-18 12:25:13;24.32
2020-07-18 13:14:42;24.48
2020-07-18 14:13:10;24.48
2020-07-18 15:16:10;24.48
2020-07-18 16:28:08;24.48
2020-07-18 17:26:37;24.32
2020-07-18 19:01:05;24.32
2020-07-18 19:41:34;24.32
2020-07-18 20:58:02;24.16
2020-07-18 22:05:30;24.16
2020-07-18 23:08:28;24.16
2020-07-19 00:47:25;24.0
2020-07-19 01:59:23;24.16
2020-07-19 02:44:21;24.0
2020-07-19 03:24:50;24.0
2020-07-19 04:05:18;24.0
2020-07-19 04:45:47;24.0
2020-07-19 06:42:42;24.16
2020-07-19 07:32:11;24.16
2020-07-19 08:17:10;24.0
2020-07-19 08:57:38;24.16
2020-07-19 09:51:37;24.32
2020-07-19 11:12:36;24.64
2020-07-19 12:06:35;24.8
2020-07-19 13:18:35;25.12
2020-07-19 13:59:05;24.96
2020-07-19 14:44:05;24.96
2020-07-19 15:38:05;25.12
2020-07-19 16:50:04;24.8
2020-07-19 17:30:34;24.8
2020-07-19 18:11:04;24.8
2020-07-19 18:47:03;24.8
2020-07-19 20:03:32;24.64
2020-07-19 20:57:32;24.64
2020-07-19 21:56:01;24.64
2020-07-19 22:36:30;24.64
2020-07-19 23:16:59;24.64
2020-07-19 23:52:59;24.48
2020-07-20 01:09:27;24.48
2020-07-20 03:19:54;24.32
2020-07-20 04:04:53;24.32
2020-07-20 04:54:22;24.48
2020-07-20 05:52:51;24.48
2020-07-20 07:00:20;24.64
2020-07-20 07:54:19;24.96
2020-07-20 08:48:19;25.12
2020-07-20 10:00:19;25.28
2020-07-20 10:54:19;25.44
2020-07-20 11:39:20;25.6
2020-07-20 12:55:52;25.76
2020-07-20 15:15:25;26.08
2020-07-20 16:27:27;26.24
2020-07-20 17:16:59;26.24
2020-07-20 18:56:02;26.08
2020-07-20 21:38:06;25.76
2020-07-20 22:36:37;25.76
2020-07-21 01:23:10;25.6
2020-07-21 02:44:11;25.6
2020-07-21 03:51:41;25.44
2020-07-21 04:50:12;25.6
2020-07-21 06:06:43;25.76
2020-07-21 06:51:43;25.76
2020-07-21 08:35:15;26.08
2020-07-21 09:56:18;26.4
2020-07-21 12:11:23;26.72
2020-07-21 13:32:27;26.88
2020-07-21 14:44:31;27.04
2020-07-21 15:29:33;27.2
2020-07-21 16:46:08;27.2
2020-07-21 17:53:41;27.04
2020-07-21 18:43:14;26.88
2020-07-21 19:41:46;26.88
2020-07-21 20:35:49;26.72
2020-07-21 23:13:25;26.56
2020-07-22 00:16:28;26.4
2020-07-22 01:33:00;26.4
2020-07-22 02:49:33;26.4
2020-07-22 05:09:08;26.4
2020-07-22 06:12:10;26.4
2020-07-22 06:48:12;26.56
2020-07-22 08:18:16;26.72
2020-07-22 09:48:21;27.04
2020-07-22 10:46:55;27.2
2020-07-22 11:27:27;27.36
2020-07-22 14:50:12;27.68
2020-07-22 18:40:01;27.68
2020-07-23 02:46:32;26.88
2020-07-23 05:15:09;26.88
2020-07-23 06:31:44;27.04
2020-07-23 07:07:46;27.04
2020-07-23 09:49:56;27.36
2020-07-23 10:48:30;27.36
2020-07-23 13:17:11;27.68
2020-07-23 14:29:17;27.84
2020-07-23 21:14:50;27.52
2020-07-23 22:31:25;27.36
2020-07-24 00:24:02;27.2
2020-07-24 01:04:34;27.2
2020-07-24 07:09:22;27.04
2020-07-24 10:18:34;27.52
2020-07-24 11:08:08;27.68
2020-07-24 13:05:17;27.84
2020-07-24 13:50:21;27.68
2020-07-24 15:33:58;27.36
2020-07-24 16:28:02;27.36
2020-07-24 18:11:38;27.2
2020-07-24 20:26:46;27.04
2020-07-24 21:25:19;26.88
2020-07-24 22:46:24;26.88
2020-07-24 23:44:56;26.88
2020-07-25 00:47:59;26.88
2020-07-25 05:22:40;26.56
2020-07-25 07:10:45;26.56
2020-07-25 08:09:17;26.72
2020-07-25 12:17:01;27.52
2020-07-25 14:27:40;27.2
2020-07-25 15:48:45;27.52
2020-07-25 17:00:50;27.36
2020-07-25 18:03:54;27.2
2020-07-25 18:39:56;27.2
2020-07-25 19:56:30;27.04
2020-07-25 20:41:32;27.04
2020-07-25 21:31:05;26.88
2020-07-26 03:08:49;26.4
2020-07-26 03:49:21;26.4
2020-07-26 04:56:53;26.56
2020-07-26 06:22:26;26.56
2020-07-26 07:11:58;26.56
2020-07-26 07:57:00;26.72
2020-07-26 11:37:42;27.04
2020-07-26 12:22:44;27.04
2020-07-26 14:06:21;27.36
2020-07-26 15:04:55;27.52
2020-07-26 16:21:30;27.52
2020-07-26 17:38:06;27.52
2020-07-26 18:50:10;27.2
2020-07-26 20:51:48;27.04
2020-07-26 23:24:56;27.04
2020-07-27 00:59:31;26.88
2020-07-27 02:56:36;26.56
2020-07-27 05:07:11;26.56
2020-07-27 06:10:14;26.72
2020-07-27 06:59:47;26.88
2020-07-27 12:06:05;27.52
2020-07-27 13:22:41;27.52
2020-07-27 14:12:15;27.68
2020-07-27 16:45:28;27.84
2020-07-27 17:39:32;27.84
2020-07-27 19:50:12;27.52
2020-07-27 19:50:13;27.52
2020-07-27 21:15:49;27.52
2020-07-27 23:12:59;27.36
2020-07-28 00:38:31;27.2
2020-07-28 01:19:03;27.2
2020-07-28 04:05:42;27.04
2020-07-28 04:50:45;27.04
2020-07-28 05:31:17;27.04
2020-07-28 06:07:19;27.04
2020-07-28 08:58:29;27.36
2020-07-28 11:13:39;27.68
2020-07-28 12:30:15;27.84
2020-07-28 14:36:26;28.16
2020-07-28 16:51:39;28.16
2020-07-28 23:55:14;27.84
2020-07-29 04:39:06;27.84
2020-07-29 12:41:24;28.8
2020-07-29 13:58:03;28.8
2020-07-29 15:19:12;28.96
2020-07-29 16:08:48;28.96
2020-07-29 20:16:45;28.64
2020-07-29 23:08:02;28.48
2020-07-30 09:07:25;28.32
2020-07-30 11:00:06;28.48
2020-07-30 17:41:21;28.8
2020-07-31 00:31:35;28.48
2020-07-31 01:43:42;28.48
2020-07-31 05:51:34;28.32
2020-07-31 10:13:01;28.8
2020-07-31 14:16:29;29.28
2020-07-31 16:00:12;29.28
2020-07-31 23:53:40;28.96
2020-08-01 06:30:23;28.64
2020-08-01 07:24:29;28.8
2020-08-01 09:26:13;28.96
2020-08-01 12:04:03;29.28
2020-08-01 13:11:42;29.44
2020-08-01 16:57:12;29.6
2020-08-01 17:33:17;29.6
2020-08-01 21:27:49;29.44
2020-08-02 00:28:12;29.28
2020-08-02 02:20:55;29.12
2020-08-02 03:42:05;29.12
2020-08-02 04:58:43;29.12
2020-08-02 07:50:04;29.28
2020-08-02 13:19:20;29.76
2020-08-02 14:17:58;29.76
2020-08-02 16:33:18;29.76
2020-08-02 17:31:56;29.6
2020-08-02 23:37:12;29.12
2020-08-03 00:17:47;29.12
2020-08-03 05:10:51;28.8
2020-08-03 07:48:38;28.8
2020-08-03 09:00:46;28.8
2020-08-03 12:46:12;28.96
2020-08-03 16:31:39;28.8
2020-08-03 19:22:58;28.64
2020-08-04 02:44:40;28.16
2020-08-04 04:50:51;28.0
2020-08-04 10:19:50;28.0
2020-08-04 12:17:00;28.0
2020-08-04 13:20:05;28.0
2020-08-04 14:23:11;27.84
2020-08-04 20:37:08;27.2
2020-08-04 22:34:14;27.2
2020-08-05 00:17:50;27.04
2020-08-05 04:39:02;26.72
2020-08-05 13:16:57;26.88
2020-08-05 16:17:06;26.72
2020-08-05 18:09:41;26.56
2020-08-05 19:12:44;26.56
2020-08-05 20:06:46;26.4
2020-08-06 00:09:54;26.24
2020-08-06 02:42:57;25.92
2020-08-06 04:08:29;25.92
2020-08-06 06:01:01;25.92
2020-08-06 10:49:11;26.56
2020-08-06 11:47:43;26.72
2020-08-06 23:30:19;26.72
2020-08-07 00:19:51;26.88
2020-08-07 01:54:26;26.72
2020-08-07 02:39:28;26.72
2020-08-07 07:36:40;26.72
2020-08-07 13:46:05;27.68
2020-08-07 15:34:14;27.84
2020-08-07 16:19:18;28.0
2020-08-07 18:20:58;27.68
2020-08-07 22:06:15;27.68
2020-08-08 06:53:20;27.52
2020-08-08 16:25:42;28.48
2020-08-08 18:45:26;28.48
2020-08-08 22:35:18;28.32
2020-08-08 23:56:26;28.32
2020-08-09 01:13:03;28.16
2020-08-09 02:07:08;28.16
2020-08-09 11:26:00;28.8
2020-08-09 12:33:37;28.96
2020-08-09 14:35:22;29.28
2020-08-09 20:00:04;29.12
2020-08-09 20:49:40;29.12
2020-08-10 03:39:56;28.8
2020-08-10 07:52:24;28.96
2020-08-10 09:58:39;29.12
2020-08-10 14:56:20;29.6
2020-08-10 15:36:56;29.76
2020-08-10 18:37:22;29.6
2020-08-26 12:21:58;28.32
2020-08-26 16:29:53;28.48
2020-08-26 18:45:05;28.32
2020-08-26 20:01:42;28.32
2020-08-26 22:39:25;28.0
2020-08-27 01:26:08;27.84
2020-08-27 02:02:11;27.84
2020-08-27 06:32:31;27.68
2020-08-27 13:31:34;28.0
2020-08-27 14:52:41;28.16
2020-08-28 13:55:38;27.68
2020-08-31 18:48:07;26.56
2020-09-06 02:27:07;25.6
2020-09-09 13:13:49;24.32
2020-09-15 12:38:35;27.04
2020-09-15 17:13:20;26.72
2020-09-15 18:02:51;26.72
2020-09-15 19:32:55;26.72
2020-09-15 21:57:01;26.72
2020-09-23 00:21:32;23.84
2020-09-24 08:39:25;23.36
2020-09-24 09:46:52;24.32
2020-09-24 11:21:20;24.96
2020-09-24 14:25:47;24.48
2020-09-26 06:34:20;20.48
2020-09-26 19:53:06;19.2
2020-09-26 21:49:47;19.36
2020-09-26 22:48:07;19.36
2020-09-27 04:56:05;19.2
2020-09-27 11:30:59;18.88
2020-09-27 12:06:53;19.52
2020-09-27 14:26:02;20.16
2020-09-27 19:08:49;19.68
2020-09-28 04:29:48;19.52
2020-09-28 23:03:42;22.08
2020-09-29 02:52:50;22.24
2020-09-29 13:03:59;21.76
2020-09-29 14:24:51;22.24
2020-09-29 15:18:47;22.08
2020-09-29 17:47:02;21.76
2020-09-29 20:15:17;21.76
2020-09-29 21:22:40;21.76
2020-09-29 23:32:56;21.76
2020-09-30 01:25:14;21.6
2020-09-30 04:38:24;21.6
2020-10-01 18:36:17;21.92
2020-10-02 09:52:44;22.88
2020-10-02 11:13:39;22.72
2020-10-02 12:03:05;22.56
2020-10-02 12:52:32;22.72
2020-10-02 22:00:48;22.4
2020-10-03 01:14:01;22.24
2020-10-06 16:12:25;22.72
2020-10-06 21:40:30;22.4
2020-10-06 23:01:23;22.56
2020-10-07 21:07:12;22.4
2020-10-09 18:53:10;22.72
2020-10-10 05:13:17;22.24
2020-10-10 12:42:41;23.04
2020-10-10 13:27:38;23.04
2020-10-10 15:15:30;22.72
2020-10-10 18:33:13;22.4
2020-10-10 19:58:36;22.4
2020-10-11 00:19:13;22.24
2020-10-11 20:45:48;21.76
2020-10-11 23:00:33;21.76
;