time;NMSGrein_SR04CO2rH_05856671_rhu-ms1
2019-12-04 12:24:03;40.0
2019-12-04 13:24:33;42.5
2019-12-04 13:39:41;43.5
2019-12-05 12:26:46;39.0
2019-12-17 09:34:07;39.5
2019-12-17 10:34:39;39.0
2019-12-17 10:49:47;39.0
2019-12-17 11:20:02;37.5
2019-12-18 09:54:23;35.5
2019-12-18 10:09:30;37.5
2019-12-18 10:54:55;43.5
2019-12-18 11:10:03;42.5
2019-12-18 11:25:11;42.0
2019-12-18 11:40:19;41.5
2019-12-18 12:10:35;43.5
2019-12-18 13:11:07;46.0
2019-12-18 13:26:15;45.0
2019-12-18 13:41:24;43.0
2019-12-18 13:56:31;42.5
2019-12-18 14:11:39;41.0
2019-12-19 09:35:50;40.0
2019-12-19 09:50:58;41.0
2019-12-19 10:06:06;42.5
2019-12-19 11:06:39;42.5
2019-12-19 11:36:55;40.0
2019-12-20 08:41:31;39.0
2019-12-20 09:11:49;36.0
2019-12-20 09:42:06;37.5
2019-12-20 09:57:15;36.5
2019-12-20 10:27:32;36.0
2019-12-20 15:15:11;37.0
2019-12-24 11:02:18;38.5
2019-12-24 11:17:24;38.5
2019-12-24 11:32:29;38.5
2019-12-24 12:02:40;38.5
2019-12-24 12:17:46;38.5
2019-12-24 12:32:52;38.5
2019-12-24 12:47:57;38.5
2019-12-24 13:03:03;38.5
2019-12-24 13:18:09;38.5
2019-12-24 13:33:14;38.5
2019-12-24 14:03:25;38.5
2019-12-24 14:18:31;38.5
2019-12-24 14:33:36;38.5
2019-12-24 15:18:53;38.5
2019-12-24 15:33:59;38.5
2019-12-24 15:49:04;38.5
2019-12-31 09:36:58;34.0
2019-12-31 09:52:12;34.0
2019-12-31 10:07:26;34.5
2019-12-31 10:22:41;34.5
2019-12-31 10:37:56;34.5
2019-12-31 10:53:10;34.5
2019-12-31 11:08:24;34.5
2019-12-31 11:23:38;34.5
2019-12-31 11:38:52;34.5
2019-12-31 11:54:06;35.0
2019-12-31 12:09:20;35.0
2019-12-31 12:24:35;35.0
2019-12-31 12:39:49;35.0
2019-12-31 12:55:03;35.0
2019-12-31 13:10:17;35.0
2019-12-31 13:25:32;35.0
2019-12-31 13:40:45;35.0
2019-12-31 13:56:00;35.0
2019-12-31 14:11:14;35.0
2019-12-31 14:26:28;35.0
2019-12-31 14:41:42;35.0
2019-12-31 14:56:57;35.0
2019-12-31 15:12:11;35.0
2019-12-31 15:27:26;35.0
2019-12-31 15:42:40;35.0
2019-12-31 15:57:55;35.0
2019-12-31 16:13:09;35.0
2019-12-31 16:28:24;35.0
2019-12-31 16:43:39;35.0
2019-12-31 16:58:53;35.0
2019-12-31 17:14:08;35.0
2019-12-31 17:29:23;35.0
2019-12-31 17:44:37;35.0
2019-12-31 17:59:52;35.0
2020-01-01 08:47:21;35.0
2020-01-01 09:02:25;34.5
2020-01-01 09:17:29;34.5
2020-01-01 09:32:33;34.5
2020-01-01 09:47:37;34.5
2020-01-01 10:02:41;34.5
2020-01-01 10:17:45;34.5
2020-01-01 10:32:49;34.5
2020-01-01 10:47:53;34.5
2020-01-01 11:02:56;34.5
2020-01-01 11:18:00;34.5
2020-01-01 11:33:04;34.5
2020-01-01 11:48:07;35.0
2020-01-01 12:03:11;35.0
2020-01-01 12:18:15;35.0
2020-01-01 12:33:18;35.0
2020-01-01 12:48:21;35.0
2020-01-01 13:03:25;35.0
2020-01-01 13:18:28;35.0
2020-01-01 13:33:31;35.0
2020-01-01 13:48:35;35.0
2020-01-01 14:03:38;35.0
2020-01-01 14:18:42;35.0
2020-01-01 14:33:45;35.0
2020-01-01 14:48:48;35.0
2020-01-01 15:03:52;35.0
2020-01-01 15:18:55;35.0
2020-01-01 15:33:59;35.0
2020-01-01 15:49:02;35.0
2020-01-01 16:04:05;35.0
2020-01-01 16:19:09;35.0
2020-01-01 16:34:12;35.0
2020-01-01 16:49:16;35.0
2020-01-01 17:04:19;35.0
2020-01-01 17:19:22;35.0
2020-01-01 17:34:26;35.0
2020-01-01 17:49:29;35.0
2020-01-01 18:04:33;35.0
2020-01-01 18:19:36;35.0
2020-01-01 18:34:39;35.0
2020-01-01 18:49:43;35.0
2020-01-01 19:04:46;35.5
2020-01-01 19:19:50;35.0
2020-01-01 19:34:53;35.5
2020-01-01 19:49:56;35.5
2020-01-01 20:05:00;35.5
2020-01-01 20:20:03;35.5
2020-01-01 20:35:07;35.5
2020-01-01 20:50:10;35.5
2020-01-01 21:05:14;35.5
2020-01-01 21:20:17;35.5
2020-01-01 21:35:20;35.5
2020-01-01 21:50:24;35.5
2020-01-01 22:05:27;35.0
2020-01-01 22:20:31;35.0
2020-01-02 08:13:46;31.0
2020-01-02 08:28:51;30.0
2020-01-02 08:43:57;32.5
2020-01-02 08:59:02;36.5
2020-01-02 09:14:08;37.5
2020-01-02 09:29:14;37.5
2020-01-02 09:44:20;36.5
2020-01-02 09:59:26;36.0
2020-01-02 10:14:32;35.5
2020-01-02 10:29:38;35.0
2020-01-02 10:44:44;34.5
2020-01-02 10:59:50;34.0
2020-01-02 11:14:56;34.0
2020-01-02 11:30:02;33.5
2020-01-02 11:45:07;33.5
2020-01-02 12:15:19;33.0
2020-01-02 12:30:24;33.0
2020-01-02 12:45:30;32.5
2020-01-02 13:00:35;32.5
2020-01-02 13:15:41;32.5
2020-01-02 13:45:52;32.0
2020-01-02 14:00:58;32.0
2020-01-02 14:16:04;31.5
2020-01-02 14:46:15;31.5
2020-01-02 15:01:21;31.5
2020-01-02 15:16:27;31.5
2020-01-02 15:31:33;31.0
2020-01-02 15:46:39;31.0
2020-01-02 16:01:45;31.0
2020-01-02 16:16:51;31.0
2020-01-02 16:31:57;31.0
2020-01-02 16:47:03;31.0
2020-01-02 17:02:10;30.5
2020-01-02 17:17:16;30.5
2020-01-02 17:32:22;30.5
2020-01-02 17:47:29;30.5
2020-01-02 18:02:35;30.5
2020-01-02 18:17:42;30.5
2020-01-02 18:32:48;30.0
2020-01-02 18:47:55;30.0
2020-01-02 19:03:01;30.0
2020-01-02 19:18:08;30.0
2020-01-02 19:33:15;30.0
2020-01-02 19:48:22;30.0
2020-01-02 20:03:29;30.0
2020-01-02 20:18:36;29.5
2020-01-02 20:33:42;29.5
2020-01-02 20:48:49;29.5
2020-01-02 21:03:57;29.5
2020-01-02 21:19:04;29.5
2020-01-02 21:34:11;29.5
2020-01-02 21:49:18;29.5
2020-01-02 22:04:25;29.5
2020-01-02 22:19:32;29.5
2020-01-02 22:34:39;29.5
2020-01-02 22:49:46;29.5
2020-01-02 23:04:53;30.0
2020-01-02 23:20:00;30.0
2020-01-02 23:35:07;30.0
2020-01-02 23:50:14;30.0
2020-01-03 00:20:27;30.0
2020-01-03 08:44:10;28.0
2020-01-03 08:59:18;27.5
2020-01-03 09:14:25;27.5
2020-01-03 09:29:33;27.5
2020-01-03 09:44:41;27.0
2020-01-03 09:59:48;27.0
2020-01-03 10:14:56;27.0
2020-01-03 10:30:04;27.5
2020-01-03 10:45:12;27.5
2020-01-03 11:00:19;27.5
2020-01-03 11:15:27;28.0
2020-01-03 11:30:34;28.0
2020-01-03 11:45:42;28.0
2020-01-03 12:15:56;28.0
2020-01-03 12:31:03;28.0
2020-01-03 12:46:10;28.0
2020-01-03 13:01:17;28.0
2020-01-03 13:16:25;28.0
2020-01-03 13:31:32;28.0
2020-01-03 13:46:39;28.0
2020-01-03 14:01:46;28.0
2020-01-03 14:16:53;28.0
2020-01-03 14:32:00;28.0
2020-01-03 14:47:07;28.0
2020-01-03 15:02:14;28.0
2020-01-03 15:17:22;28.0
2020-01-03 15:32:28;28.0
2020-01-03 15:47:35;28.0
2020-01-03 16:02:42;28.0
2020-01-03 16:17:50;28.0
2020-01-03 16:32:57;28.5
2020-01-03 16:48:04;28.5
2020-01-03 17:03:11;28.5
2020-01-03 17:18:19;28.5
2020-01-03 17:33:26;28.5
2020-01-03 17:48:33;28.5
2020-01-03 18:03:41;28.5
2020-01-03 18:18:48;28.5
2020-01-03 18:33:55;28.5
2020-01-03 18:49:03;28.5
2020-01-03 19:04:10;28.5
2020-01-03 19:19:18;28.0
2020-01-03 19:34:26;28.5
2020-01-03 19:49:33;28.5
2020-01-03 20:04:41;28.5
2020-01-03 20:19:48;28.5
2020-01-03 20:34:56;28.5
2020-01-03 20:50:03;28.5
2020-01-03 21:05:11;28.5
2020-01-03 21:20:19;28.5
2020-01-03 21:35:26;28.5
2020-01-03 21:50:34;28.5
2020-01-03 22:05:41;28.5
2020-01-03 22:20:49;28.5
2020-01-03 22:35:57;28.5
2020-01-03 22:51:04;28.5
2020-01-03 23:06:12;28.5
2020-01-03 23:21:20;28.5
2020-01-03 23:36:27;28.5
2020-01-04 10:33:03;29.5
2020-01-04 10:48:11;29.5
2020-01-05 08:17:40;28.5
2020-01-05 08:32:49;28.0
2020-01-05 08:47:58;27.5
2020-01-05 09:03:07;27.5
2020-01-05 09:18:16;27.5
2020-01-05 09:33:26;27.5
2020-01-05 09:48:35;27.5
2020-01-05 10:03:44;27.5
2020-01-05 10:18:53;28.0
2020-01-05 10:34:02;28.0
2020-01-05 10:49:11;28.0
2020-01-05 11:04:20;28.0
2020-01-05 11:19:28;28.0
2020-01-05 11:34:37;28.5
2020-01-05 11:49:45;28.5
2020-01-05 12:04:53;28.5
2020-01-05 12:20:01;28.5
2020-01-05 12:35:10;28.5
2020-01-05 12:50:18;28.5
2020-01-05 13:05:26;28.5
2020-01-05 13:20:34;28.5
2020-01-05 13:35:43;28.5
2020-01-05 13:50:50;28.0
2020-01-05 14:05:58;28.0
2020-01-05 14:21:06;28.0
2020-01-05 14:36:14;28.0
2020-01-05 14:51:22;28.0
2020-01-05 15:06:30;28.0
2020-01-05 15:21:39;28.0
2020-01-05 15:36:47;28.0
2020-01-05 15:51:55;28.0
2020-01-05 16:07:03;28.0
2020-01-05 16:22:11;28.0
2020-01-05 16:37:19;28.0
2020-01-05 16:52:27;28.0
2020-01-05 17:07:36;28.0
2020-01-05 17:22:44;28.0
2020-01-05 17:37:52;28.0
2020-01-05 17:53:00;28.0
2020-01-05 18:08:09;28.0
2020-01-05 18:23:17;28.0
2020-01-05 18:38:25;28.0
2020-01-05 18:53:34;28.0
2020-01-05 19:08:42;28.0
2020-01-05 19:23:50;28.0
2020-01-05 19:38:59;28.0
2020-01-05 19:54:07;28.0
2020-01-05 20:09:16;28.0
2020-01-05 20:24:26;28.0
2020-01-05 20:39:33;28.0
2020-01-05 20:54:41;28.0
2020-01-05 21:09:50;28.0
2020-01-05 21:24:58;28.0
2020-01-05 21:40:07;28.0
2020-01-05 21:55:15;28.0
2020-01-05 22:10:24;28.0
2020-01-05 22:25:32;28.0
2020-01-05 22:40:41;28.0
2020-01-05 22:55:49;28.0
2020-01-05 23:10:58;28.0
2020-01-06 08:12:14;27.0
2020-01-06 08:27:23;27.0
2020-01-06 08:42:32;26.5
2020-01-06 08:57:41;26.5
2020-01-06 09:12:50;26.0
2020-01-06 09:28:00;26.0
2020-01-06 09:43:09;26.0
2020-01-06 09:58:19;26.5
2020-01-06 10:13:28;26.5
2020-01-06 10:28:37;26.5
2020-01-06 10:43:46;26.5
2020-01-06 10:58:55;26.5
2020-01-06 11:14:04;27.0
2020-01-06 11:29:13;27.0
2020-01-06 11:44:21;27.0
2020-01-06 11:59:30;27.0
2020-01-06 12:14:39;27.0
2020-01-06 12:29:47;27.0
2020-01-06 12:44:56;27.0
2020-01-06 13:00:04;27.0
2020-01-06 13:15:12;27.0
2020-01-06 13:30:21;27.0
2020-01-06 13:45:29;27.0
2020-01-06 14:00:37;27.0
2020-01-06 14:15:45;27.0
2020-01-06 14:30:54;27.0
2020-01-06 14:46:02;27.0
2020-01-06 15:01:10;27.0
2020-01-06 15:16:18;27.0
2020-01-06 15:31:27;27.0
2020-01-06 15:46:35;27.0
2020-01-06 16:01:43;27.5
2020-01-06 16:16:52;27.5
2020-01-06 16:32:00;27.0
2020-01-06 16:47:08;27.0
2020-01-06 17:02:17;27.5
2020-01-06 17:17:25;27.0
2020-01-06 17:32:34;27.0
2020-01-06 17:47:42;27.0
2020-01-06 18:02:51;27.0
2020-01-06 18:17:59;27.0
2020-01-06 18:33:07;27.0
2020-01-06 18:48:16;27.0
2020-01-06 19:03:25;27.0
2020-01-06 19:18:33;27.0
2020-01-06 19:33:42;27.0
2020-01-06 19:48:50;27.0
2020-01-06 20:03:59;27.0
2020-01-06 20:19:08;27.0
2020-01-06 20:34:16;27.0
2020-01-06 20:49:25;27.0
2020-01-06 21:04:34;27.0
2020-01-06 21:19:42;27.0
2020-01-06 21:34:51;27.0
2020-01-06 21:50:00;27.0
2020-01-06 22:05:09;27.0
2020-01-06 22:20:17;27.0
2020-01-06 22:35:26;27.0
2020-01-06 22:50:35;27.0
2020-01-06 23:05:43;27.0
2020-01-06 23:20:52;27.0
2020-01-07 08:04:52;30.0
2020-01-07 08:20:01;32.0
2020-01-07 08:35:11;32.0
2020-01-07 08:50:19;32.0
2020-01-07 09:05:29;28.0
2020-01-07 09:20:38;28.0
2020-01-07 09:35:48;28.0
2020-01-07 09:50:57;28.0
2020-01-07 10:06:07;26.5
2020-01-07 10:21:15;25.5
2020-01-07 10:36:24;25.0
2020-01-07 10:51:33;24.5
2020-01-07 11:06:42;24.5
2020-01-07 11:21:51;24.0
2020-01-07 11:36:59;24.0
2020-01-07 11:52:07;30.5
2020-01-07 12:07:16;31.5
2020-01-07 12:22:24;31.5
2020-01-07 12:52:41;31.5
2020-01-07 13:22:57;30.0
2020-01-07 13:38:05;29.5
2020-01-07 13:53:14;29.5
2020-01-07 14:08:22;29.0
2020-01-07 14:23:31;29.5
2020-01-07 14:38:38;29.5
2020-01-07 15:08:55;30.5
2020-01-07 15:24:03;29.5
2020-01-07 15:39:11;29.0
2020-01-07 15:54:19;29.0
2020-01-07 16:09:27;29.0
2020-01-07 16:39:44;29.0
2020-01-07 16:54:52;29.0
2020-01-07 17:10:01;29.0
2020-01-07 17:25:09;29.0
2020-01-07 17:40:17;29.0
2020-01-07 17:55:26;29.0
2020-01-07 18:10:34;29.0
2020-01-07 18:25:43;29.0
2020-01-07 18:40:51;29.0
2020-01-07 18:56:00;29.0
2020-01-07 19:11:08;29.0
2020-01-07 19:26:16;29.0
2020-01-07 19:41:25;29.0
2020-01-07 19:56:33;29.0
2020-01-07 20:11:42;29.0
2020-01-07 20:26:50;29.0
2020-01-07 20:41:59;29.0
2020-01-07 20:57:07;29.0
2020-01-07 21:12:17;29.0
2020-01-07 21:27:24;29.0
2020-01-07 21:42:33;29.0
2020-01-07 21:57:41;29.0
2020-01-08 08:21:43;31.0
2020-01-08 08:36:51;31.5
2020-01-08 08:51:59;31.5
2020-01-08 09:07:07;32.0
2020-01-08 09:22:16;33.5
2020-01-08 09:37:24;34.0
2020-01-08 09:52:33;34.0
2020-01-08 10:07:42;33.5
2020-01-08 10:22:50;35.0
2020-01-08 10:37:59;35.0
2020-01-08 10:53:08;34.5
2020-01-08 11:08:16;33.0
2020-01-08 11:23:25;32.0
2020-01-08 11:38:34;30.5
2020-01-08 11:53:42;33.0
2020-01-08 12:08:51;34.5
2020-01-08 12:23:59;36.0
2020-01-08 12:39:07;36.0
2020-01-08 12:54:16;35.5
2020-01-08 13:09:25;34.5
2020-01-08 13:24:33;35.0
2020-01-08 13:39:42;36.5
2020-01-08 13:54:50;36.0
2020-01-08 14:09:59;35.0
2020-01-08 14:25:08;34.5
2020-01-08 14:40:16;33.0
2020-01-08 14:55:25;33.0
2020-01-08 15:10:33;33.0
2020-01-08 15:25:42;33.5
2020-01-08 15:40:51;33.5
2020-01-09 08:51:04;38.5
2020-01-09 09:06:13;34.5
2020-01-09 09:21:22;32.0
2020-01-09 09:36:31;31.0
2020-01-09 09:51:40;30.5
2020-01-09 10:06:48;31.5
2020-01-09 10:21:57;32.0
2020-01-09 10:37:06;32.0
2020-01-09 10:52:15;31.5
2020-01-09 11:07:23;30.5
2020-01-09 11:22:32;30.0
2020-01-09 11:37:40;30.5
2020-01-09 11:52:49;33.0
2020-01-09 12:07:57;35.5
2020-01-09 12:23:06;36.5
2020-01-09 12:38:14;36.5
2020-01-09 12:53:23;33.5
2020-01-09 13:08:31;33.0
2020-01-09 13:23:39;32.5
2020-01-09 13:38:47;33.5
2020-01-09 13:53:56;33.0
2020-01-09 14:09:04;33.5
2020-01-09 14:24:12;33.5
2020-01-09 14:39:20;33.5
2020-01-09 14:54:29;33.5
2020-01-09 15:09:37;33.5
2020-01-09 15:24:46;33.5
2020-01-09 15:39:55;33.0
2020-01-09 15:55:03;33.0
2020-01-09 16:10:12;33.0
2020-01-09 16:25:20;33.0
2020-01-09 16:40:29;33.0
2020-01-09 16:55:38;33.0
2020-01-09 17:10:47;32.5
2020-01-09 17:25:56;32.5
2020-01-09 17:41:04;32.5
2020-01-09 17:56:13;32.5
2020-01-09 18:11:22;32.5
2020-01-09 18:26:31;32.0
2020-01-09 18:41:40;32.0
2020-01-09 18:56:49;32.0
2020-01-09 19:11:58;32.0
2020-01-09 19:27:07;32.0
2020-01-09 19:42:16;32.0
2020-01-09 19:57:25;32.0
2020-01-09 20:12:34;32.0
2020-01-09 20:27:43;32.0
2020-01-10 09:34:19;33.0
2020-01-10 09:49:27;32.5
2020-01-10 10:04:36;31.0
2020-01-10 10:19:45;30.0
2020-01-10 10:34:53;29.0
2020-01-10 10:50:02;29.0
2020-01-10 11:05:11;28.5
2020-01-10 11:20:19;34.0
2020-01-10 11:35:28;34.5
2020-01-10 11:50:37;33.0
2020-01-10 12:05:46;31.5
2020-01-10 12:20:54;31.0
2020-01-10 12:36:03;31.0
2020-01-10 12:51:12;30.5
2020-01-10 13:06:21;30.0
2020-01-10 13:21:29;29.5
2020-01-10 13:36:38;30.0
2020-01-10 13:51:47;30.0
2020-01-10 14:06:55;30.0
2020-01-10 14:22:04;30.0
2020-01-10 14:37:13;30.5
2020-01-10 14:52:22;30.5
2020-01-10 15:07:31;30.5
2020-01-10 15:22:40;30.5
2020-01-10 15:37:49;30.5
2020-01-10 15:52:57;31.0
2020-01-11 10:08:26;30.0
2020-01-11 10:23:35;29.5
2020-01-11 10:38:44;30.0
2020-01-11 10:53:53;30.0
2020-01-11 11:09:02;30.0
2020-01-11 11:24:11;30.0
2020-01-11 11:39:20;30.0
2020-01-11 11:54:29;30.0
2020-01-11 12:09:38;30.0
2020-01-11 12:24:47;30.0
2020-01-11 12:39:57;30.0
2020-01-11 12:55:06;30.0
2020-01-11 13:10:15;30.0
2020-01-11 13:25:24;30.0
2020-01-11 13:40:33;30.0
2020-01-11 13:55:42;30.0
2020-01-11 14:10:51;30.0
2020-01-11 14:26:00;30.0
2020-01-11 14:41:09;30.0
2020-01-11 14:56:18;30.0
2020-01-11 15:11:27;30.0
2020-01-11 15:26:36;30.0
2020-01-12 08:14:48;27.5
2020-01-12 08:29:57;27.0
2020-01-12 08:45:07;26.5
2020-01-12 09:00:17;26.5
2020-01-12 09:15:26;26.5
2020-01-12 09:30:36;26.5
2020-01-12 09:45:46;26.5
2020-01-12 10:00:56;26.5
2020-01-12 10:16:05;26.5
2020-01-12 10:31:15;27.0
2020-01-12 10:46:24;27.0
2020-01-12 11:01:33;27.0
2020-01-12 11:16:43;27.5
2020-01-12 11:31:52;27.5
2020-01-12 11:47:01;27.5
2020-01-12 12:02:10;27.5
2020-01-12 12:17:19;27.5
2020-01-12 12:32:28;27.5
2020-01-12 12:47:36;27.5
2020-01-12 13:02:45;27.5
2020-01-12 13:17:54;27.5
2020-01-12 13:33:03;27.5
2020-01-12 13:48:12;27.5
2020-01-12 14:03:20;27.5
2020-01-12 14:18:29;27.5
2020-01-12 14:33:38;27.5
2020-01-12 14:48:47;27.5
2020-01-12 15:03:55;27.5
2020-01-12 15:19:04;27.5
2020-01-12 15:34:13;27.5
2020-01-12 15:49:21;27.5
2020-01-12 16:04:30;27.5
2020-01-12 16:19:39;27.5
2020-01-12 16:34:48;27.5
2020-01-12 16:49:56;27.5
2020-01-12 17:05:05;27.5
2020-01-12 17:20:14;27.5
2020-01-12 17:35:23;27.5
2020-01-12 17:50:32;27.5
2020-01-12 18:05:41;27.5
2020-01-12 18:20:50;27.5
2020-01-12 18:35:58;27.5
2020-01-12 18:51:07;27.5
2020-01-12 19:06:16;27.5
2020-01-12 19:21:25;27.5
2020-01-12 19:36:34;28.0
2020-01-12 19:51:43;28.0
2020-01-12 20:06:52;28.0
2020-01-12 20:22:01;28.0
2020-01-12 20:37:10;28.0
2020-01-12 20:52:20;28.0
2020-01-12 21:07:29;28.0
2020-01-12 21:22:38;28.0
2020-01-12 21:37:47;28.0
2020-01-12 21:52:56;28.0
2020-01-12 22:08:05;28.0
2020-01-12 22:23:14;28.0
2020-01-12 22:38:23;28.0
2020-01-12 22:53:32;28.0
2020-01-12 23:08:41;28.0
2020-01-12 23:23:50;28.0
2020-01-12 23:38:59;28.0
2020-01-12 23:54:08;28.0
2020-01-13 00:09:17;28.0
2020-01-13 00:24:26;28.0
2020-01-13 00:39:35;28.0
2020-01-13 07:48:29;34.5
2020-01-13 08:03:38;31.5
2020-01-13 08:18:47;27.0
2020-01-13 08:33:56;25.5
2020-01-13 08:49:05;25.0
2020-01-13 09:04:13;27.5
2020-01-13 09:19:22;29.0
2020-01-13 09:34:31;30.5
2020-01-13 09:49:40;31.5
2020-01-13 10:04:49;31.5
2020-01-13 10:19:58;32.5
2020-01-13 10:35:07;33.5
2020-01-13 10:50:16;33.5
2020-01-13 11:05:25;34.5
2020-01-13 11:20:35;36.0
2020-01-13 11:35:44;35.0
2020-01-13 11:50:53;32.5
2020-01-13 12:06:02;34.0
2020-01-13 12:21:11;35.0
2020-01-13 12:36:20;29.5
2020-01-13 12:51:28;29.0
2020-01-13 13:06:36;28.0
2020-01-13 13:21:44;31.5
2020-01-13 13:36:51;32.5
2020-01-13 13:51:59;33.0
2020-01-13 14:07:07;33.5
2020-01-13 14:22:15;33.5
2020-01-13 14:37:23;34.0
2020-01-13 14:52:31;33.5
2020-01-13 15:07:40;32.5
2020-01-13 15:22:48;31.5
2020-01-13 15:37:56;31.0
2020-01-13 15:53:04;31.0
2020-01-13 16:08:13;31.0
2020-01-13 16:23:21;31.0
2020-01-13 16:38:30;31.0
2020-01-13 16:53:38;31.0
2020-01-13 17:08:48;31.0
2020-01-13 17:23:55;31.0
2020-01-13 17:39:04;31.0
2020-01-13 17:54:13;30.5
2020-01-13 18:09:21;30.5
2020-01-13 18:24:30;30.5
2020-01-13 18:39:39;30.5
2020-01-13 18:54:48;30.5
2020-01-13 19:09:57;30.5
2020-01-13 19:25:05;30.5
2020-01-13 19:40:14;30.5
2020-01-13 19:55:23;30.5
2020-01-13 20:10:32;30.5
2020-01-13 20:25:41;30.0
2020-01-13 20:40:50;30.0
2020-01-13 20:55:59;30.0
2020-01-13 21:11:08;30.0
2020-01-13 21:26:17;30.0
2020-01-13 21:41:26;30.0
2020-01-13 21:56:35;30.0
2020-01-13 22:11:44;30.0
2020-01-13 22:26:52;30.0
2020-01-13 22:42:01;30.0
2020-01-13 22:57:10;30.0
2020-01-13 23:12:19;30.0
2020-01-14 08:27:37;29.5
2020-01-14 08:42:46;29.0
2020-01-14 08:57:55;30.0
2020-01-14 09:13:04;28.5
2020-01-14 09:28:12;27.0
2020-01-14 09:43:20;26.0
2020-01-14 09:58:28;26.5
2020-01-14 10:13:36;26.5
2020-01-14 10:28:44;26.0
2020-01-14 10:43:52;25.5
2020-01-14 10:59:01;26.0
2020-01-14 11:14:09;27.0
2020-01-14 11:29:17;28.0
2020-01-14 11:44:25;27.5
2020-01-14 11:59:34;34.5
2020-01-14 12:14:41;33.5
2020-01-14 12:29:50;32.5
2020-01-14 12:44:59;33.5
2020-01-14 13:00:07;32.5
2020-01-14 13:15:16;32.0
2020-01-14 13:30:25;32.0
2020-01-14 13:45:34;31.5
2020-01-14 14:00:42;31.0
2020-01-14 14:15:52;31.0
2020-01-14 14:31:00;30.5
2020-01-14 14:46:09;30.0
2020-01-14 15:01:17;30.0
2020-01-14 15:16:26;30.0
2020-01-14 15:31:35;30.0
2020-01-14 15:46:44;30.0
2020-01-14 16:01:52;30.0
2020-01-15 09:02:49;29.0
2020-01-15 09:17:58;29.5
2020-01-15 09:33:07;30.0
2020-01-15 09:48:15;30.5
2020-01-15 10:03:24;30.0
2020-01-15 10:18:33;32.0
2020-01-15 10:33:42;33.5
2020-01-15 11:04:01;31.0
2020-01-15 11:19:10;29.0
2020-01-15 11:34:19;28.0
2020-01-15 11:49:28;28.0
2020-01-15 12:04:37;30.0
2020-01-15 12:19:47;32.5
2020-01-15 12:34:56;35.5
2020-01-15 12:50:05;37.5
2020-01-15 13:05:14;39.0
2020-01-15 13:20:24;36.0
2020-01-15 13:35:33;29.0
2020-01-15 13:50:41;25.5
2020-01-15 14:05:49;26.0
2020-01-15 14:20:57;26.5
2020-01-15 14:36:04;30.0
2020-01-15 14:51:12;30.5
2020-01-15 15:06:20;30.5
2020-01-15 15:21:28;31.5
2020-01-15 15:36:37;31.0
2020-01-15 15:51:45;31.0
2020-01-15 16:06:54;30.5
2020-01-15 16:22:03;30.5
2020-01-15 16:37:11;30.0
2020-01-15 16:52:20;29.5
2020-01-15 17:07:29;29.5
2020-01-15 17:22:38;29.5
2020-01-15 17:37:46;29.0
2020-01-15 17:52:55;29.0
2020-01-16 08:51:38;33.5
2020-01-16 09:37:06;28.5
2020-01-16 10:07:24;29.0
2020-01-16 10:22:33;30.5
2020-01-16 10:37:43;32.0
2020-01-16 10:52:52;32.0
2020-01-16 11:08:01;29.0
2020-01-16 11:23:10;28.0
2020-01-16 11:38:21;27.0
2020-01-16 11:53:29;27.5
2020-01-16 12:08:37;29.5
2020-01-16 12:23:46;30.0
2020-01-16 12:38:55;29.5
2020-01-16 12:54:03;29.0
2020-01-16 13:09:12;27.5
2020-01-16 13:24:20;27.5
2020-01-16 13:39:28;28.0
2020-01-16 13:54:36;27.5
2020-01-16 14:09:44;28.5
2020-01-16 14:24:52;29.5
2020-01-16 14:40:00;30.0
2020-01-16 14:55:09;30.0
2020-01-16 15:10:17;34.0
2020-01-16 15:25:25;39.0
2020-01-16 15:40:34;37.5
2020-01-16 15:55:42;36.5
2020-01-16 16:10:51;35.5
2020-01-16 16:26:00;34.5
2020-01-16 16:41:09;33.5
2020-01-16 16:56:17;33.0
2020-01-16 17:11:26;32.5
2020-01-16 17:26:35;32.0
2020-01-17 08:31:23;27.0
2020-01-17 08:46:32;26.0
2020-01-17 09:01:40;28.5
2020-01-17 09:16:49;31.0
2020-01-17 09:31:58;31.5
2020-01-17 09:47:07;31.5
2020-01-17 10:02:16;30.0
2020-01-17 10:17:25;28.0
2020-01-17 10:32:33;27.0
2020-01-17 10:47:42;26.5
2020-01-17 11:02:50;26.0
2020-01-17 11:17:59;25.5
2020-01-17 11:33:07;25.5
2020-01-17 11:48:15;25.5
2020-01-17 12:18:32;26.0
2020-01-17 12:48:48;27.5
2020-01-17 13:19:03;27.0
2020-01-17 13:34:11;27.5
2020-01-17 13:49:19;27.5
2020-01-17 14:04:26;27.0
2020-01-17 14:19:34;30.0
2020-01-17 14:34:42;29.5
2020-01-17 18:06:38;29.0
2020-01-17 22:54:23;28.5
2020-01-17 23:24:41;28.5
2020-01-18 10:55:56;28.5
2020-01-18 12:11:40;28.0
2020-01-18 12:41:58;28.0
2020-01-18 12:57:07;28.0
2020-01-18 13:27:25;28.0
2020-01-18 13:57:42;28.0
2020-01-18 14:43:09;28.0
2020-01-18 14:58:18;28.0
2020-01-18 15:13:27;28.0
2020-01-18 15:28:36;28.5
2020-01-18 15:43:44;28.5
2020-01-18 15:58:53;28.5
2020-01-18 16:29:11;28.5
2020-01-19 15:08:46;28.5
2020-01-20 09:35:32;30.0
2020-01-20 09:50:41;29.5
2020-01-20 10:05:49;30.0
2020-01-20 10:20:59;30.5
2020-01-20 10:36:06;31.5
2020-01-20 11:21:32;32.0
2020-01-20 11:36:41;32.5
2020-01-20 11:51:50;31.5
2020-01-20 12:06:59;30.5
2020-01-20 12:22:08;33.5
2020-01-20 12:37:16;32.0
2020-01-20 12:52:25;32.5
2020-01-20 13:07:33;34.0
2020-01-20 13:22:42;34.0
2020-01-20 13:37:50;34.5
2020-01-20 13:52:59;34.0
2020-01-20 14:08:07;33.5
2020-01-20 14:23:16;31.5
2020-01-20 14:38:24;33.0
2020-01-20 14:53:32;32.0
2020-01-20 15:08:41;31.0
2020-01-20 15:23:49;30.5
2020-01-20 15:38:58;30.5
2020-01-20 15:54:07;30.5
2020-01-20 16:09:16;30.5
2020-01-21 08:55:14;28.0
2020-01-21 09:10:23;28.5
2020-01-21 09:25:31;27.0
2020-01-21 09:40:39;26.5
2020-01-21 09:55:47;26.5
2020-01-21 10:10:55;26.5
2020-01-21 10:26:03;25.0
2020-01-21 10:41:11;24.5
2020-01-21 10:56:19;26.0
2020-01-21 11:11:26;25.5
2020-01-21 11:26:34;25.0
2020-01-21 11:41:42;25.0
2020-01-21 11:56:50;33.0
2020-01-21 12:11:58;33.5
2020-01-21 12:27:06;33.5
2020-01-21 12:42:15;34.0
2020-01-21 13:12:32;34.0
2020-01-21 13:27:40;34.0
2020-01-21 13:57:57;32.5
2020-01-21 14:13:06;32.0
2020-01-21 14:28:14;31.5
2020-01-21 14:58:32;31.0
2020-01-21 15:13:40;31.0
2020-01-21 15:28:49;31.0
2020-01-21 16:14:15;30.5
2020-01-21 16:29:24;30.5
2020-01-22 13:53:36;31.0
2020-01-23 08:15:49;32.0
2020-01-23 08:30:58;33.5
2020-01-23 08:46:07;33.5
2020-01-23 09:01:17;28.5
2020-01-23 09:16:26;27.0
2020-01-23 09:31:35;25.5
2020-01-23 09:46:43;24.5
2020-01-23 10:01:51;23.0
2020-01-23 10:16:59;24.5
2020-01-23 10:32:07;26.5
2020-01-23 10:47:15;28.0
2020-01-23 11:02:24;27.5
2020-01-23 11:17:32;27.0
2020-01-23 11:32:40;26.5
2020-01-23 11:47:49;25.0
2020-01-23 12:02:57;24.0
2020-01-23 12:18:04;28.5
2020-01-23 12:33:11;25.5
2020-01-23 12:48:18;26.0
2020-01-23 13:03:25;25.5
2020-01-23 13:18:32;25.5
2020-01-23 13:33:39;26.0
2020-01-23 13:48:46;25.5
2020-01-23 14:03:53;26.0
2020-01-23 14:19:00;25.0
2020-01-23 14:49:14;27.0
2020-01-23 15:04:21;27.0
2020-01-23 15:19:29;26.5
2020-01-23 15:34:36;26.5
2020-01-23 15:49:44;26.5
2020-01-23 16:04:52;26.5
2020-01-23 16:19:59;26.5
2020-01-23 16:35:07;26.5
2020-01-23 16:50:15;26.5
2020-01-23 17:05:23;26.5
2020-01-23 17:20:32;27.0
2020-01-23 17:35:40;27.0
2020-01-23 17:50:48;27.0
2020-01-23 18:05:56;27.0
2020-01-23 18:21:04;27.0
2020-01-23 18:36:13;27.0
2020-01-23 18:51:21;27.0
2020-01-23 19:06:30;27.0
2020-01-23 19:21:38;27.0
2020-01-23 19:36:46;27.0
2020-01-23 19:51:55;27.0
2020-01-23 20:07:03;27.0
2020-01-23 20:22:12;27.0
2020-01-23 20:37:21;27.0
2020-01-23 20:52:29;27.0
2020-01-23 21:07:38;27.0
2020-01-23 21:22:47;27.0
2020-01-23 21:37:56;27.0
2020-01-23 21:53:04;26.5
2020-01-23 22:08:15;26.5
2020-01-23 22:23:22;26.5
2020-01-23 22:38:31;26.5
2020-01-23 22:53:40;27.0
2020-01-23 23:08:48;27.0
2020-01-27 08:49:28;30.5
2020-01-27 09:19:46;31.0
2020-01-27 09:34:55;32.0
2020-01-27 10:05:13;29.0
2020-01-27 10:20:22;30.0
2020-01-27 10:35:31;29.5
2020-01-27 10:50:40;30.0
2020-01-27 11:36:06;27.5
2020-01-27 11:51:14;27.5
2020-01-27 12:06:23;28.5
2020-01-27 12:21:32;30.0
2020-01-27 12:36:40;29.5
2020-01-27 12:51:49;28.5
2020-01-27 13:06:57;28.5
2020-01-27 13:22:05;29.5
2020-01-27 13:37:13;30.0
2020-01-27 13:52:21;30.5
2020-01-27 14:22:38;31.0
2020-01-27 14:37:46;31.5
2020-01-27 14:52:55;31.0
2020-01-27 15:23:11;30.5
2020-01-27 15:38:19;30.0
2020-01-27 15:53:28;30.0
2020-01-27 16:08:36;29.5
2020-01-27 16:23:45;29.5
2020-01-27 16:38:54;29.0
2020-01-27 16:54:02;29.0
2020-01-27 17:09:11;29.0
2020-01-27 17:24:20;29.0
2020-01-27 17:39:28;28.5
2020-01-27 17:54:37;28.5
2020-01-27 18:09:46;28.5
2020-01-27 18:24:55;28.5
2020-01-27 18:40:03;28.5
2020-01-27 18:55:12;28.5
2020-01-27 19:10:21;28.5
2020-01-27 19:25:30;28.5
2020-01-28 08:37:20;32.5
2020-01-28 08:52:29;33.0
2020-01-28 09:07:38;31.5
2020-01-28 09:22:47;31.5
2020-01-28 09:37:56;29.5
2020-01-28 09:53:05;29.0
2020-01-28 10:08:14;29.5
2020-01-28 10:23:23;29.5
2020-01-28 10:38:32;29.5
2020-01-28 10:53:41;29.0
2020-01-28 11:08:50;29.0
2020-01-28 11:23:59;29.0
2020-01-28 11:39:08;29.5
2020-01-28 11:54:17;31.0
2020-01-28 12:09:26;30.5
2020-01-28 12:24:34;30.0
2020-01-28 12:54:52;32.5
2020-01-28 13:10:00;33.5
2020-01-28 13:25:09;34.0
2020-01-28 13:55:26;34.0
2020-01-28 14:10:37;33.5
2020-01-28 14:25:43;33.0
2020-01-28 14:40:52;32.5
2020-01-28 14:56:01;32.5
2020-01-28 15:11:10;32.0
2020-01-28 15:56:37;31.5
2020-01-29 08:39:42;30.5
2020-01-29 08:54:51;30.5
2020-01-29 09:10:00;31.0
2020-01-29 09:25:09;30.5
2020-01-29 09:40:19;30.5
2020-01-29 09:55:28;31.5
2020-01-29 10:10:37;31.5
2020-01-29 10:25:46;30.0
2020-01-29 10:40:55;29.5
2020-01-29 10:56:04;30.0
2020-01-29 11:11:14;29.5
2020-01-29 11:26:22;29.0
2020-01-29 11:41:31;28.5
2020-01-29 11:56:40;31.5
2020-01-29 12:11:48;33.5
2020-01-29 12:26:57;33.5
2020-01-29 12:42:05;31.5
2020-01-29 12:57:13;30.0
2020-01-29 13:12:21;29.0
2020-01-29 13:27:29;31.5
2020-01-29 13:57:45;32.0
2020-01-29 14:12:53;31.0
2020-01-29 14:28:01;30.5
2020-01-29 14:43:10;30.5
2020-01-29 14:58:18;31.5
2020-01-29 15:13:26;36.0
2020-01-29 15:28:34;33.0
2020-01-29 15:43:42;32.5
2020-01-29 15:58:52;32.0
2020-01-29 16:14:01;31.0
2020-01-29 16:29:08;31.0
2020-01-29 16:44:16;30.5
2020-01-29 16:59:26;30.5
2020-01-29 17:14:34;30.0
2020-01-29 17:29:43;30.0
2020-01-29 17:44:52;30.0
2020-01-29 18:00:01;29.5
2020-01-29 18:15:10;29.5
2020-01-29 18:30:19;29.5
2020-01-29 18:45:28;29.5
2020-01-29 19:00:36;29.5
2020-01-29 19:15:45;29.5
2020-01-29 19:30:55;29.5
2020-01-29 19:46:04;29.0
2020-01-29 20:01:13;29.0
2020-01-29 20:16:22;29.0
2020-01-29 20:31:31;29.0
2020-01-29 20:46:40;29.0
2020-01-29 21:01:49;29.0
2020-01-30 08:58:58;32.0
2020-01-30 09:14:07;32.0
2020-01-30 09:29:17;29.5
2020-01-30 09:44:26;28.0
2020-01-30 09:59:35;29.0
2020-01-30 10:14:43;29.5
2020-01-30 10:29:52;30.0
2020-01-30 10:45:02;30.5
2020-01-30 11:00:11;30.5
2020-01-30 11:15:20;30.0
2020-01-30 11:30:29;30.0
2020-01-30 12:15:56;31.0
2020-01-30 12:31:05;31.5
2020-01-30 12:46:14;30.5
2020-01-30 13:01:23;30.5
2020-01-30 13:16:32;30.5
2020-01-30 13:31:40;30.0
2020-01-30 13:46:49;30.0
2020-01-30 14:01:57;30.5
2020-01-30 14:17:06;31.5
2020-01-30 14:32:14;31.5
2020-01-30 14:47:23;31.5
2020-01-30 15:02:31;31.0
2020-01-30 15:17:42;31.0
2020-01-30 15:32:49;31.0
2020-01-30 15:47:57;30.5
2020-01-30 16:03:06;30.5
2020-01-30 16:18:15;30.5
2020-01-30 16:33:23;30.5
2020-01-30 16:48:32;30.5
2020-01-30 17:03:42;30.5
2020-01-30 17:18:50;30.5
2020-01-30 17:33:59;30.5
2020-01-30 17:49:08;30.5
2020-01-30 18:04:17;30.0
2020-01-30 18:19:26;30.0
2020-01-30 18:34:35;30.0
2020-01-30 18:49:44;30.0
2020-01-30 19:04:53;30.0
2020-01-30 19:20:02;30.0
2020-01-30 19:35:11;30.0
2020-01-30 19:50:20;29.5
2020-01-30 20:05:29;29.5
2020-01-30 20:20:38;29.5
2020-01-30 20:35:47;29.5
2020-01-30 20:50:57;29.5
2020-01-30 21:06:06;29.5
2020-01-30 21:21:15;29.5
2020-01-30 21:36:24;29.5
2020-01-30 21:51:33;29.5
2020-01-30 22:06:43;29.5
2020-01-30 22:21:52;29.5
2020-01-30 22:37:01;29.0
2020-01-30 22:52:11;29.0
2020-01-30 23:07:20;29.0
2020-01-30 23:22:29;29.0
2020-01-30 23:37:39;29.0
2020-01-30 23:52:48;29.0
2020-01-31 00:07:57;29.0
2020-01-31 00:23:06;29.0
2020-01-31 00:38:15;29.0
2020-01-31 00:53:24;29.0
2020-01-31 01:08:33;29.0
2020-02-01 07:54:09;31.5
2020-02-01 08:09:19;30.5
2020-02-01 08:24:29;30.0
2020-02-01 08:39:40;29.5
2020-02-01 08:54:51;29.5
2020-02-01 09:10:01;29.5
2020-02-01 09:25:12;29.5
2020-02-01 09:40:24;29.5
2020-02-01 09:55:33;29.5
2020-02-01 10:10:44;29.5
2020-02-01 10:25:54;29.5
2020-02-01 10:41:04;29.5
2020-02-01 10:56:15;30.0
2020-02-01 11:11:25;30.0
2020-02-01 11:26:35;30.0
2020-02-01 11:41:45;30.5
2020-02-01 11:56:55;30.5
2020-02-01 12:12:04;30.5
2020-02-01 12:27:14;30.5
2020-02-01 12:42:24;30.5
2020-02-01 12:57:34;30.5
2020-02-01 13:12:43;30.5
2020-02-01 13:27:53;30.5
2020-02-01 13:43:03;30.5
2020-02-01 13:58:12;30.5
2020-02-01 14:13:22;30.5
2020-02-01 14:28:31;30.5
2020-02-01 14:43:41;30.5
2020-02-01 14:58:51;30.5
2020-02-01 15:14:00;30.5
2020-02-01 15:29:10;30.5
2020-02-01 15:44:19;30.5
2020-02-01 15:59:29;30.5
2020-02-01 16:14:38;30.5
2020-02-01 16:29:48;30.5
2020-02-01 16:44:58;31.0
2020-02-01 17:00:07;31.0
2020-02-01 17:15:17;31.0
2020-02-01 17:30:26;31.0
2020-02-01 17:45:36;31.0
2020-02-01 18:00:46;31.0
2020-02-01 18:15:55;31.0
2020-02-01 18:31:05;31.0
2020-02-01 18:46:15;31.0
2020-02-01 19:01:24;31.0
2020-02-01 19:16:34;31.0
2020-02-01 19:31:44;31.0
2020-02-01 19:46:54;31.0
2020-02-01 20:02:03;31.0
2020-02-01 20:17:13;31.0
2020-02-01 20:32:23;31.0
2020-02-01 20:47:33;31.0
2020-02-01 21:02:43;31.0
2020-02-01 21:17:53;31.0
2020-02-01 21:33:02;31.0
2020-02-01 21:48:12;31.0
2020-02-01 22:03:22;31.0
2020-02-01 22:18:32;31.5
2020-02-01 22:33:42;31.5
2020-02-01 22:48:52;31.0
2020-02-01 23:04:02;31.5
2020-02-01 23:19:12;31.5
2020-02-01 23:34:22;31.5
2020-02-01 23:49:32;31.5
2020-02-02 00:19:52;31.5
2020-02-02 00:35:02;31.5
2020-02-02 00:50:12;31.5
2020-02-02 01:05:22;31.5
2020-02-02 01:20:32;31.5
2020-02-02 09:04:38;31.5
2020-02-02 09:19:48;31.5
2020-02-02 09:34:58;31.5
2020-02-02 09:50:08;31.5
2020-02-02 10:05:18;31.0
2020-02-02 10:20:28;31.0
2020-02-02 10:35:39;31.0
2020-02-02 10:50:49;31.0
2020-02-02 11:05:59;31.0
2020-02-02 11:21:09;31.0
2020-02-02 11:36:19;31.0
2020-02-02 11:51:30;31.0
2020-02-02 12:06:40;31.0
2020-02-02 12:21:50;31.5
2020-02-02 12:37:00;31.5
2020-02-02 12:52:10;31.5
2020-02-02 13:07:20;31.5
2020-02-02 13:22:30;31.5
2020-02-02 13:37:40;31.5
2020-02-02 13:52:50;31.5
2020-02-02 14:08:00;31.5
2020-02-02 14:23:10;31.5
2020-02-02 14:38:20;31.5
2020-02-02 14:53:30;31.5
2020-02-02 15:08:39;31.5
2020-02-02 15:23:49;31.5
2020-02-02 15:38:59;31.5
2020-02-02 15:54:09;31.5
2020-02-02 16:09:19;32.0
2020-02-02 16:24:29;32.0
2020-02-02 16:39:39;32.0
2020-02-02 16:54:49;32.0
2020-02-02 17:09:59;32.0
2020-02-02 17:25:09;32.0
2020-02-02 17:55:29;32.0
2020-02-02 18:10:39;32.0
2020-02-02 18:25:49;32.0
2020-02-02 18:40:59;32.0
2020-02-02 18:56:09;32.5
2020-02-02 19:11:19;32.5
2020-02-04 11:35:24;32.0
2020-02-04 12:05:43;31.0
2020-02-04 12:36:01;29.5
2020-02-04 14:06:56;32.5
2020-02-04 14:22:06;31.5
2020-02-04 15:07:33;31.0
2020-02-04 15:22:44;31.0
2020-02-04 15:37:52;31.0
2020-02-04 15:53:02;31.0
2020-02-04 16:08:11;31.0
2020-02-05 08:55:25;31.5
2020-02-05 09:10:35;32.0
2020-02-05 09:25:44;32.5
2020-02-05 09:40:54;29.5
2020-02-05 11:42:05;26.5
2020-02-05 11:57:15;22.5
2020-02-05 12:12:22;25.5
2020-02-05 12:27:30;26.0
2020-02-05 12:57:47;29.0
2020-02-05 13:12:56;30.0
2020-02-05 13:58:24;28.0
2020-02-05 14:28:42;27.5
2020-02-05 14:43:52;27.0
2020-02-05 15:14:10;25.5
2020-02-05 15:29:19;24.5
2020-02-06 08:49:35;30.0
2020-02-06 09:35:01;28.0
2020-02-06 10:35:34;25.0
2020-02-06 11:05:50;27.5
2020-02-06 11:36:05;27.0
2020-02-06 12:06:21;29.0
2020-02-06 12:36:36;30.5
2020-02-06 12:51:44;29.5
2020-02-06 13:06:51;29.0
2020-02-06 13:21:59;28.5
2020-02-06 13:52:13;27.5
2020-02-06 14:07:20;27.0
2020-02-06 14:22:27;26.5
2020-02-06 14:37:35;26.5
2020-02-06 14:52:42;26.5
2020-02-06 15:07:49;26.5
2020-02-06 15:22:56;26.0
2020-02-06 15:38:03;26.0
2020-02-06 15:53:10;26.5
2020-02-06 16:08:18;27.0
2020-02-06 16:23:25;28.0
2020-02-06 16:38:32;27.0
2020-02-06 16:53:39;26.0
2020-02-06 17:08:46;26.0
2020-02-06 17:23:54;26.0
2020-02-06 17:39:01;26.5
2020-02-06 17:54:08;27.0
2020-02-06 18:09:15;27.0
2020-02-06 18:24:22;27.0
2020-02-06 18:39:29;27.5
2020-02-06 18:54:36;27.5
2020-02-06 19:09:43;27.5
2020-02-06 19:24:51;28.0
2020-02-06 19:39:58;28.0
2020-02-06 19:55:05;28.0
2020-02-06 20:10:12;28.0
2020-02-06 20:25:19;28.0
2020-02-06 20:40:26;28.5
2020-02-06 20:55:33;28.5
2020-02-06 21:10:40;28.5
2020-02-06 21:25:47;28.5
2020-02-06 21:40:54;28.5
2020-02-06 21:56:02;28.5
2020-02-06 22:11:08;28.5
2020-02-06 22:26:15;29.0
2020-02-06 22:41:22;29.0
2020-02-06 22:56:29;29.0
2020-02-06 23:11:36;29.0
2020-02-06 23:26:43;29.0
2020-02-06 23:41:50;29.0
2020-02-06 23:56:57;29.0
2020-02-07 00:12:04;29.0
2020-02-07 00:27:11;29.0
2020-02-07 00:42:18;29.0
2020-02-07 00:57:25;29.0
2020-02-08 08:48:22;30.0
2020-02-08 09:03:29;29.5
2020-02-08 09:18:36;29.5
2020-02-08 09:33:42;29.5
2020-02-08 09:48:49;29.5
2020-02-08 10:03:56;29.5
2020-02-08 10:19:03;29.5
2020-02-08 10:34:09;29.0
2020-02-08 10:49:16;29.0
2020-02-08 11:04:22;29.0
2020-02-08 11:19:29;29.5
2020-02-08 11:34:35;29.5
2020-02-08 11:49:42;29.5
2020-02-08 12:04:48;29.5
2020-02-08 12:19:54;29.5
2020-02-08 12:35:00;29.5
2020-02-08 12:50:06;29.5
2020-02-08 13:05:12;29.5
2020-02-08 13:20:18;29.5
2020-02-08 13:35:24;29.5
2020-02-08 14:05:36;29.5
2020-02-08 14:20:42;29.5
2020-02-08 14:35:48;29.5
2020-02-08 14:50:54;29.5
2020-02-08 15:06:00;29.5
2020-02-08 15:21:06;29.5
2020-02-08 15:36:11;29.5
2020-02-08 15:51:17;29.5
2020-02-08 16:06:23;29.5
2020-02-08 16:21:29;29.5
2020-02-08 16:36:35;29.5
2020-02-08 16:51:41;29.5
2020-02-08 17:06:47;30.0
2020-02-08 17:21:53;30.0
2020-02-08 17:36:58;30.0
2020-02-08 17:52:04;30.0
2020-02-08 18:07:10;30.0
2020-02-08 18:22:16;29.5
2020-02-08 18:37:22;30.0
2020-02-08 18:52:28;30.0
2020-02-08 19:07:34;30.0
2020-02-08 19:22:40;30.0
2020-02-08 19:37:46;30.0
2020-02-08 19:52:52;30.0
2020-02-08 20:07:58;30.0
2020-02-08 20:23:04;30.0
2020-02-08 20:38:10;30.0
2020-02-08 20:53:16;30.0
2020-02-08 21:08:23;30.0
2020-02-08 21:23:29;30.0
2020-02-08 21:38:35;30.0
2020-02-08 21:53:41;30.0
2020-02-08 22:08:47;30.0
2020-02-08 22:23:53;30.0
2020-02-08 22:38:59;30.0
2020-02-08 22:54:05;30.0
2020-02-08 23:24:17;30.0
2020-02-08 23:39:24;30.0
2020-02-08 23:54:30;30.0
2020-02-09 00:24:42;30.0
2020-02-09 00:39:48;30.0
2020-02-09 00:54:54;30.0
2020-02-09 01:10:00;30.0
2020-02-09 01:25:06;30.0
2020-02-09 01:55:18;30.0
2020-02-09 02:10:24;30.0
2020-02-09 08:35:12;29.5
2020-02-09 08:50:19;29.0
2020-02-09 09:05:23;29.0
2020-02-09 09:20:29;28.5
2020-02-09 09:35:35;28.5
2020-02-09 09:50:41;28.5
2020-02-09 10:05:47;29.0
2020-02-09 10:20:53;29.0
2020-02-09 10:35:59;29.0
2020-02-09 10:51:05;29.0
2020-02-09 11:06:11;29.0
2020-02-09 11:21:16;29.0
2020-02-09 11:36:22;29.0
2020-02-09 11:51:28;29.0
2020-02-09 12:06:34;29.0
2020-02-09 12:21:39;29.0
2020-02-09 12:36:45;29.0
2020-02-09 12:51:51;29.0
2020-02-09 13:06:56;29.0
2020-02-09 13:22:02;29.0
2020-02-09 13:37:08;29.0
2020-02-09 13:52:14;29.0
2020-02-09 14:07:19;29.0
2020-02-09 14:22:25;29.0
2020-02-09 14:37:30;29.0
2020-02-09 14:52:36;29.0
2020-02-09 15:07:42;29.0
2020-02-09 15:22:47;29.0
2020-02-09 15:37:53;29.5
2020-02-09 15:52:59;29.5
2020-02-09 16:08:04;29.5
2020-02-09 16:23:10;29.5
2020-02-09 16:38:16;29.5
2020-02-09 16:53:21;29.5
2020-02-09 17:08:27;29.5
2020-02-09 17:23:33;29.5
2020-02-09 17:38:38;29.5
2020-02-09 18:08:50;29.5
2020-02-09 18:23:56;29.5
2020-02-09 18:39:01;30.0
2020-02-09 18:54:07;30.0
2020-02-09 19:09:13;30.0
2020-02-09 19:24:19;30.0
2020-02-09 19:39:25;30.0
2020-02-09 19:54:30;30.5
2020-02-09 20:09:36;30.5
2020-02-09 20:24:44;30.5
2020-02-09 20:39:48;30.5
2020-02-09 20:54:54;30.5
2020-02-09 21:10:00;30.5
2020-02-09 21:25:06;30.5
2020-02-09 21:40:12;30.5
2020-02-09 21:55:18;30.5
2020-02-09 22:10:23;30.5
2020-02-09 22:25:29;30.5
2020-02-09 22:40:35;30.5
2020-02-09 22:55:41;30.5
2020-02-09 23:10:47;30.5
2020-02-09 23:25:53;30.5
2020-02-09 23:40:59;30.5
2020-02-09 23:56:05;30.5
2020-02-10 00:11:11;30.5
2020-02-10 00:26:17;30.5
2020-02-10 00:41:23;30.5
2020-02-10 00:56:29;30.5
2020-02-10 01:11:35;30.5
2020-02-10 01:26:41;30.5
2020-02-10 01:56:53;30.5
2020-02-10 02:11:59;30.0
2020-02-10 02:27:05;30.5
2020-02-10 07:48:03;38.5
2020-02-10 08:03:10;38.0
2020-02-10 08:18:17;38.5
2020-02-10 08:33:24;36.5
2020-02-10 08:48:31;38.5
2020-02-10 09:03:38;38.0
2020-02-10 09:18:45;39.0
2020-02-10 09:33:52;40.0
2020-02-10 09:48:59;40.5
2020-02-10 10:04:06;40.5
2020-02-10 10:19:13;40.5
2020-02-10 10:34:20;41.5
2020-02-10 10:49:27;42.0
2020-02-10 11:04:34;40.0
2020-02-10 11:19:41;38.0
2020-02-10 11:34:48;37.0
2020-02-10 11:49:56;37.5
2020-02-10 12:05:02;38.0
2020-02-10 12:20:09;39.5
2020-02-10 12:35:16;41.0
2020-02-10 12:50:24;42.0
2020-02-10 13:05:31;42.5
2020-02-10 13:20:38;41.0
2020-02-10 13:35:46;39.5
2020-02-10 13:50:53;39.0
2020-02-10 14:06:00;39.5
2020-02-10 14:21:07;39.0
2020-02-10 14:36:14;38.5
2020-02-10 14:51:21;38.0
2020-02-10 15:06:28;38.0
2020-02-10 15:21:35;38.0
2020-02-10 15:36:42;37.5
2020-02-10 15:51:49;37.5
2020-02-10 16:06:56;37.0
2020-02-10 16:22:02;37.0
2020-02-10 16:37:09;37.0
2020-02-12 09:51:28;34.0
2020-02-12 10:21:46;36.5
2020-02-12 11:37:31;34.5
2020-02-12 11:52:39;34.5
2020-02-12 12:07:48;31.5
2020-02-12 12:38:05;35.5
2020-02-12 12:53:13;36.0
2020-02-12 13:08:22;37.5
2020-02-12 13:23:31;38.0
2020-02-12 13:38:40;38.5
2020-02-12 13:53:48;40.0
2020-02-12 15:09:32;28.0
2020-02-12 16:10:05;28.0
2020-02-13 09:26:57;28.5
2020-02-13 10:27:29;30.0
2020-02-13 10:57:44;29.0
2020-02-13 11:12:51;28.0
2020-02-13 11:27:59;28.0
2020-02-13 11:58:14;30.5
2020-02-13 12:28:28;30.0
2020-02-13 12:43:35;29.0
2020-02-13 12:58:42;28.5
2020-02-13 13:13:50;28.0
2020-02-13 13:28:57;28.0
2020-02-13 13:44:04;27.5
2020-02-13 13:59:11;27.5
2020-02-13 14:14:19;28.0
2020-02-13 14:29:26;26.5
2020-02-13 14:44:33;27.0
2020-02-13 15:14:46;28.5
2020-02-13 15:29:53;28.5
2020-02-13 15:45:00;29.5
2020-02-13 16:00:07;29.5
2020-02-13 16:15:15;30.5
2020-02-13 16:30:23;30.5
2020-02-13 16:45:30;29.5
2020-02-13 17:00:38;30.0
2020-02-13 17:15:46;30.0
2020-02-13 17:30:54;30.0
2020-02-13 17:46:02;30.0
2020-02-13 18:01:09;30.0
2020-02-13 18:16:17;30.0
2020-02-13 18:31:25;30.5
2020-02-13 18:46:33;30.0
2020-02-13 19:01:41;30.0
2020-02-13 19:16:49;30.5
2020-02-13 19:31:57;30.0
2020-02-13 19:47:05;30.0
2020-02-13 20:02:13;30.0
2020-02-13 20:17:21;30.0
2020-02-13 20:32:29;30.0
2020-02-13 20:47:37;30.0
2020-02-13 21:02:46;30.0
2020-02-13 21:17:54;30.0
2020-02-13 21:33:02;30.0
2020-02-13 21:48:10;30.0
2020-02-13 22:03:18;30.5
2020-02-13 22:18:27;30.0
2020-02-13 22:33:35;30.0
2020-02-13 22:48:43;30.0
2020-02-13 23:03:51;30.0
2020-02-13 23:19:00;30.0
2020-02-13 23:49:16;30.0
2020-02-14 00:19:33;30.0
2020-02-14 00:34:41;30.0
2020-02-18 12:03:28;32.0
2020-02-18 12:18:36;32.0
2020-02-18 12:33:43;32.0
2020-02-18 12:48:51;32.0
2020-02-18 13:03:58;32.0
2020-02-18 13:19:06;32.0
2020-02-18 13:34:13;32.0
2020-02-18 13:49:20;32.0
2020-02-18 14:04:28;32.0
2020-02-18 14:19:35;31.5
2020-02-18 14:34:42;31.5
2020-02-18 14:49:50;31.5
2020-02-18 15:04:57;31.5
2020-02-18 15:20:04;31.5
2020-02-18 15:20:05;31.5
2020-02-18 15:35:11;31.5
2020-02-18 15:50:19;31.5
2020-02-18 16:20:33;31.5
2020-02-18 16:35:40;31.5
2020-02-18 16:50:48;31.5
2020-02-18 17:05:55;31.5
2020-02-18 17:05:57;31.5
2020-02-18 17:21:02;31.5
2020-02-18 17:36:09;31.5
2020-02-18 18:06:24;31.5
2020-02-18 18:21:31;31.5
2020-02-18 18:36:38;31.5
2020-02-18 18:51:46;31.5
2020-02-18 19:06:53;31.5
2020-02-18 19:22:02;31.5
2020-02-18 19:37:08;31.5
2020-02-18 19:52:15;31.5
2020-02-18 20:07:22;31.5
2020-02-18 20:22:29;31.5
2020-02-18 20:37:37;31.5
2020-02-18 20:52:44;31.5
2020-02-18 21:07:51;31.5
2020-02-18 21:22:59;31.5
2020-02-18 21:38:06;31.5
2020-02-18 21:53:13;31.5
2020-02-18 22:08:21;31.5
2020-02-18 22:38:35;31.5
2020-02-18 22:53:43;31.5
2020-02-18 23:08:50;31.5
2020-02-18 23:08:51;31.5
2020-02-18 23:23:57;31.5
2020-02-18 23:39:05;31.5
2020-02-18 23:54:12;31.5
2020-02-19 00:09:19;31.5
2020-02-19 00:24:27;31.5
2020-02-19 00:39:34;31.5
2020-02-19 00:54:41;31.5
2020-02-19 01:09:49;31.5
2020-02-19 01:24:56;31.5
2020-02-19 01:40:03;31.5
2020-02-19 01:55:11;31.5
2020-02-19 02:10:18;31.5
2020-02-19 07:22:38;31.0
2020-02-19 07:37:45;31.0
2020-02-19 07:52:52;31.0
2020-02-19 08:07:59;31.0
2020-02-19 08:23:06;30.5
2020-02-19 08:38:14;30.5
2020-02-19 08:53:21;30.5
2020-02-19 09:08:28;30.0
2020-02-19 09:23:36;30.0
2020-02-19 09:38:43;30.5
2020-02-19 09:53:51;30.5
2020-02-19 10:08:58;30.5
2020-02-19 10:24:05;30.5
2020-02-19 10:39:12;30.5
2020-02-19 10:54:19;30.5
2020-02-19 11:09:26;30.5
2020-02-19 11:24:33;30.5
2020-02-19 11:39:40;30.5
2020-02-19 11:54:47;30.5
2020-02-19 12:09:54;30.5
2020-02-19 12:25:01;30.5
2020-02-19 12:40:07;30.5
2020-02-19 12:55:14;30.5
2020-02-19 13:10:21;30.5
2020-02-21 19:51:31;27.5
2020-02-24 12:02:36;33.5
2020-02-24 12:17:45;33.5
2020-02-24 13:18:21;32.0
2020-02-24 13:33:30;33.0
2020-02-24 15:19:34;28.0
2020-02-26 11:41:02;28.0
2020-02-26 12:41:40;35.5
2020-02-26 12:56:49;37.0
2020-02-26 13:57:27;30.5
2020-02-27 10:18:01;27.0
2020-02-27 10:33:10;26.5
2020-02-27 17:07:09;23.5
2020-02-27 18:22:53;23.5
2020-02-27 20:54:23;25.5
2020-02-27 21:09:32;25.5
2020-02-27 21:24:41;25.5
2020-02-27 21:39:51;25.5
2020-02-27 22:10:09;26.0
2020-02-27 22:25:18;26.0
2020-02-27 23:10:46;26.5
2020-02-27 23:25:55;26.5
2020-02-27 23:56:14;26.5
2020-02-28 00:26:32;26.5
2020-02-28 07:57:52;33.5
2020-02-28 08:13:02;31.0
2020-02-28 08:58:30;31.0
2020-02-29 09:49:54;27.0
2020-02-29 13:06:52;27.5
2020-02-29 18:40:07;27.5
2020-03-01 13:01:43;27.5
2020-03-01 13:47:11;27.5
2020-03-01 16:03:33;27.5
2020-03-01 16:49:01;27.5
2020-03-01 17:04:10;27.5
2020-03-01 17:34:28;28.0
2020-03-01 17:49:37;28.0
2020-03-02 11:39:52;24.5
2020-03-02 11:55:00;24.5
2020-03-02 12:25:17;24.0
2020-03-02 12:40:25;25.0
2020-03-02 12:55:33;25.5
2020-03-02 13:25:48;26.0
2020-03-02 13:56:04;25.0
2020-03-04 11:44:58;27.5
2020-03-04 12:30:24;32.5
2020-03-04 12:45:33;30.5
2020-03-05 12:37:18;20.0
2020-03-05 14:07:54;21.0
2020-03-05 14:22:58;20.0
2020-03-06 08:29:22;31.5
2020-03-06 10:02:19;36.0
2020-03-06 10:32:37;33.0
2020-03-06 11:48:25;31.0
2020-03-06 12:03:35;30.5
2020-03-06 12:18:44;30.0
2020-03-06 12:33:54;31.0
2020-03-06 12:49:03;30.5
2020-03-06 13:19:22;30.0
2020-03-06 13:34:32;31.0
2020-03-06 13:49:41;30.5
2020-03-09 10:13:08;27.5
2020-03-09 10:28:17;27.5
2020-03-09 11:59:11;32.0
2020-03-09 13:45:14;34.0
2020-03-10 11:38:03;25.5
2020-03-10 11:53:12;29.0
2020-03-10 12:08:20;27.5
2020-03-10 12:23:28;26.5
2020-03-10 12:38:36;26.0
2020-03-10 13:39:09;28.0
2020-03-11 11:49:18;37.0
2020-03-11 12:19:37;40.0
2020-03-11 12:34:46;41.0
2020-03-11 13:05:05;39.0
2020-03-12 11:44:34;33.5
2020-03-12 11:59:43;34.0
2020-03-12 12:14:52;35.5
2020-03-12 12:30:04;35.5
2020-03-12 13:45:48;34.0
2020-03-12 14:16:07;34.0
2020-03-13 10:33:55;30.0
2020-03-13 11:04:16;28.5
2020-03-13 11:34:33;26.5
2020-03-13 11:49:43;26.0
2020-03-13 14:06:09;24.5
2020-03-13 15:06:48;34.0
2020-03-13 18:24:00;30.5
2020-03-13 19:55:02;30.0
2020-03-14 13:43:43;27.5
2020-03-14 15:14:45;27.5
2020-03-14 17:16:07;27.5
2020-03-14 19:17:32;27.5
2020-03-15 10:53:07;24.5
2020-03-15 11:23:24;24.5
2020-03-15 11:53:50;23.5
2020-03-15 12:39:16;23.0
2020-03-15 13:09:37;22.5
2020-03-15 14:25:28;22.0
2020-03-15 17:12:19;20.5
2020-03-15 19:43:59;19.5
2020-03-16 07:00:41;21.0
2020-05-15 13:24:42;32.5
2020-05-15 13:39:52;32.5
2020-05-15 13:55:02;32.5
2020-05-15 14:10:11;32.5
2020-05-15 14:25:21;32.5
2020-05-15 14:40:31;33.5
2020-05-15 14:55:41;33.5
2020-05-15 15:10:51;33.5
2020-05-15 15:26:00;33.0
2020-05-15 15:41:10;33.0
2020-05-15 15:56:20;33.0
2020-05-15 16:11:30;32.5
2020-05-15 16:26:40;32.5
2020-05-15 16:41:49;33.0
2020-05-15 16:56:59;33.0
2020-05-15 17:12:09;33.0
2020-05-15 17:27:19;32.5
2020-05-15 17:42:29;32.5
2020-05-15 17:57:38;32.0
2020-05-16 07:48:42;29.0
2020-05-16 08:19:04;28.5
2020-05-16 08:49:26;29.0
2020-05-16 09:19:47;29.0
2020-05-16 15:39:03;29.5
2020-05-16 18:41:02;30.0
2020-05-16 21:12:42;30.0
2020-05-16 23:59:34;30.5
2020-05-17 02:46:26;30.5
2020-05-17 07:40:48;30.0
2020-05-17 07:55:59;30.0
2020-05-17 08:11:10;29.5
2020-05-17 09:11:56;29.5
2020-05-17 10:12:42;30.0
2020-05-17 10:43:04;30.0
2020-05-17 11:43:47;30.5
2020-05-17 12:29:19;30.5
2020-05-17 12:59:41;30.5
2020-05-17 13:14:51;30.5
2020-05-17 13:30:02;30.5
2020-05-17 14:30:45;30.0
2020-05-17 14:45:55;30.0
2020-05-17 15:16:17;30.0
2020-05-17 15:31:27;30.0
2020-05-17 22:36:23;30.5
2020-05-17 22:51:33;30.5
2020-05-18 05:17:24;29.0
2020-05-18 07:49:25;27.5
2020-05-18 08:04:38;27.5
2020-05-18 09:20:44;28.0
2020-05-18 09:35:57;28.0
2020-05-18 10:36:46;26.0
2020-05-18 10:51:58;26.0
2020-05-18 11:07:10;25.5
2020-05-18 11:22:22;24.5
2020-05-18 11:37:33;23.5
2020-06-05 05:19:29;39.5
2020-06-05 05:34:51;40.0
2020-06-05 05:50:12;40.0
2020-06-05 06:05:34;40.0
2020-06-05 06:51:38;40.0
2020-06-05 07:07:00;39.5
2020-06-05 07:22:22;39.5
2020-06-06 13:32:24;38.0
2020-06-06 22:23:50;39.0
2020-06-06 22:39:02;39.0
2020-06-11 17:32:41;41.5
2020-06-12 11:08:11;37.5
2020-09-14 14:11:17;45.0
2020-09-14 14:41:42;46.5
2020-09-16 07:56:16;46.0
2020-09-16 08:11:29;47.0
2020-09-16 08:26:43;47.5
2020-09-16 08:41:56;48.5
2020-09-16 08:57:08;49.0
2020-09-16 09:12:21;49.5
2020-09-16 09:27:34;50.0
2020-09-16 09:42:46;49.5
2020-09-16 09:57:59;49.0
2020-09-16 10:13:12;48.5
2020-09-16 10:28:24;48.0
2020-09-16 10:43:37;48.0
2020-09-16 10:58:50;47.5
2020-09-16 11:14:02;47.0
2020-09-16 11:29:15;47.5
2020-09-16 11:59:40;47.0
2020-09-16 13:00:31;47.0
2020-09-16 16:48:45;47.5
2020-09-16 17:49:37;48.0
2020-09-16 18:04:50;48.5
2020-09-16 18:35:16;48.5
2020-09-16 18:50:30;48.5
2020-09-16 19:36:09;48.5
2020-09-16 19:51:23;48.5
2020-09-16 20:52:16;48.5
2020-09-16 21:07:29;48.5
2020-09-16 21:37:56;48.5
2020-09-16 22:23:37;48.5
2020-09-16 23:09:17;48.5
2020-09-21 10:09:12;44.5
2020-09-21 10:24:33;45.0
2020-09-21 10:39:54;45.5
2020-09-21 10:55:16;46.5
2020-09-21 11:10:36;48.0
2020-09-21 12:58:07;50.5
2020-09-21 13:59:36;49.5
2020-09-21 14:45:43;52.5
2020-09-21 15:31:51;53.0
2020-09-21 15:47:13;53.0
2020-09-21 16:02:36;52.5
2020-09-21 16:17:58;53.0
;