time;NMSGrein_SR04rH_018a3c55_rhu-ms1
2019-11-19 09:22:23;35.6
2019-11-19 10:29:48;37.6
2019-11-19 11:41:43;36.8
2019-11-19 11:55:12;37.6
2019-11-19 12:44:38;37.2
2019-11-19 16:06:51;36.0
2019-11-19 17:09:45;36.0
2019-11-19 17:59:11;35.6
2019-11-19 19:02:05;36.0
2019-11-19 19:38:02;35.6
2019-11-19 20:58:54;35.6
2019-11-19 22:15:16;36.0
2019-11-20 00:30:00;36.0
2019-11-20 01:05:55;36.0
2019-11-20 01:59:47;36.0
2019-11-20 02:35:42;35.6
2019-11-20 03:38:33;35.6
2019-11-20 04:14:27;35.6
2019-11-20 10:04:43;39.2
2019-11-20 10:27:11;37.2
2019-11-20 12:10:31;38.4
2019-11-20 12:46:27;38.0
2019-11-20 16:44:32;36.0
2019-11-20 17:42:55;36.0
2019-11-20 18:32:20;36.0
2019-11-20 19:26:14;36.0
2019-11-20 20:20:08;36.0
2019-11-20 21:54:28;35.6
2019-11-20 22:57:21;35.6
2019-11-20 23:33:17;35.6
2019-11-21 00:49:38;35.6
2019-11-21 01:43:32;35.6
2019-11-21 02:19:28;35.2
2019-11-21 02:59:53;35.2
2019-11-21 03:40:19;35.2
2019-11-21 05:37:05;35.2
2019-11-21 06:26:30;35.2
2019-11-21 07:38:22;39.2
2019-11-21 08:45:46;39.2
2019-11-21 15:12:12;37.6
2019-11-21 15:48:09;37.6
2019-11-21 16:55:33;37.6
2019-11-21 17:53:59;37.2
2019-11-21 19:41:49;37.2
2019-11-21 20:49:14;36.8
2019-11-21 21:43:09;36.8
2019-11-21 22:50:34;36.8
2019-11-22 01:45:49;36.4
2019-11-22 03:51:37;36.4
2019-11-22 04:59:01;36.4
2019-11-22 07:04:50;38.0
2019-11-22 07:36:18;40.4
2019-11-22 08:16:45;38.0
2019-11-22 10:27:05;38.8
2019-11-22 11:07:32;36.8
2019-11-22 13:17:51;39.6
2019-11-22 14:34:16;38.8
2019-11-22 15:37:11;38.0
2019-11-22 16:22:08;37.6
2019-11-22 17:20:33;37.6
2019-11-22 18:18:58;37.2
2019-11-22 18:59:25;37.2
2019-11-22 20:06:49;36.8
2019-11-22 21:23:12;36.8
2019-11-22 22:35:06;36.4
2019-11-22 23:24:31;36.0
2019-11-23 00:40:54;35.6
2019-11-23 01:57:17;35.2
2019-11-23 02:51:11;35.2
2019-11-23 03:49:36;35.6
2019-11-23 04:52:29;35.6
2019-11-23 05:41:55;35.6
2019-11-23 06:31:20;35.6
2019-11-23 07:47:43;34.8
2019-11-23 08:10:12;34.0
2019-11-23 09:26:40;33.6
2019-11-23 10:16:09;34.0
2019-11-23 11:01:07;34.0
2019-11-23 11:46:06;34.0
2019-11-23 12:31:03;33.6
2019-11-23 13:25:01;33.6
2019-11-23 14:32:27;33.6
2019-11-23 15:39:53;34.0
2019-11-23 16:15:51;34.0
2019-11-23 17:05:17;34.0
2019-11-23 18:26:12;34.4
2019-11-23 19:24:38;34.4
2019-11-23 20:09:34;34.4
2019-11-23 21:16:59;34.4
2019-11-23 22:15:25;34.8
2019-11-23 23:27:19;34.8
2019-11-24 00:16:45;34.8
2019-11-24 01:06:11;34.8
2019-11-24 01:55:37;34.8
2019-11-24 02:49:33;34.8
2019-11-24 03:34:29;34.8
2019-11-24 04:50:52;34.8
2019-11-24 05:31:19;34.8
2019-11-24 06:11:45;34.8
2019-11-24 07:32:38;34.8
2019-11-24 08:04:06;34.0
2019-11-24 09:47:33;33.6
2019-11-24 10:46:01;34.0
2019-11-24 11:21:59;34.4
2019-11-24 12:06:57;34.4
2019-11-24 12:42:56;34.4
2019-11-24 13:41:22;34.8
2019-11-24 14:17:20;34.8
2019-11-24 15:29:16;34.8
2019-11-24 16:18:43;34.4
2019-11-24 16:59:10;34.8
2019-11-24 17:39:38;34.8
2019-11-24 18:47:03;34.8
2019-11-24 19:31:59;34.8
2019-11-24 20:16:56;34.8
2019-11-24 20:52:53;34.8
2019-11-24 21:33:20;34.8
2019-11-24 22:45:15;34.8
2019-11-24 23:43:40;34.8
2019-11-25 01:44:59;34.8
2019-11-25 02:20:57;34.8
2019-11-25 03:19:22;34.8
2019-11-25 04:22:16;34.8
2019-11-25 07:13:02;38.4
2019-11-25 10:03:48;37.2
2019-11-25 13:17:06;40.8
2019-11-25 15:13:57;38.4
2019-11-25 16:30:22;38.0
2019-11-25 17:28:47;37.6
2019-11-25 18:04:44;37.6
2019-11-25 19:03:10;37.2
2019-11-25 19:48:06;37.2
2019-11-25 21:44:56;36.8
2019-11-25 23:01:20;36.4
2019-11-26 00:17:43;36.4
2019-11-26 01:20:37;36.4
2019-11-26 02:23:32;36.0
2019-11-26 03:12:57;36.0
2019-11-26 04:11:22;36.0
2019-11-26 05:09:47;35.6
2019-11-26 05:54:43;36.0
2019-11-26 07:02:08;38.4
2019-11-26 07:11:07;34.0
2019-11-26 08:00:32;34.8
2019-11-26 10:01:52;39.2
2019-11-28 07:02:59;36.0
2019-11-29 06:43:23;34.8
2019-12-02 11:47:41;35.6
2019-12-03 14:26:30;29.2
2019-12-03 16:32:13;31.2
2019-12-03 17:08:08;31.2
2019-12-03 18:28:58;31.2
2019-12-03 19:36:19;31.2
2019-12-03 20:30:12;31.2
2019-12-03 21:33:04;31.6
2019-12-03 22:49:23;31.6
2019-12-03 23:47:43;32.0
2019-12-04 01:39:54;31.6
2019-12-04 02:56:10;31.6
2019-12-04 03:41:02;31.6
2019-12-04 04:25:54;31.2
2019-12-04 05:28:43;30.8
2019-12-04 07:56:48;30.8
2019-12-05 07:03:58;31.6
2019-12-05 12:31:42;30.8
2019-12-09 12:25:12;40.4
2019-12-10 08:10:09;34.8
2019-12-10 09:57:54;37.2
2019-12-11 02:29:57;32.8
2019-12-11 06:59:10;31.2
2019-12-11 09:00:25;34.4
2019-12-11 09:58:50;32.4
2019-12-11 11:55:37;32.0
2019-12-12 11:20:06;34.0
2019-12-12 12:18:26;35.2
2019-12-12 12:54:22;41.2
2019-12-12 14:19:38;34.4
2019-12-12 14:37:35;38.4
2019-12-13 06:01:47;32.0
2019-12-13 06:46:39;32.4
2019-12-13 11:56:18;35.6
2019-12-13 13:35:02;35.2
2019-12-13 14:55:48;34.0
2019-12-13 20:18:51;32.8
2019-12-14 13:35:04;31.6
2019-12-14 15:36:11;32.0
2019-12-15 03:15:55;32.0
2019-12-15 09:41:39;30.8
2019-12-16 06:01:45;31.6
2019-12-16 08:52:13;35.2
2019-12-16 12:05:10;34.8
2019-12-16 12:18:38;37.6
2019-12-16 12:50:03;39.6
2019-12-16 13:48:23;37.6
2019-12-16 14:46:43;36.4
2019-12-16 15:49:32;36.4
2019-12-16 16:47:51;35.6
2019-12-16 17:32:43;35.6
2019-12-16 18:13:06;35.2
2019-12-16 19:02:27;35.2
2019-12-16 20:23:12;34.8
2019-12-16 20:59:05;34.8
2019-12-16 22:06:23;34.4
2019-12-16 23:09:11;34.4
2019-12-17 00:07:30;34.4
2019-12-17 01:23:45;34.0
2019-12-17 02:35:31;34.0
2019-12-17 03:47:17;34.0
2019-12-17 04:54:33;33.6
2019-12-17 06:42:12;34.4
2019-12-17 07:22:34;34.8
2019-12-17 07:40:30;36.8
2019-12-17 08:52:19;39.6
2019-12-17 10:44:31;39.6
2019-12-17 11:51:51;42.4
2019-12-17 11:56:20;40.4
2019-12-17 13:53:01;38.4
2019-12-17 15:00:19;37.6
2019-12-17 15:58:39;37.2
2019-12-17 16:52:30;36.4
2019-12-17 17:37:22;36.0
2019-12-17 18:40:11;35.2
2019-12-17 19:25:04;35.2
2019-12-17 20:41:20;34.8
2019-12-17 22:02:06;34.8
2019-12-17 23:13:53;34.4
2019-12-18 00:30:09;34.4
2019-12-18 01:50:54;34.4
2019-12-18 02:40:14;34.0
2019-12-18 03:43:03;34.0
2019-12-18 04:18:56;34.0
2019-12-18 05:08:16;34.0
2019-12-18 05:44:09;34.0
2019-12-18 06:51:27;34.8
2019-12-18 07:18:22;36.8
2019-12-18 10:08:49;35.2
2019-12-18 11:38:33;37.6
2019-12-18 12:14:27;40.0
2019-12-18 13:35:13;38.8
2019-12-18 14:29:04;38.0
2019-12-18 15:45:21;37.6
2019-12-18 17:06:07;37.2
2019-12-18 18:04:26;36.4
2019-12-18 19:07:15;36.0
2019-12-18 20:10:04;36.0
2019-12-18 21:03:55;35.6
2019-12-18 22:06:44;35.6
2019-12-18 23:36:27;35.2
2019-12-19 00:43:45;35.2
2019-12-19 01:37:35;35.2
2019-12-19 02:26:56;34.8
2019-12-19 03:07:18;34.8
2019-12-19 03:52:10;34.4
2019-12-19 04:32:32;34.4
2019-12-19 05:53:17;34.4
2019-12-19 07:00:34;36.4
2019-12-19 08:43:47;38.8
2019-12-19 09:19:41;38.4
2019-12-19 09:55:35;38.4
2019-12-20 08:08:31;38.4
2019-12-20 09:51:48;38.4
2019-12-20 10:41:12;36.4
2019-12-20 11:35:05;36.8
2019-12-20 21:27:43;38.0
2019-12-21 08:18:37;37.6
2019-12-22 13:40:43;36.4
2019-12-22 15:46:12;36.8
2019-12-22 22:02:34;37.2
2019-12-22 23:23:13;37.2
2019-12-24 01:39:51;37.6
2019-12-24 22:51:29;38.0
2019-12-25 12:03:53;38.4
2019-12-26 19:50:33;38.8
2019-12-27 17:23:35;38.8
2019-12-28 04:07:43;38.0
2019-12-28 10:23:23;37.6
2019-12-29 06:04:00;36.0
2019-12-29 08:13:39;35.6
2019-12-29 10:05:28;34.4
2020-02-10 15:27:20;34.4
2020-02-11 05:53:39;31.6
2020-02-11 10:23:03;37.6
2020-02-11 11:30:25;35.6
2020-02-11 11:52:52;37.6
2020-02-11 13:09:13;35.6
2020-02-11 15:28:24;33.6
2020-02-12 10:10:36;31.6
2020-02-12 10:46:31;41.2
2020-02-12 15:33:53;31.6
2020-02-12 15:38:22;34.0
2020-02-13 09:49:06;33.2
2020-02-13 16:06:22;34.0
2020-02-14 07:53:28;39.2
2020-02-14 16:07:21;34.4
2020-02-14 16:43:16;37.2
2020-02-24 06:54:05;34.4
2020-02-24 15:12:28;33.2
2020-02-25 08:02:26;31.6
2020-02-25 08:29:23;32.4
2020-02-25 11:55:52;32.4
2020-02-25 12:31:47;31.6
2020-02-26 10:49:31;40.0
2020-02-26 11:47:55;34.0
2020-02-26 12:19:21;32.0
2020-02-26 13:13:13;30.0
2020-02-26 15:05:26;30.4
2020-02-26 15:32:23;33.2
2020-02-26 15:41:21;35.2
2020-02-26 17:02:10;34.4
2020-02-26 17:51:34;33.6
2020-02-26 20:10:44;32.8
2020-02-27 00:40:05;32.4
2020-02-27 01:42:56;32.4
2020-02-27 04:37:59;32.0
2020-02-27 06:07:45;32.0
2020-02-27 06:39:11;29.2
2020-02-27 11:13:08;30.0
2020-02-27 12:20:30;31.6
2020-03-02 07:59:42;35.2
2020-03-03 15:34:46;35.6
2020-03-04 06:50:44;31.6
2020-03-04 10:12:53;36.8
2020-03-04 10:21:53;38.8
2020-03-04 13:21:37;30.4
2020-03-04 14:02:03;30.0
2020-03-04 15:22:54;30.0
2020-03-05 06:02:55;28.4
2020-03-05 08:13:13;32.4
2020-03-05 08:26:43;30.4
2020-03-05 08:49:12;28.4
2020-03-05 08:58:11;26.4
2020-03-05 10:10:07;22.8
2020-03-05 13:18:45;24.8
2020-03-05 13:41:12;26.8
2020-03-05 15:02:02;24.4
2020-03-05 15:51:26;25.6
2020-03-06 06:00:02;29.6
2020-03-06 11:54:51;34.8
2020-03-06 12:48:44;32.8
2020-03-06 14:00:35;33.6
2020-03-06 14:41:01;33.2
2020-03-06 15:57:22;32.8
2020-03-06 18:12:07;32.0
2020-03-06 19:14:59;32.0
2020-03-06 19:55:24;32.0
2020-03-06 20:35:49;32.0
2020-03-06 23:13:00;31.2
2020-03-07 00:24:52;31.2
2020-03-07 01:27:44;31.2
2020-03-07 02:30:36;31.2
2020-03-07 03:24:29;31.2
2020-03-07 05:03:16;31.2
2020-03-07 05:39:12;30.8
2020-03-07 06:24:06;30.8
2020-03-07 07:00:01;31.2
2020-03-07 07:35:57;30.8
2020-03-07 09:14:44;30.8
2020-03-07 09:59:39;30.8
2020-03-07 10:49:02;30.8
2020-03-07 11:47:26;30.4
2020-03-07 12:50:17;30.4
2020-03-07 13:26:13;30.4
2020-03-07 14:20:07;30.4
2020-03-07 15:09:31;30.4
2020-03-07 17:28:44;30.4
2020-03-07 18:40:35;30.4
2020-03-07 19:38:58;30.4
2020-03-07 20:28:22;30.4
2020-03-07 21:13:16;30.4
2020-03-07 22:11:39;30.4
2020-03-07 22:52:04;30.4
2020-03-08 01:24:44;30.4
2020-03-08 02:23:06;30.0
2020-03-08 03:03:31;30.4
2020-03-08 03:43:56;30.0
2020-03-08 04:19:51;30.0
2020-03-08 05:00:15;30.0
2020-03-08 06:12:06;30.0
2020-03-08 06:52:30;30.0
2020-03-08 08:13:20;30.0
2020-03-08 09:02:44;30.0
2020-03-08 10:14:35;29.6
2020-03-08 12:02:23;29.6
2020-03-08 12:56:17;29.6
2020-03-08 14:35:06;29.6
2020-03-08 15:29:00;29.2
2020-03-08 16:09:25;29.2
2020-03-08 16:58:49;29.6
2020-03-08 18:15:09;29.6
2020-03-08 19:09:02;29.6
2020-03-08 21:05:47;29.2
2020-03-08 21:46:12;29.2
2020-03-08 23:07:01;29.2
2020-03-09 00:14:22;28.8
2020-03-09 00:59:16;28.8
2020-03-09 02:15:35;28.8
2020-03-09 04:16:47;28.8
2020-03-09 05:06:10;28.0
2020-03-09 05:42:04;27.6
2020-03-09 06:17:58;28.4
2020-03-09 08:14:43;30.8
2020-03-09 12:17:14;35.2
2020-03-09 12:21:43;37.6
2020-03-09 13:11:07;33.6
2020-03-09 14:18:28;33.2
2020-03-09 14:58:52;35.6
2020-03-09 16:06:13;34.0
2020-03-09 16:51:07;33.6
2020-03-09 18:20:55;33.2
2020-03-09 20:44:36;32.8
2020-03-09 21:29:30;32.8
2020-03-10 05:38:49;31.2
2020-03-10 06:50:39;32.8
2020-03-10 07:04:07;35.6
2020-03-10 09:14:27;33.6
2020-03-10 11:06:49;34.4
2020-03-10 11:33:47;32.4
2020-03-10 13:03:39;32.8
2020-03-10 13:44:06;30.8
2020-03-10 15:31:54;27.6
2020-03-11 04:55:47;34.0
2020-03-11 06:57:02;37.2
2020-03-11 08:22:22;40.0
2020-03-11 13:54:48;36.8
2020-03-11 14:35:14;36.4
2020-03-11 15:15:40;37.6
2020-03-11 15:29:08;40.0
2020-03-11 16:00:37;42.8
2020-03-11 16:14:04;46.0
2020-03-11 17:30:27;42.0
2020-03-11 18:19:53;40.8
2020-03-11 21:42:07;38.0
2020-03-11 23:16:24;37.6
2020-03-11 23:56:50;37.6
2020-03-12 01:08:42;36.8
2020-03-12 02:29:34;36.4
2020-03-12 03:50:25;36.4
2020-03-12 04:57:48;36.0
2020-03-12 05:51:42;35.2
2020-03-12 06:59:05;35.6
2020-03-12 07:53:01;34.8
2020-03-12 10:03:22;36.0
2020-03-12 13:30:06;40.8
2020-03-12 14:10:33;38.8
2020-03-12 15:35:57;36.4
2020-03-13 02:00:46;36.0
2020-03-13 06:48:27;34.8
2020-03-13 10:10:45;38.4
2020-03-13 11:40:40;33.6
2020-03-16 05:05:07;26.4
2020-03-16 06:52:56;23.2
2020-03-16 07:19:55;21.2
2020-03-16 08:00:25;19.6
2020-03-16 08:58:57;19.2
2020-03-16 10:02:00;19.2
2020-03-16 10:51:32;19.6
2020-03-16 17:13:53;25.2
2020-03-17 00:34:21;26.8
2020-03-17 01:10:18;26.8
2020-03-17 02:13:13;26.8
2020-03-17 03:20:36;26.8
2020-03-17 06:24:48;26.8
2020-03-17 14:30:21;30.0
2020-03-17 14:39:20;27.6
2020-03-17 15:42:15;29.6
2020-03-17 15:51:15;31.6
2020-03-17 17:03:10;30.4
2020-03-17 17:43:37;30.0
2020-03-17 19:35:58;29.2
2020-03-17 21:59:46;29.2
2020-03-17 22:35:43;29.2
2020-03-17 23:56:35;29.2
2020-03-18 02:06:53;29.2
2020-03-18 03:00:48;28.8
2020-03-18 04:53:06;28.8
2020-03-18 06:36:26;28.0
2020-03-18 10:30:22;27.2
2020-03-18 14:33:22;28.4
2020-03-18 21:54:05;29.6
2020-03-19 06:57:55;27.2
2020-03-20 02:58:27;30.4
2020-03-20 07:41:25;28.0
2020-03-20 12:24:53;29.2
2020-03-20 13:27:50;29.2
2020-03-20 14:08:19;29.2
2020-03-20 15:06:46;29.6
2020-03-20 21:42:16;31.2
2020-03-20 22:45:10;31.2
2020-03-21 01:31:22;31.6
2020-03-21 08:37:58;32.0
2020-03-21 10:57:08;31.6
2020-03-21 13:07:19;31.6
2020-03-21 17:14:13;31.6
2020-03-21 21:21:03;31.6
2020-03-21 22:50:48;31.6
2020-03-22 00:07:05;31.6
2020-03-22 06:19:24;28.8
2020-03-22 11:15:56;28.0
2020-03-22 15:45:22;27.6
2020-03-22 16:48:12;28.0
2020-03-22 21:53:15;27.6
2020-03-22 23:54:20;27.2
2020-03-23 03:02:38;27.2
2020-03-23 03:51:57;26.8
2020-03-23 04:54:42;26.8
2020-03-23 06:42:19;24.4
2020-03-23 08:25:34;24.4
2020-03-23 15:14:01;25.2
2020-03-23 19:25:10;25.6
2020-03-23 22:15:31;25.6
2020-03-24 00:43:26;25.6
2020-03-24 01:19:18;25.6
2020-03-24 03:20:17;25.6
2020-03-24 06:32:59;24.0
2020-03-24 12:40:51;24.4
2020-03-24 14:01:35;24.8
2020-03-24 17:00:56;24.8
2020-03-24 18:35:04;25.2
2020-03-24 19:42:18;25.2
2020-03-24 21:02:57;25.6
2020-03-24 22:01:12;25.6
2020-03-25 00:38:00;25.6
2020-03-25 02:56:51;25.6
2020-03-25 03:59:33;25.6
2020-03-25 05:06:43;25.2
2020-03-25 05:51:30;24.4
2020-03-25 06:18:24;24.0
2020-03-25 06:40:48;23.6
2020-03-25 07:21:08;24.0
2020-03-25 09:40:04;23.2
2020-03-25 11:05:13;23.2
2020-03-25 12:07:57;22.4
2020-03-25 12:43:48;22.4
2020-03-25 14:58:12;22.4
2020-03-25 15:51:57;22.4
2020-03-25 16:45:41;22.8
2020-03-25 18:15:14;23.2
2020-03-25 19:00:01;23.6
2020-03-25 20:34:02;24.0
2020-03-25 21:41:11;24.4
2020-03-25 22:57:16;24.4
2020-03-25 23:42:02;24.4
2020-03-26 01:38:24;24.8
2020-03-26 02:23:09;24.8
2020-03-26 04:50:49;25.2
2020-03-26 05:35:33;24.8
2020-03-26 08:07:40;25.2
2020-03-26 09:55:03;25.2
2020-03-26 10:48:47;24.8
2020-03-26 12:09:18;24.4
2020-03-26 12:49:34;24.0
2020-03-26 13:52:14;24.0
2020-03-26 14:45:56;24.4
2020-03-26 15:21:44;24.4
2020-03-26 16:37:48;24.8
2020-03-26 17:31:30;24.8
2020-03-26 20:52:50;25.2
2020-03-26 22:44:41;25.6
2020-03-27 01:03:23;25.6
2020-03-27 01:57:04;26.0
2020-03-27 02:41:48;26.0
2020-03-27 03:26:33;26.0
2020-03-27 04:24:42;26.0
2020-03-27 05:45:13;26.0
2020-03-27 06:16:33;25.6
2020-03-27 06:47:53;25.2
2020-03-27 08:17:26;25.2
2020-03-27 08:53:16;25.2
2020-03-27 10:45:18;25.6
2020-03-27 11:34:35;25.6
2020-03-27 13:31:04;25.6
2020-03-27 14:51:41;26.0
2020-03-27 16:34:42;26.4
2020-03-27 17:37:24;26.4
2020-03-27 18:22:10;26.4
2020-03-27 19:06:57;26.4
2020-03-27 20:05:09;26.8
2020-03-27 20:45:27;26.8
2020-03-27 22:06:02;26.8
2020-03-27 23:04:14;26.8
2020-03-28 03:28:20;27.6
2020-03-28 04:17:34;27.6
2020-03-28 05:02:19;28.0
2020-03-28 05:42:36;27.6
2020-03-28 06:09:28;27.2
2020-03-28 06:31:51;26.4
2020-03-28 07:48:00;25.6
2020-03-28 09:44:36;26.0
2020-03-28 10:47:24;26.4
2020-03-28 15:47:46;27.2
2020-03-28 16:41:33;27.2
2020-03-28 18:47:02;28.0
2020-03-28 21:19:22;28.4
2020-03-28 22:17:36;28.8
2020-03-28 22:57:55;28.8
2020-03-29 00:14:03;28.8
2020-03-29 01:21:15;29.2
2020-03-29 02:06:02;29.2
2020-03-29 04:02:29;29.6
2020-03-29 05:36:32;29.2
2020-03-29 06:12:22;28.8
2020-03-29 07:55:24;28.8
2020-03-29 08:40:12;28.8
2020-03-29 11:26:02;28.4
2020-03-29 12:01:53;28.4
2020-03-29 13:58:24;28.4
2020-03-29 14:56:40;28.8
2020-03-29 15:41:28;28.8
2020-03-29 17:33:29;28.8
2020-03-29 18:09:20;28.8
2020-03-29 19:16:31;28.8
2020-03-29 20:05:48;28.8
2020-03-29 22:47:03;28.8
2020-03-30 01:41:44;29.2
2020-03-30 03:02:21;29.2
2020-03-30 04:49:49;29.2
2020-03-30 05:25:38;29.2
2020-03-30 06:46:14;29.2
2020-03-30 08:02:21;28.8
2020-03-30 09:14:00;28.8
2020-03-30 12:22:06;28.0
2020-03-30 14:27:31;27.6
2020-03-30 15:16:48;27.6
2020-03-30 15:52:38;27.6
2020-03-30 17:13:15;27.6
2020-03-30 19:00:44;28.0
2020-03-30 20:21:20;28.0
2020-03-30 22:08:47;28.4
2020-03-30 22:53:33;28.0
2020-03-31 00:54:24;28.0
2020-03-31 01:48:07;28.0
2020-03-31 03:40:01;28.0
2020-03-31 04:56:05;27.6
2020-03-31 05:13:59;25.6
2020-03-31 05:27:25;26.4
2020-03-31 07:28:17;26.4
2020-03-31 09:02:20;25.2
2020-03-31 10:36:28;26.4
2020-03-31 11:34:43;26.4
2020-03-31 12:28:29;26.4
2020-03-31 13:35:42;26.4
2020-03-31 14:29:27;26.8
2020-03-31 15:32:09;26.8
2020-03-31 16:34:51;27.2
2020-03-31 17:24:07;27.2
2020-03-31 18:13:22;27.6
2020-03-31 20:23:12;27.6
2020-03-31 23:04:22;28.0
2020-04-01 00:20:27;28.0
2020-04-01 02:30:15;28.0
2020-04-01 04:31:05;28.0
2020-04-01 06:05:04;26.0
2020-04-01 06:58:48;25.2
2020-04-01 07:34:38;25.2
2020-04-01 08:41:53;24.8
2020-04-01 09:40:12;26.0
2020-04-01 10:38:29;26.4
2020-04-01 11:18:50;26.4
2020-04-01 13:15:20;26.0
2020-04-01 13:55:40;26.0
2020-04-01 17:03:49;26.4
2020-04-01 18:11:00;26.8
2020-04-01 21:23:32;27.2
2020-04-01 22:21:44;27.2
2020-04-02 01:16:18;27.2
2020-04-02 02:05:32;27.2
2020-04-02 03:21:37;26.8
2020-04-02 04:10:51;26.8
2020-04-02 05:13:29;26.4
2020-04-02 06:56:27;24.0
2020-04-02 07:45:45;24.0
2020-04-02 08:57:30;24.4
2020-04-02 10:36:12;25.6
2020-04-02 13:26:32;25.6
2020-04-02 14:42:44;25.6
2020-04-02 15:58:54;25.6
2020-04-02 17:01:38;26.0
2020-04-02 19:16:01;26.4
2020-04-02 21:39:20;26.8
2020-04-02 22:55:27;26.8
2020-04-02 23:44:42;26.8
2020-04-03 01:41:07;26.8
2020-04-03 02:48:15;26.8
2020-04-03 03:24:03;26.8
2020-04-03 04:40:08;27.2
2020-04-03 05:02:31;26.0
2020-04-03 06:09:41;26.0
2020-04-03 06:36:32;25.6
2020-04-03 07:03:24;25.2
2020-04-03 08:19:34;24.4
2020-04-03 08:59:55;24.4
2020-04-03 11:01:01;25.6
2020-04-03 12:39:39;25.6
2020-04-03 13:51:22;26.0
2020-04-03 15:12:02;26.0
2020-04-03 15:52:22;26.0
2020-04-03 16:50:38;26.4
2020-04-03 17:39:55;26.4
2020-04-03 19:00:33;26.8
2020-04-03 20:12:13;27.2
2020-04-03 20:48:03;27.2
2020-04-03 22:44:30;27.2
2020-04-04 04:02:26;28.0
2020-04-04 04:42:44;28.4
2020-04-04 06:03:20;28.0
2020-04-04 08:44:32;26.4
2020-04-04 12:19:41;28.0
2020-04-04 15:59:14;28.0
2020-04-04 20:50:24;28.8
2020-04-04 23:00:16;29.2
2020-04-05 03:11:00;29.2
2020-04-05 04:00:15;29.2
2020-04-05 04:36:04;29.2
2020-04-05 08:11:06;25.6
2020-04-05 10:34:43;26.0
2020-04-05 13:34:07;26.0
2020-04-05 14:54:49;26.0
2020-04-05 15:48:37;26.0
2020-04-05 17:40:41;26.0
2020-04-05 18:25:30;26.4
2020-04-05 19:01:21;26.4
2020-04-05 19:55:07;26.4
2020-04-05 20:53:22;26.4
2020-04-05 21:29:15;26.4
2020-04-05 22:40:54;26.4
2020-04-05 23:21:13;26.4
2020-04-06 01:13:13;26.8
2020-04-06 02:15:56;26.8
2020-04-06 02:56:15;26.8
2020-04-06 05:33:01;25.6
2020-04-06 06:04:23;25.2
2020-04-06 06:31:16;24.4
2020-04-06 07:11:38;24.0
2020-04-06 08:05:28;24.0
2020-04-06 09:03:51;24.0
2020-04-06 11:32:02;26.0
2020-04-06 12:52:49;26.0
2020-04-06 14:09:06;26.0
2020-04-06 15:07:26;26.0
2020-04-06 16:28:12;26.0
2020-04-06 17:48:56;26.4
2020-04-06 18:56:13;26.8
2020-04-06 20:03:29;27.2
2020-04-06 21:37:39;27.2
2020-04-06 22:18:00;27.6
2020-04-06 23:29:44;27.6
2020-04-07 00:28:01;28.0
2020-04-07 02:46:58;28.0
2020-04-07 04:03:10;28.0
2020-04-07 04:52:28;27.2
2020-04-07 05:41:46;26.4
2020-04-07 06:17:38;26.0
2020-04-07 06:40:04;25.6
2020-04-07 07:15:58;25.2
2020-04-07 08:14:21;25.2
2020-04-07 09:12:47;25.6
2020-04-07 11:09:38;26.8
2020-04-07 12:30:28;27.2
2020-05-15 17:53:17;34.8
2020-05-15 22:13:43;34.8
2020-05-15 23:30:03;34.8
2020-05-16 00:46:22;34.8
2020-05-16 01:40:14;34.8
2020-05-16 02:34:06;34.8
2020-05-16 03:18:59;34.8
2020-05-16 04:35:17;34.8
2020-05-16 05:33:38;33.6
2020-05-16 05:56:04;32.8
2020-05-16 06:18:31;31.6
2020-05-16 06:45:28;30.8
2020-05-16 07:12:25;30.4
2020-05-16 08:24:23;30.4
2020-05-16 09:04:53;30.8
2020-05-16 10:07:53;31.2
2020-05-16 10:57:22;31.6
2020-05-16 12:09:19;32.0
2020-05-16 13:03:17;32.0
2020-05-16 13:39:17;32.0
2020-05-16 14:42:12;31.6
2020-05-16 15:54:08;32.0
2020-05-16 17:46:30;32.0
2020-05-16 18:35:57;32.4
2020-05-16 19:38:51;32.8
2020-05-16 20:41:45;32.8
2020-05-16 21:17:42;32.8
2020-05-16 22:29:35;33.2
2020-05-16 23:32:28;33.2
2020-05-17 00:53:19;33.6
2020-05-17 02:00:42;34.0
2020-05-17 02:41:08;34.0
2020-05-17 03:21:33;34.0
2020-05-17 03:57:29;34.0
2020-05-17 05:04:51;34.0
2020-05-17 05:40:47;33.6
2020-05-17 06:30:12;33.6
2020-05-17 07:19:36;32.8
2020-05-17 08:00:03;32.0
2020-05-17 08:36:02;31.2
2020-05-17 09:52:32;31.6
2020-05-17 11:09:01;32.4
2020-05-17 12:12:00;32.4
2020-05-17 13:01:28;32.4
2020-05-17 14:17:56;32.4
2020-05-17 15:29:54;32.4
2020-05-17 16:23:52;32.8
2020-05-17 17:40:19;33.2
2020-05-17 18:52:16;33.2
2020-05-17 22:36:59;34.0
2020-05-17 23:30:54;34.0
2020-05-18 01:32:13;34.0
2020-05-18 04:49:54;33.6
2020-05-18 05:25:51;31.6
2020-05-18 05:48:19;30.4
2020-05-18 06:10:47;32.8
2020-05-18 06:33:16;35.2
2020-05-18 07:36:13;35.2
2020-05-18 08:34:41;35.6
2020-05-18 09:15:09;36.8
2020-05-18 10:04:37;34.8
2020-05-18 10:45:06;32.4
2020-05-18 11:03:05;30.4
2020-05-18 12:06:03;31.6
2020-05-18 12:55:31;30.8
2020-05-18 13:31:30;30.4
2020-05-18 14:16:29;30.4
2020-05-18 15:23:57;31.2
2020-05-18 16:26:57;31.2
2020-05-18 17:02:56;31.2
2020-05-18 17:38:55;31.6
2020-05-18 18:37:24;32.4
2020-05-18 19:31:22;32.8
2020-05-18 20:47:49;33.2
2020-05-18 21:50:47;33.6
2020-05-18 22:31:15;33.6
2020-05-18 23:34:12;33.6
2020-05-19 00:32:39;33.6
2020-05-19 01:17:37;33.6
2020-05-19 02:02:34;33.6
2020-05-19 03:10:00;33.6
2020-05-19 04:21:56;33.2
2020-05-19 05:06:53;33.2
2020-05-19 06:18:49;33.2
2020-05-19 07:08:18;32.4
2020-05-19 08:15:48;32.8
2020-05-19 09:27:49;33.6
2020-05-19 10:08:20;34.0
2020-05-19 11:20:19;34.0
2020-05-19 11:42:49;36.0
2020-05-19 12:54:49;36.4
2020-05-19 13:53:18;35.6
2020-05-19 14:42:47;34.8
2020-05-19 15:27:47;34.8
2020-05-19 16:08:17;34.8
2020-05-19 16:53:16;35.2
2020-05-19 17:29:15;35.2
2020-05-19 18:27:44;35.6
2020-05-19 19:21:43;35.6
2020-05-19 20:42:41;36.0
2020-05-19 21:54:39;36.4
2020-05-19 22:48:38;36.4
2020-05-19 23:56:06;36.8
2020-05-20 01:03:34;36.8
2020-05-20 01:48:33;36.4
2020-05-20 02:33:31;36.4
2020-05-20 03:09:30;36.4
2020-05-20 04:25:57;36.4
2020-05-20 05:46:55;36.8
2020-05-20 07:52:51;37.6
2020-05-20 09:00:20;37.2
2020-05-20 10:16:47;37.2
2020-05-20 11:55:45;42.4
2020-05-20 12:31:44;40.4
2020-05-20 13:21:13;39.6
2020-05-20 14:01:42;38.8
2020-05-20 15:22:41;38.8
2020-05-20 16:12:10;38.8
2020-05-20 17:10:39;38.4
2020-05-20 18:09:08;38.4
2020-05-20 18:49:38;38.0
2020-05-20 19:25:37;38.0
2020-05-20 20:06:06;38.0
2020-05-20 20:46:35;37.6
2020-05-20 21:49:33;37.6
2020-05-20 22:43:32;37.6
2020-05-20 23:24:00;37.6
2020-05-21 00:08:59;37.2
2020-05-21 01:29:56;37.2
2020-05-21 02:32:54;36.8
2020-05-21 03:31:22;36.8
2020-05-21 04:11:50;36.8
2020-05-21 04:47:49;36.8
2020-05-21 06:08:46;36.8
2020-05-21 06:53:44;36.0
2020-05-21 07:43:14;35.2
2020-05-21 08:59:46;34.8
2020-05-21 09:49:17;35.2
2020-05-21 11:10:17;35.2
2020-05-21 12:08:48;35.2
2020-05-21 13:16:18;34.8
2020-05-21 14:23:49;34.8
2020-05-21 15:04:19;34.8
2020-05-21 15:49:19;34.8
2020-05-21 16:25:20;34.8
2020-05-21 17:14:50;35.2
2020-05-21 18:04:20;35.2
2020-05-21 18:44:50;35.2
2020-05-21 20:05:49;35.6
2020-05-21 20:46:19;35.2
2020-05-21 21:26:48;35.2
2020-05-21 22:07:19;35.2
2020-05-21 23:19:16;34.8
2020-05-22 00:17:45;34.4
2020-05-22 00:58:14;34.0
2020-05-22 01:43:13;33.6
2020-05-22 02:41:41;33.2
2020-05-22 03:35:39;32.8
2020-05-22 04:29:38;32.4
2020-05-22 05:19:06;32.0
2020-05-22 07:29:32;30.0
2020-05-22 08:14:32;30.0
2020-05-22 08:50:31;30.0
2020-05-22 09:58:01;30.4
2020-05-22 10:34:01;30.4
2020-05-22 11:14:30;30.4
2020-05-22 11:55:00;32.8
2020-05-22 12:17:30;30.8
2020-05-22 13:02:30;30.0
2020-05-22 14:10:00;30.8
2020-05-22 15:26:31;31.6
2020-05-22 16:38:31;32.0
2020-05-22 17:55:01;32.4
2020-05-22 18:35:31;32.8
2020-05-22 19:11:31;33.2
2020-05-22 19:47:30;33.2
2020-05-22 20:28:00;33.6
2020-05-22 21:35:30;34.0
2020-05-22 22:42:59;34.4
2020-05-22 23:45:59;35.2
2020-05-23 00:39:58;35.6
2020-05-23 01:20:28;36.0
2020-05-23 02:14:27;36.4
2020-05-23 02:54:56;36.8
2020-05-23 04:11:25;37.2
2020-05-23 05:27:54;37.2
2020-05-23 06:48:54;37.6
2020-05-23 07:51:54;37.6
2020-05-23 09:12:54;38.0
2020-05-23 10:15:54;38.0
2020-05-23 11:23:24;38.0
2020-05-23 12:39:55;38.0
2020-05-23 14:00:56;38.0
2020-05-23 14:59:27;37.6
2020-05-23 15:48:58;38.0
2020-05-23 16:24:59;38.8
2020-05-23 17:37:00;40.0
2020-05-23 18:49:01;40.4
2020-05-23 20:01:00;40.0
2020-05-23 20:55:00;39.6
2020-05-23 21:44:30;38.8
2020-05-23 22:52:00;38.4
2020-05-23 23:50:29;38.4
2020-05-24 00:35:29;38.4
2020-05-24 01:20:28;38.0
2020-05-24 02:36:57;37.6
2020-05-24 03:39:56;37.2
2020-05-24 04:51:55;36.8
2020-05-24 05:36:54;36.8
2020-05-24 06:17:24;36.4
2020-05-24 07:29:22;36.0
2020-05-24 08:41:20;36.0
2020-05-24 09:30:49;35.6
2020-05-24 10:24:48;35.2
2020-05-24 11:05:18;35.2
2020-05-24 12:03:47;34.8
2020-05-24 12:57:47;34.0
2020-05-24 13:47:16;34.4
2020-05-24 14:41:15;34.8
2020-05-24 15:30:45;34.8
2020-05-24 16:38:14;34.8
2020-05-24 17:36:43;34.8
2020-05-24 18:17:12;34.8
2020-05-24 19:24:41;34.0
2020-05-24 20:18:40;34.0
2020-05-24 20:54:39;34.4
2020-05-24 22:15:36;34.4
2020-05-24 23:05:05;34.8
2020-05-25 00:57:31;35.2
2020-05-25 02:04:58;35.6
2020-05-25 03:07:56;35.6
2020-05-25 04:15:24;36.0
2020-05-25 05:09:21;36.4
2020-05-25 06:07:48;36.8
2020-05-25 06:52:47;37.6
2020-05-25 07:46:44;38.0
2020-05-25 08:45:12;38.4
2020-05-25 09:48:11;37.6
2020-05-25 10:55:40;38.0
2020-05-25 11:58:39;40.8
2020-05-25 13:01:37;40.0
2020-05-25 14:18:05;39.2
2020-05-25 14:54:03;39.6
2020-05-25 15:34:32;40.4
2020-05-25 16:19:30;40.4
2020-05-25 16:59:59;40.0
2020-05-25 18:20:55;39.6
2020-05-25 19:23:52;39.2
2020-05-25 20:04:20;39.2
2020-05-25 20:44:48;39.2
2020-05-25 21:25:16;39.2
2020-05-25 22:32:43;38.8
2020-05-25 23:22:10;38.4
2020-05-26 00:11:37;38.4
2020-05-26 00:52:05;38.0
2020-05-26 03:15:56;38.0
2020-05-26 04:09:53;38.0
2020-05-26 04:54:50;38.0
2020-05-26 05:57:46;39.2
2020-05-26 06:47:14;40.8
2020-05-26 08:26:08;39.2
2020-05-26 10:05:04;36.8
2020-05-26 12:10:59;39.2
2020-05-26 13:13:56;38.4
2020-05-26 14:07:54;37.6
2020-05-26 15:28:50;38.0
2020-05-26 16:09:18;38.4
2020-05-26 16:49:45;38.0
2020-05-26 18:06:11;38.4
2020-05-26 18:42:09;38.4
2020-05-26 19:18:07;38.4
2020-05-26 20:39:02;38.4
2020-05-26 21:41:58;38.4
2020-05-26 22:31:25;38.4
2020-05-26 23:07:22;38.4
2020-05-27 00:10:17;38.4
2020-05-27 01:17:42;38.0
2020-05-27 01:58:09;38.0
2020-05-27 02:38:36;38.0
2020-05-27 03:14:33;37.6
2020-05-27 04:30:56;37.6
2020-05-27 05:38:21;36.8
2020-05-27 06:18:48;36.0
2020-05-27 07:03:47;34.8
2020-05-27 08:51:47;34.4
2020-05-27 09:50:16;35.2
2020-05-27 11:11:15;35.6
2020-05-27 11:33:44;37.6
2020-05-27 12:14:14;37.2
2020-05-27 13:21:42;36.0
2020-05-27 14:02:10;35.2
2020-05-27 14:47:09;34.8
2020-05-27 15:59:08;35.2
2020-05-27 16:57:36;35.2
2020-05-27 17:51:34;35.6
2020-05-27 19:12:32;36.0
2020-05-27 19:48:30;36.0
2020-05-27 21:04:57;36.4
2020-05-27 21:40:55;36.4
2020-05-27 23:01:51;36.8
2020-05-27 23:51:18;36.8
2020-05-28 01:07:43;36.4
2020-05-28 02:15:10;36.4
2020-05-28 03:09:06;36.4
2020-05-28 03:58:32;36.0
2020-05-28 04:34:30;36.0
2020-05-28 05:10:27;36.0
2020-05-28 05:55:24;36.4
2020-05-28 06:17:53;38.4
2020-05-28 07:43:18;40.8
2020-05-28 10:02:38;43.2
2020-05-28 11:10:03;42.8
2020-05-28 11:50:30;42.4
2020-05-28 12:08:29;45.6
2020-05-28 12:44:27;43.6
2020-05-28 13:42:54;41.6
2020-05-28 14:59:20;40.8
2020-05-28 16:20:15;40.0
2020-05-28 17:32:11;39.2
2020-05-28 18:08:09;38.8
2020-05-28 19:15:35;38.8
2020-05-28 20:00:32;38.4
2020-05-28 21:21:26;38.4
2020-05-28 22:15:22;38.4
2020-05-28 23:13:48;38.4
2020-05-29 00:39:11;38.4
2020-05-29 01:42:06;38.4
2020-05-29 03:03:00;38.4
2020-05-29 03:56:55;38.4
2020-05-29 04:37:22;38.0
2020-05-29 05:22:18;38.4
2020-05-29 06:07:14;38.4
2020-05-29 06:52:10;38.8
2020-05-29 07:37:06;38.8
2020-05-29 08:58:00;38.8
2020-05-29 09:51:55;38.8
2020-05-29 11:57:44;38.8
2020-05-30 09:18:17;38.4
2020-05-31 10:23:16;37.6
2020-06-01 04:25:37;40.0
2020-06-01 19:55:37;42.4
2020-06-01 20:54:01;42.4
2020-06-02 01:54:58;41.6
2020-06-02 05:39:33;37.6
2020-06-02 06:24:29;35.6
2020-06-02 06:46:58;34.8
2020-06-03 05:25:05;39.2
2020-06-03 05:38:34;38.4
2020-06-03 06:50:31;39.6
2020-06-03 09:50:28;42.4
2020-06-03 11:42:56;43.6
2020-06-03 12:18:54;45.6
2020-06-03 13:26:22;45.6
2020-06-03 14:33:50;46.4
2020-06-03 15:09:48;46.4
2020-06-03 15:54:47;47.2
2020-06-03 17:15:45;45.6
2020-06-03 18:27:42;43.6
2020-06-03 19:48:39;42.8
2020-06-03 21:00:35;42.4
2020-06-03 23:06:28;41.6
2020-06-03 23:42:26;41.6
2020-06-04 00:45:22;41.2
2020-06-04 01:43:49;40.8
2020-06-04 03:45:11;40.8
2020-06-04 05:01:36;40.8
2020-06-04 06:13:32;40.8
2020-06-04 06:53:59;40.8
2020-06-04 07:47:56;41.2
2020-06-04 09:04:22;41.6
2020-06-04 09:58:20;40.8
2020-06-04 10:43:19;40.4
2020-06-04 11:32:47;41.2
2020-06-04 12:35:45;41.6
2020-06-04 12:58:15;43.6
2020-06-04 14:14:42;42.8
2020-06-04 15:13:11;42.4
2020-06-04 16:34:09;42.4
2020-06-04 17:46:07;42.8
2020-06-04 18:40:06;43.6
2020-06-04 19:38:34;43.6
2020-06-04 20:50:32;43.6
2020-06-04 21:53:29;43.6
2020-06-04 22:56:27;43.6
2020-06-04 23:45:55;43.6
2020-06-05 00:35:23;43.6
2020-06-05 01:15:52;43.6
2020-06-05 02:32:19;43.6
2020-06-05 05:00:42;43.2
2020-06-05 05:59:09;45.2
2020-06-05 07:11:07;49.2
2020-06-05 07:42:36;47.2
2020-06-05 08:00:36;45.2
2020-06-05 10:20:02;45.6
2020-06-05 11:41:00;45.2
2020-06-05 11:49:59;48.8
2020-06-05 12:25:58;46.8
2020-06-05 13:24:26;44.8
2020-06-05 14:36:25;44.4
2020-06-05 15:25:54;44.0
2020-06-05 16:37:53;43.6
2020-06-05 17:22:52;43.6
2020-06-05 18:07:51;43.6
2020-06-05 19:19:49;44.0
2020-06-05 20:04:48;44.0
2020-06-05 21:16:45;43.6
2020-06-05 22:10:43;43.6
2020-06-05 23:22:40;43.6
2020-06-06 00:34:37;43.6
2020-06-06 01:51:03;43.6
2020-06-06 02:45:01;43.6
2020-06-06 03:20:59;43.2
2020-06-06 03:56:59;43.2
2020-06-06 04:32:55;43.2
2020-06-06 05:08:54;42.8
2020-06-06 05:40:22;42.0
2020-06-06 06:20:50;40.8
2020-06-06 07:37:20;41.2
2020-06-06 08:26:51;41.2
2020-06-06 09:07:21;41.6
2020-06-06 10:05:51;41.2
2020-06-06 11:08:51;40.8
2020-06-06 11:49:22;40.8
2020-06-06 12:25:22;40.8
2020-06-06 13:05:52;40.8
2020-06-06 14:26:53;40.8
2020-06-06 15:38:54;40.8
2020-06-06 16:23:55;40.8
2020-06-06 17:26:56;41.2
2020-06-06 18:02:57;41.6
2020-06-06 18:52:28;41.6
2020-06-06 20:13:28;42.0
2020-06-06 21:02:58;42.0
2020-06-06 21:43:28;42.0
2020-06-06 22:50:58;42.4
2020-06-06 23:53:58;42.8
2020-06-07 00:52:27;43.2
2020-06-07 01:37:27;43.2
2020-06-07 02:58:26;43.2
2020-06-07 04:05:55;43.2
2020-06-07 05:17:54;43.2
2020-06-07 05:49:23;42.0
2020-06-07 06:11:53;41.2
2020-06-07 06:52:23;39.6
2020-06-07 07:50:58;39.2
2020-06-07 08:31:32;39.2
2020-06-07 09:30:08;39.2
2020-06-07 10:37:44;40.0
2020-06-07 11:54:20;40.8
2020-06-07 12:39:23;40.8
2020-06-07 13:33:26;40.8
2020-06-07 14:45:30;41.6
2020-06-07 15:39:32;42.4
2020-06-07 16:51:34;42.4
2020-06-07 18:12:36;42.4
2020-06-07 18:48:36;42.4
2020-06-07 20:00:37;42.4
2020-06-07 20:59:08;42.0
2020-06-07 21:39:39;42.0
2020-06-07 22:56:09;41.6
2020-06-07 23:50:09;41.6
2020-06-08 00:39:39;41.2
2020-06-08 01:15:39;41.2
2020-06-08 02:36:38;40.8
2020-06-08 03:57:37;40.8
2020-06-08 04:51:37;40.8
2020-06-08 05:45:36;40.8
2020-06-08 06:35:06;40.0
2020-06-08 07:11:05;40.0
2020-06-08 07:47:04;39.6
2020-06-08 08:23:04;40.0
2020-06-08 08:59:04;40.0
2020-06-08 09:53:03;39.6
2020-06-08 10:38:02;39.6
2020-06-08 11:36:32;40.4
2020-06-08 12:26:01;40.4
2020-06-08 13:38:01;41.2
2020-06-08 14:54:31;40.8
2020-06-08 16:02:01;41.6
2020-06-08 16:51:30;41.6
2020-06-08 17:41:00;41.6
2020-06-08 18:17:00;41.6
2020-06-08 19:28:59;41.6
2020-06-08 20:36:28;42.0
2020-06-08 21:21:27;42.0
2020-06-08 22:01:56;42.0
2020-06-08 23:22:54;42.0
2020-06-09 00:39:23;42.0
2020-06-09 01:33:21;42.0
2020-06-09 02:22:50;42.4
2020-06-09 03:21:18;42.4
2020-06-09 03:57:17;42.4
2020-06-09 05:13:45;42.4
2020-06-09 05:49:44;43.2
2020-06-09 06:12:14;45.2
2020-06-09 09:03:09;43.6
2020-06-09 10:01:38;44.4
2020-06-09 11:18:06;44.0
2020-06-09 12:21:05;44.4
2020-06-09 13:24:04;45.2
2020-06-09 14:18:03;45.6
2020-06-09 15:25:32;46.0
2020-06-09 16:28:31;46.0
2020-06-09 17:04:30;46.0
2020-06-09 17:40:29;46.0
2020-06-09 19:01:27;45.6
2020-06-09 20:04:26;45.6
2020-06-09 21:07:24;45.6
2020-06-09 22:55:21;45.6
2020-06-10 00:02:48;45.6
2020-06-10 01:05:46;45.6
2020-06-10 02:04:14;45.6
2020-06-10 02:49:13;45.6
2020-06-10 03:38:41;45.6
2020-06-10 04:32:38;45.6
2020-06-10 05:13:07;45.6
2020-06-10 06:29:34;46.4
2020-06-10 07:37:01;47.2
2020-06-10 08:12:59;47.6
2020-06-10 08:48:58;48.0
2020-06-10 10:00:55;48.0
2020-06-10 11:39:51;48.4
2020-06-10 12:11:20;50.8
2020-06-10 13:00:48;49.6
2020-06-10 14:08:16;48.8
2020-06-10 15:15:44;48.8
2020-06-10 16:00:42;48.4
2020-06-10 17:12:40;48.4
2020-06-10 18:11:08;48.4
2020-06-10 19:00:36;48.0
2020-06-10 19:50:04;48.0
2020-06-10 21:02:01;47.6
2020-06-10 21:51:28;47.6
2020-06-10 23:30:23;46.8
2020-06-11 00:19:51;46.8
2020-06-11 01:00:19;46.8
2020-06-11 02:12:15;46.4
2020-06-11 05:25:35;46.0
2020-06-11 07:22:29;45.6
2020-06-11 08:07:27;45.6
2020-06-11 09:10:25;44.0
2020-06-11 10:17:55;44.4
2020-06-11 11:16:25;44.0
2020-06-11 12:32:54;43.6
2020-06-11 13:22:23;43.6
2020-06-11 14:25:23;44.0
2020-06-11 15:01:23;44.0
2020-06-11 15:46:23;43.6
2020-06-11 16:49:23;43.6
2020-06-11 18:01:25;44.0
2020-06-11 19:13:23;44.4
2020-06-11 19:53:52;44.8
2020-06-11 20:52:21;45.2
2020-06-11 21:46:20;45.6
2020-06-11 23:52:17;45.2
2020-06-12 00:46:15;45.2
2020-06-12 02:07:13;44.8
2020-06-12 03:14:40;44.4
2020-06-12 05:16:06;43.6
2020-06-12 05:56:34;43.2
2020-06-12 08:20:31;42.4
2020-06-12 09:14:31;40.0
2020-06-12 09:32:31;37.2
2020-06-12 10:22:00;39.2
2020-06-12 11:33:58;38.4
2020-06-12 11:56:28;40.4
2020-06-12 13:08:27;39.2
2020-06-12 13:48:57;38.8
2020-06-12 15:09:58;39.6
2020-06-12 16:17:28;40.8
2020-06-12 17:38:30;42.0
2020-06-12 18:41:30;42.8
2020-06-12 20:02:31;43.2
2020-06-12 21:10:01;44.0
2020-06-12 21:55:01;44.0
2020-06-12 22:53:31;44.8
2020-06-12 23:34:01;45.2
2020-06-13 00:10:01;45.2
2020-06-13 00:46:00;45.2
2020-06-13 02:07:00;45.2
2020-06-13 03:14:30;45.6
2020-06-13 04:26:29;45.2
2020-06-13 05:24:59;45.2
2020-06-13 06:45:59;44.8
2020-06-13 07:53:30;45.2
2020-06-13 08:47:31;45.6
2020-06-13 09:28:02;46.4
2020-06-13 10:04:03;46.0
2020-06-13 11:25:06;45.6
2020-06-13 12:23:38;44.8
2020-06-13 13:31:10;44.0
2020-06-13 14:16:12;43.6
2020-06-13 15:23:45;42.0
2020-06-13 16:31:19;42.8
2020-06-13 17:38:53;44.4
2020-06-13 18:41:56;45.2
2020-06-13 19:58:30;45.6
2020-06-13 20:43:32;45.6
2020-06-13 21:28:33;46.0
2020-06-13 22:09:05;46.0
2020-06-13 22:54:07;46.4
2020-06-13 23:52:39;46.8
2020-06-14 01:00:11;46.8
2020-06-14 01:40:43;46.8
2020-06-14 02:30:14;46.8
2020-06-14 03:51:17;46.8
2020-06-14 04:31:48;46.4
2020-06-14 05:07:49;46.4
2020-06-14 05:48:21;46.0
2020-06-14 07:04:54;45.6
2020-06-14 08:12:25;45.6
2020-06-14 09:28:57;45.6
2020-06-14 10:31:59;45.6
2020-06-14 11:35:01;46.0
2020-06-14 12:42:34;46.4
2020-06-14 13:41:05;46.4
2020-06-14 14:21:36;46.4
2020-06-14 15:11:08;46.4
2020-06-14 15:51:39;46.8
2020-06-14 16:41:10;46.8
2020-06-14 18:02:12;46.8
2020-06-14 19:05:13;46.8
2020-06-14 20:17:15;46.4
2020-06-14 21:20:16;46.4
2020-06-14 22:14:17;46.4
2020-06-14 23:03:48;46.4
2020-06-14 23:39:49;46.0
2020-06-15 00:15:49;46.0
2020-06-15 00:51:49;46.0
2020-06-15 02:03:50;46.0
2020-06-15 02:39:51;45.6
2020-06-15 03:47:21;45.6
2020-06-15 04:45:51;45.6
2020-06-15 05:35:22;45.6
2020-06-15 06:11:22;46.4
2020-06-15 08:03:52;47.2
2020-06-15 09:11:21;48.4
2020-06-15 11:21:46;49.2
2020-06-15 12:38:14;48.8
2020-06-15 13:41:14;48.4
2020-06-15 14:44:13;48.8
2020-06-15 16:00:42;48.4
2020-06-15 17:12:41;48.4
2020-06-15 18:15:40;48.0
2020-06-15 19:27:39;48.0
2020-06-15 20:12:39;48.0
2020-06-15 20:48:38;48.0
2020-06-15 21:29:07;48.0
2020-06-15 22:14:07;48.0
2020-06-15 23:26:05;47.6
2020-06-16 00:47:04;47.6
2020-06-16 02:03:32;47.6
2020-06-16 03:02:01;47.6
2020-06-16 04:05:00;47.6
2020-06-16 04:58:58;47.6
2020-06-16 06:15:27;48.0
2020-06-16 07:22:55;48.4
2020-06-16 08:21:24;48.4
2020-06-16 09:19:53;48.8
2020-06-16 10:40:53;49.2
2020-06-16 14:16:54;48.0
2020-06-16 15:33:24;47.6
2020-06-16 16:36:25;47.6
2020-06-16 17:39:25;48.0
2020-06-16 19:00:25;48.4
2020-06-16 19:58:54;48.4
2020-06-16 21:19:53;48.8
2020-06-16 22:36:22;48.8
2020-06-17 00:33:20;48.8
2020-06-17 01:22:49;48.8
2020-06-17 02:16:48;48.8
2020-06-17 02:52:47;48.8
2020-06-17 03:28:47;48.8
2020-06-17 04:45:15;48.8
2020-06-17 06:01:44;50.8
2020-06-17 10:31:40;48.8
2020-06-17 11:12:10;48.8
2020-06-17 12:19:41;50.0
2020-06-17 12:51:11;52.4
2020-06-17 13:49:41;51.2
2020-06-17 14:48:12;49.6
2020-06-17 16:00:13;48.4
2020-06-17 17:07:44;47.6
2020-06-17 18:24:16;48.0
2020-06-17 19:04:46;48.4
2020-06-17 20:16:46;48.8
2020-06-17 21:01:47;49.2
2020-06-17 21:42:17;49.2
2020-06-17 22:22:47;49.2
2020-06-17 23:30:17;49.2
2020-06-18 00:24:16;48.8
2020-06-18 01:04:46;48.4
2020-06-18 02:16:46;48.0
2020-06-18 03:28:45;48.0
2020-06-18 04:31:44;47.6
2020-06-18 05:30:13;47.6
2020-06-18 06:19:42;47.6
2020-06-18 07:22:41;48.0
2020-06-18 08:21:10;48.0
2020-06-18 09:28:39;48.0
2020-06-18 10:04:39;47.6
2020-06-18 11:16:40;48.0
2020-06-18 12:19:41;46.8
2020-06-18 12:55:42;46.4
2020-06-18 13:31:43;46.0
2020-06-18 14:52:45;44.8
2020-06-18 15:46:46;44.0
2020-06-18 16:54:18;43.2
2020-06-18 18:01:49;43.2
2020-06-18 19:22:50;43.6
2020-06-18 20:25:51;44.0
2020-06-18 21:42:21;44.4
2020-06-18 22:36:20;44.4
2020-06-18 23:25:50;44.4
2020-06-19 00:06:19;44.0
2020-06-19 01:13:48;44.0
2020-06-19 02:12:17;43.6
2020-06-19 02:48:16;43.2
2020-06-19 04:04:44;42.8
2020-06-19 06:01:42;44.8
2020-06-19 06:19:41;46.8
2020-06-19 07:36:11;46.0
2020-06-19 08:57:09;46.0
2020-06-19 10:18:08;45.2
2020-06-19 11:16:38;44.4
2020-06-19 12:06:09;44.8
2020-06-19 13:18:10;44.8
2020-06-19 14:21:10;44.8
2020-06-19 15:01:40;44.4
2020-06-19 16:09:10;45.2
2020-06-19 17:12:09;45.6
2020-06-19 17:57:08;46.0
2020-06-19 18:55:37;46.0
2020-06-19 19:45:06;46.4
2020-06-19 21:06:05;46.4
2020-06-19 21:46:34;46.4
2020-06-19 23:07:32;46.4
2020-06-20 00:06:01;46.4
2020-06-20 00:55:29;46.4
2020-06-20 01:40:28;46.4
2020-06-20 02:56:55;46.4
2020-06-20 03:32:54;46.0
2020-06-20 04:35:52;46.0
2020-06-20 05:38:50;46.0
2020-06-20 06:37:17;46.0
2020-06-20 07:35:46;46.0
2020-06-20 08:29:44;46.0
2020-06-20 09:23:42;46.4
2020-06-20 10:13:11;46.4
2020-06-20 10:58:09;46.4
2020-06-20 11:52:07;46.4
2020-06-20 12:46:06;46.8
2020-06-20 13:53:34;46.8
2020-06-20 14:38:33;46.8
2020-06-20 15:28:01;47.2
2020-06-20 16:13:00;47.2
2020-06-20 16:57:59;47.6
2020-06-20 17:33:58;48.0
2020-06-20 18:36:56;48.4
2020-06-20 19:39:54;48.8
2020-06-20 20:24:52;48.8
2020-06-20 21:41:19;48.4
2020-06-20 22:44:16;48.0
2020-06-20 23:24:44;48.0
2020-06-21 00:14:12;48.0
2020-06-21 00:50:10;48.0
2020-06-21 01:35:08;48.0
2020-06-21 02:15:36;48.0
2020-06-21 03:36:32;48.0
2020-06-21 04:30:29;48.0
2020-06-21 05:33:26;48.0
2020-06-21 06:18:24;48.4
2020-06-21 07:21:21;48.4
2020-06-21 08:19:48;48.4
2020-06-21 09:36:14;48.4
2020-06-21 10:57:10;48.8
2020-06-21 12:13:36;49.2
2020-06-21 13:25:33;49.6
2020-06-21 14:24:00;49.6
2020-06-21 15:31:26;50.0
2020-06-21 16:25:23;50.4
2020-06-21 17:14:51;50.8
2020-06-21 17:59:48;51.2
2020-06-21 18:44:45;51.2
2020-06-21 19:25:13;51.2
2020-06-21 20:46:08;51.6
2020-06-21 22:02:33;51.6
2020-06-21 22:56:30;51.6
2020-06-21 23:59:26;51.6
2020-06-22 01:11:21;51.6
2020-06-22 02:00:48;51.6
2020-06-22 02:36:46;51.2
2020-06-22 03:53:11;50.8
2020-06-22 04:29:08;50.8
2020-06-22 05:41:03;50.4
2020-06-22 06:17:01;50.8
2020-06-22 06:52:59;50.8
2020-06-22 08:09:25;50.4
2020-06-22 08:58:53;50.8
2020-06-22 09:57:21;50.4
2020-06-22 10:51:20;49.6
2020-06-22 11:36:19;49.6
2020-06-22 12:34:49;49.6
2020-06-22 13:15:18;48.8
2020-06-22 14:36:18;48.4
2020-06-22 15:48:16;49.2
2020-06-22 16:28:46;49.6
2020-06-22 18:48:12;50.8
2020-06-22 19:33:11;51.6
2020-06-22 21:30:07;52.4
2020-06-22 23:18:03;52.4
2020-06-23 00:21:00;52.0
2020-06-23 01:23:58;51.6
2020-06-23 01:59:56;51.6
2020-06-23 02:40:24;51.6
2020-06-23 04:50:49;50.4
2020-06-23 05:35:47;50.4
2020-06-23 07:10:16;47.6
2020-06-23 07:32:45;45.6
2020-06-23 08:31:15;43.6
2020-06-23 08:49:15;41.2
2020-06-23 09:07:15;38.8
2020-06-23 12:11:43;38.0
2020-06-23 13:14:42;39.6
2020-06-23 13:55:12;38.8
2020-06-23 15:56:43;37.6
2020-06-23 16:41:43;37.6
2020-06-23 17:53:44;38.4
2020-06-23 19:46:13;40.4
2020-06-23 22:28:10;43.2
2020-06-24 02:08:35;44.0
2020-06-24 03:29:32;43.6
2020-06-24 04:41:30;43.2
2020-06-24 05:26:28;42.8
2020-06-24 06:24:56;40.0
2020-06-24 07:18:56;39.2
2020-06-24 08:22:00;38.4
2020-06-24 08:58:02;37.6
2020-06-24 09:47:35;37.2
2020-06-24 10:37:07;37.6
2020-06-24 12:38:40;38.4
2020-06-24 13:14:40;38.8
2020-06-24 14:04:11;39.2
2020-06-24 14:44:42;39.2
2020-06-24 15:25:12;40.0
2020-06-24 16:46:13;40.4
2020-06-24 19:14:43;41.2
2020-06-24 20:04:12;41.6
2020-06-24 22:01:10;42.8
2020-06-24 22:50:40;43.2
2020-06-25 00:07:09;43.6
2020-06-25 00:43:07;43.6
2020-06-25 01:59:35;43.6
2020-06-25 04:23:31;43.2
2020-06-25 05:26:30;43.2
2020-06-25 05:57:56;43.2
2020-06-25 07:54:55;43.2
2020-06-25 09:11:23;43.6
2020-06-25 09:47:23;43.2
2020-06-25 10:23:23;44.4
2020-06-25 10:54:53;42.4
2020-06-25 12:56:22;46.8
2020-06-25 13:27:52;44.8
2020-06-25 14:44:21;46.4
2020-06-25 15:20:20;47.2
2020-06-25 15:56:20;47.6
2020-06-25 16:54:49;47.6
2020-06-25 18:15:48;48.0
2020-06-25 18:51:47;48.4
2020-06-25 19:41:16;48.0
2020-06-25 20:39:44;48.0
2020-06-25 21:38:12;48.0
2020-06-25 22:18:41;48.0
2020-06-25 22:59:10;48.0
2020-06-26 00:11:07;47.6
2020-06-26 01:09:35;47.2
2020-06-26 02:30:32;46.4
2020-06-26 03:46:58;46.0
2020-06-26 04:54:25;46.0
2020-06-26 05:30:23;45.2
2020-06-26 05:48:22;44.4
2020-06-26 07:00:20;44.4
2020-06-26 07:40:50;43.6
2020-06-26 08:12:22;43.2
2020-06-26 09:28:58;43.2
2020-06-26 10:27:33;42.8
2020-06-26 11:35:06;43.6
2020-06-26 12:15:38;43.2
2020-06-26 13:05:11;42.8
2020-06-26 14:03:43;42.8
2020-06-26 15:15:46;42.4
2020-06-26 15:51:47;42.4
2020-06-26 16:27:49;43.2
2020-06-26 17:26:21;44.4
2020-06-26 18:06:52;45.6
2020-06-26 19:05:23;46.8
2020-06-26 20:12:54;47.6
2020-06-26 21:15:55;48.0
2020-06-26 22:23:25;48.4
2020-06-26 23:21:56;48.4
2020-06-27 00:20:26;48.8
2020-06-27 01:05:26;48.8
2020-06-27 01:45:56;49.2
2020-06-27 02:21:56;49.6
2020-06-27 03:29:27;49.6
2020-06-27 04:45:56;50.0
2020-06-27 05:53:26;50.4
2020-06-27 06:33:56;49.6
2020-06-27 07:50:27;49.2
2020-06-27 08:40:00;49.2
2020-06-27 09:16:02;48.4
2020-06-27 09:56:36;48.0
2020-06-27 10:37:09;49.2
2020-06-27 11:26:43;49.2
2020-06-27 12:34:17;49.6
2020-06-27 13:28:21;49.2
2020-06-27 14:17:55;48.0
2020-06-27 15:39:01;47.6
2020-06-27 16:28:35;48.8
2020-06-27 17:18:08;49.6
2020-06-27 18:21:13;50.8
2020-06-27 19:28:46;51.6
2020-06-27 20:36:20;52.4
2020-06-27 21:34:52;52.0
2020-06-27 22:46:55;51.6
2020-06-27 23:27:27;51.6
2020-06-28 00:16:58;51.2
2020-06-28 01:06:30;51.2
2020-06-28 02:27:33;51.2
2020-06-28 03:44:06;51.2
2020-06-28 05:00:38;51.2
2020-06-28 05:45:39;50.0
2020-06-28 06:35:11;48.8
2020-06-28 06:48:41;47.6
2020-06-28 07:15:44;46.0
2020-06-28 08:09:52;44.4
2020-06-28 09:08:34;44.4
2020-06-28 10:16:16;45.6
2020-06-28 10:52:22;45.2
2020-06-28 11:46:30;44.8
2020-06-28 12:31:36;44.8
2020-06-28 13:52:46;44.4
2020-06-28 14:46:53;43.2
2020-06-28 15:59:03;45.2
2020-06-28 17:11:12;46.8
2020-06-28 18:00:47;47.6
2020-06-28 18:45:52;48.0
2020-06-28 19:35:27;48.4
2020-06-28 20:16:01;48.8
2020-06-28 21:01:06;49.2
2020-06-28 21:59:41;49.2
2020-06-28 22:53:46;49.2
2020-06-28 23:29:50;49.2
2020-06-29 00:46:25;49.6
2020-06-29 01:49:30;50.0
2020-06-29 02:34:34;50.0
2020-06-29 03:55:40;50.0
2020-06-29 04:31:43;50.4
2020-06-29 05:39:18;51.6
2020-06-29 06:51:21;52.4
2020-06-29 07:09:22;54.4
2020-06-29 08:30:23;55.6
2020-06-29 10:09:26;54.4
2020-06-29 12:38:01;53.2
2020-06-29 13:23:03;53.2
2020-06-29 14:21:36;52.4
2020-06-29 15:38:10;51.2
2020-06-29 16:36:44;50.8
2020-06-29 17:48:48;50.8
2020-06-29 18:29:21;50.8
2020-06-29 19:05:23;50.8
2020-06-29 19:50:25;50.8
2020-06-29 20:53:28;50.8
2020-06-29 21:43:01;50.4
2020-06-29 23:04:05;50.0
2020-06-30 00:20:38;50.0
2020-06-30 01:19:10;49.6
2020-06-30 02:22:12;49.2
2020-06-30 03:16:14;48.8
2020-06-30 04:28:17;48.4
2020-06-30 05:04:18;48.0
2020-06-30 06:11:50;46.4
2020-06-30 06:43:21;44.8
2020-06-30 07:14:54;43.6
2020-06-30 08:00:01;41.6
2020-06-30 09:16:44;40.4
2020-06-30 10:10:53;41.2
2020-06-30 11:05:00;41.6
2020-06-30 12:12:38;42.0
2020-06-30 13:29:17;42.8
2020-06-30 14:50:25;43.2
2020-06-30 15:53:32;43.2
2020-06-30 16:52:08;44.0
2020-06-30 17:50:44;44.8
2020-06-30 18:31:18;45.2
2020-06-30 19:25:22;45.6
2020-06-30 20:37:28;46.0
2020-06-30 21:54:04;46.4
2020-06-30 22:48:07;46.4
2020-06-30 23:28:40;46.8
2020-07-01 00:09:12;46.8
2020-07-01 01:16:47;46.8
2020-07-01 02:10:50;46.4
2020-07-01 02:51:22;46.4
2020-07-01 03:27:24;46.0
2020-07-01 04:43:58;45.6
2020-07-01 05:29:01;45.2
2020-07-01 06:09:33;46.0
2020-07-01 07:26:08;46.8
2020-07-01 07:53:10;48.8
2020-07-01 08:15:42;50.8
2020-07-01 08:29:13;53.6
2020-07-01 08:47:14;51.2
2020-07-01 09:05:15;48.8
2020-07-01 09:18:46;46.0
2020-07-01 09:36:47;44.0
2020-07-01 10:57:55;44.0
2020-07-01 11:33:58;44.4
2020-07-01 12:50:35;44.8
2020-07-01 13:35:39;44.4
2020-07-01 14:25:15;44.8
2020-07-01 15:05:49;45.6
2020-07-01 16:13:26;47.6
2020-07-01 17:34:34;47.2
2020-07-01 18:28:38;46.4
2020-07-01 19:09:11;46.0
2020-07-01 19:45:14;46.0
2020-07-01 21:06:21;46.0
2020-07-01 22:04:55;46.4
2020-07-01 22:54:29;46.8
2020-07-01 23:35:02;46.8
2020-07-02 00:15:35;46.8
2020-07-02 01:32:10;47.2
2020-07-02 02:44:16;47.2
2020-07-02 03:29:19;46.8
2020-07-02 04:14:21;46.8
2020-07-02 04:50:24;46.4
2020-07-02 05:35:27;46.4
2020-07-02 06:11:30;46.4
2020-07-02 07:05:34;46.4
2020-07-02 07:55:09;46.8
2020-07-02 09:02:44;48.0
2020-07-02 10:14:50;47.6
2020-07-02 11:22:26;48.4
2020-07-02 12:07:29;48.8
2020-07-02 12:57:04;48.4
2020-07-02 14:18:12;48.0
2020-07-02 14:58:46;48.0
2020-07-02 15:43:50;48.0
2020-07-02 16:55:57;48.0
2020-07-02 17:36:31;48.0
2020-07-02 18:53:08;48.0
2020-07-02 19:51:43;48.0
2020-07-02 20:36:47;48.0
2020-07-02 21:21:51;47.6
2020-07-02 22:42:58;47.6
2020-07-02 23:59:34;47.6
2020-07-03 00:58:09;48.0
2020-07-03 02:01:14;48.0
2020-07-03 02:50:47;47.6
2020-07-03 03:35:51;47.6
2020-07-03 04:43:26;47.6
2020-07-03 05:55:31;48.4
2020-07-03 06:36:04;48.4
2020-07-03 07:39:08;50.0
2020-07-03 08:24:10;52.4
2020-07-03 09:22:42;50.4
2020-07-03 09:58:43;48.4
2020-07-03 10:21:14;46.0
2020-07-03 11:42:19;46.0
2020-07-03 12:54:24;44.8
2020-07-03 14:01:59;43.6
2020-07-03 14:56:03;42.0
2020-07-03 16:03:38;41.6
2020-07-03 16:39:41;41.2
2020-07-03 17:42:46;41.2
2020-07-03 18:41:21;42.0
2020-07-03 19:30:54;42.4
2020-07-03 20:42:59;42.8
2020-07-03 21:50:34;43.2
2020-07-03 23:02:38;43.6
2020-07-03 23:38:41;44.0
2020-07-04 00:14:43;44.0
2020-07-04 00:55:16;44.0
2020-07-04 02:02:49;44.4
2020-07-04 03:01:23;44.4
2020-07-04 03:59:56;44.0
2020-07-04 05:21:00;43.2
2020-07-04 06:28:35;42.4
2020-07-04 07:45:12;41.6
2020-07-04 09:06:22;41.2
2020-07-04 09:51:27;41.6
2020-07-04 10:41:02;41.6
2020-07-04 11:21:37;41.2
2020-07-04 14:12:53;38.4
2020-07-04 16:50:40;37.2
2020-07-04 17:53:46;38.0
2020-07-04 18:38:50;39.2
2020-07-04 19:55:27;40.0
2020-07-04 20:40:31;40.8
2020-07-04 22:28:39;41.6
2020-07-04 23:22:42;41.6
2020-07-05 00:07:45;41.6
2020-07-05 00:43:48;42.0
2020-07-05 02:00:23;41.6
2020-07-05 02:45:26;41.6
2020-07-05 03:34:58;41.2
2020-07-05 05:45:36;40.8
2020-07-05 06:44:10;40.0
2020-07-05 07:47:17;39.6
2020-07-05 08:59:26;39.6
2020-07-05 09:35:30;39.6
2020-07-05 10:52:09;40.4
2020-07-05 11:41:45;40.8
2020-07-05 12:35:50;40.4
2020-07-05 14:28:32;40.4
2020-07-05 15:27:09;40.8
2020-07-05 16:30:16;41.2
2020-07-05 19:57:39;44.0
2020-07-05 20:51:44;44.8
2020-07-05 21:36:48;44.8
2020-07-05 22:21:52;45.2
2020-07-05 23:38:29;45.6
2020-07-06 00:46:05;45.6
2020-07-06 01:44:40;45.2
2020-07-06 02:29:43;45.2
2020-07-06 03:50:50;45.2
2020-07-06 04:53:55;44.8
2020-07-06 05:29:58;44.8
2020-07-06 06:24:03;46.0
2020-07-06 07:04:37;46.0
2020-07-06 08:07:45;45.6
2020-07-06 08:48:21;44.8
2020-07-06 10:05:01;44.8
2020-07-06 11:03:39;44.0
2020-07-06 12:02:16;43.6
2020-07-06 12:51:52;43.6
2020-07-06 14:13:01;43.2
2020-07-06 15:07:07;42.8
2020-07-06 17:04:18;42.0
2020-07-06 18:16:25;42.4
2020-07-06 19:05:59;42.0
2020-07-06 19:46:33;42.4
2020-07-06 20:27:06;42.4
2020-07-06 21:39:12;42.4
2020-07-06 22:28:46;42.8
2020-07-06 23:27:20;42.4
2020-07-07 00:39:26;42.0
2020-07-07 01:42:30;41.2
2020-07-07 02:18:33;40.8
2020-07-07 03:26:07;39.6
2020-07-07 04:15:40;39.2
2020-07-07 05:00:42;36.8
2020-07-07 05:36:43;36.0
2020-07-07 06:53:15;36.4
2020-07-07 07:38:16;34.4
2020-07-07 08:32:18;34.0
2020-07-07 09:17:19;33.2
2020-07-07 10:33:50;32.0
2020-07-07 11:45:51;32.0
2020-07-07 13:06:52;32.4
2020-07-07 14:14:24;32.8
2020-07-07 15:17:26;33.2
2020-07-07 16:06:58;33.2
2020-07-07 16:56:30;33.2
2020-07-07 17:32:31;33.2
2020-07-07 18:13:03;33.6
2020-07-07 19:29:35;34.8
2020-07-07 20:50:37;35.6
2020-07-07 21:53:38;36.0
2020-07-07 22:43:09;36.0
2020-07-07 23:59:40;36.4
2020-07-08 00:53:41;36.0
2020-07-08 01:38:41;35.6
2020-07-08 02:14:41;35.6
2020-07-08 03:13:11;35.2
2020-07-08 04:02:41;35.2
2020-07-08 04:43:10;34.8
2020-07-08 05:28:10;34.4
2020-07-08 06:22:08;34.8
2020-07-08 06:58:07;36.8
2020-07-08 07:34:05;38.4
2020-07-08 08:55:04;37.6
2020-07-08 09:35:33;36.4
2020-07-08 10:52:02;35.6
2020-07-08 11:28:01;35.6
2020-07-08 12:08:31;36.4
2020-07-08 13:29:32;36.8
2020-07-08 14:41:33;37.2
2020-07-08 15:26:34;36.8
2020-07-08 16:25:05;37.2
2020-07-08 17:01:05;37.6
2020-07-08 17:37:06;38.4
2020-07-08 18:58:07;39.6
2020-07-08 20:05:37;40.4
2020-07-08 20:55:08;41.2
2020-07-08 21:40:08;41.2
2020-07-08 22:20:39;41.6
2020-07-08 22:56:39;41.6
2020-07-08 23:32:39;41.6
2020-07-09 00:49:10;41.6
2020-07-09 01:25:10;42.0
2020-07-09 02:23:40;42.0
2020-07-09 03:31:10;42.0
2020-07-09 04:25:10;42.0
2020-07-09 05:10:12;44.0
2020-07-09 06:04:09;46.0
2020-07-09 06:58:10;47.2
2020-07-09 07:52:12;46.0
2020-07-09 08:59:46;45.2
2020-07-09 09:35:47;44.0
2020-07-09 10:11:49;46.0
2020-07-09 10:25:19;43.6
2020-07-09 11:46:22;42.8
2020-07-09 12:53:55;43.6
2020-07-09 13:56:58;45.6
2020-07-09 14:33:00;47.6
2020-07-09 15:36:03;47.2
2020-07-09 16:34:36;47.2
2020-07-09 17:42:10;47.6
2020-07-09 18:22:42;47.2
2020-07-09 19:30:15;48.0
2020-07-09 20:10:47;48.0
2020-07-09 21:31:50;48.0
2020-07-09 22:21:22;48.0
2020-07-09 23:01:53;47.6
2020-07-10 00:18:25;46.8
2020-07-10 01:07:57;46.4
2020-07-10 02:01:58;46.0
2020-07-10 03:13:59;45.2
2020-07-10 03:54:30;44.8
2020-07-10 04:53:01;44.0
2020-07-10 05:38:02;44.0
2020-07-10 06:09:32;46.0
2020-07-10 07:35:05;47.2
2020-07-10 07:53:06;49.2
2020-07-10 08:33:38;51.2
2020-07-10 08:56:10;49.2
2020-07-10 09:32:13;48.4
2020-07-10 09:45:45;45.6
2020-07-10 10:03:47;43.2
2020-07-10 10:08:17;40.0
2020-07-10 10:53:23;37.2
2020-07-10 11:56:32;32.8
2020-07-10 13:44:46;36.8
2020-07-10 14:20:51;39.6
2020-07-10 14:29:52;42.0
2020-07-10 14:47:54;44.0
2020-07-10 15:10:26;46.4
2020-07-10 15:46:30;48.4
2020-07-10 17:03:09;48.4
2020-07-10 17:43:43;48.0
2020-07-10 20:03:25;51.6
2020-07-10 20:48:28;52.0
2020-07-10 23:21:36;52.8
2020-07-11 01:23:11;53.2
2020-07-11 01:59:13;53.2
2020-07-11 03:02:16;53.2
2020-07-11 04:09:48;54.0
2020-07-11 05:03:52;54.4
2020-07-11 05:53:24;54.0
2020-07-11 08:39:57;50.0
2020-07-11 09:56:29;48.8
2020-07-11 10:41:30;48.4
2020-07-11 12:07:02;48.0
2020-07-11 12:43:02;48.0
2020-07-11 13:41:33;48.8
2020-07-11 16:10:04;48.4
2020-07-11 16:46:04;47.6
2020-07-11 18:07:03;47.2
2020-07-11 22:00:59;45.2
2020-07-11 23:17:27;44.0
2020-07-12 00:38:23;43.6
2020-07-12 01:32:21;43.6
2020-07-12 02:48:47;43.6
2020-07-12 04:45:40;44.0
2020-07-12 06:02:06;44.0
2020-07-12 07:23:01;44.8
2020-07-12 08:25:57;44.8
2020-07-12 09:01:54;46.0
2020-07-12 09:51:22;46.0
2020-07-12 11:03:18;45.6
2020-07-12 11:43:47;43.6
2020-07-12 12:46:44;43.6
2020-07-12 13:13:44;41.6
2020-07-12 14:03:10;40.4
2020-07-12 16:13:36;43.2
2020-07-12 17:30:02;44.0
2020-07-12 18:37:29;44.8
2020-07-12 19:58:24;44.8
2020-07-12 20:43:21;44.0
2020-07-12 22:58:12;42.4
2020-07-12 23:56:38;41.6
2020-07-13 01:39:59;40.4
2020-07-13 02:29:25;40.0
2020-07-13 03:36:49;39.6
2020-07-13 04:57:41;40.0
2020-07-13 05:38:09;40.0
2020-07-13 06:45:35;37.6
2020-07-13 07:30:35;37.6
2020-07-13 07:44:05;35.2
2020-07-13 09:18:38;30.4
2020-07-13 10:35:08;30.8
2020-07-13 11:56:06;31.6
2020-07-13 13:03:33;32.0
2020-07-13 13:53:02;31.2
2020-07-13 14:38:00;30.4
2020-07-13 15:58:57;30.8
2020-07-13 17:01:54;31.2
2020-07-13 18:18:19;33.2
2020-07-13 19:03:15;35.2
2020-07-13 19:48:12;37.2
2020-07-13 20:46:39;39.2
2020-07-13 22:07:35;38.8
2020-07-13 23:28:28;37.6
2020-07-14 00:31:22;37.2
2020-07-14 01:47:44;37.2
2020-07-14 02:28:11;37.6
2020-07-14 03:44:35;38.4
2020-07-14 04:20:32;38.4
2020-07-14 05:05:29;39.2
2020-07-14 05:50:25;38.8
2020-07-14 06:08:24;37.6
2020-07-14 06:48:52;36.4
2020-07-14 07:56:20;34.8
2020-07-14 08:41:21;34.0
2020-07-14 09:30:52;33.6
2020-07-14 10:29:23;34.8
2020-07-14 11:41:22;36.8
2020-07-14 12:57:50;35.2
2020-07-14 13:56:20;34.8
2020-07-14 15:53:19;36.4
2020-07-14 16:29:19;38.4
2020-07-14 17:09:49;40.4
2020-07-14 18:21:49;42.0
2020-07-14 19:33:48;42.8
2020-07-14 20:41:17;43.2
2020-07-14 21:39:46;43.2
2020-07-14 23:00:44;43.2
2020-07-15 00:12:42;42.8
2020-07-15 01:02:10;42.4
2020-07-15 02:18:39;42.0
2020-07-15 03:26:05;41.2
2020-07-15 04:11:03;41.2
2020-07-15 05:09:31;42.0
2020-07-15 05:45:30;41.2
2020-07-15 06:03:29;40.4
2020-07-15 06:30:28;39.2
2020-07-15 06:52:58;38.8
2020-07-15 07:47:00;38.8
2020-07-15 08:54:36;38.0
2020-07-15 09:44:12;39.2
2020-07-15 10:42:47;39.2
2020-07-15 11:09:49;37.2
2020-07-15 12:30:55;36.0
2020-07-15 13:52:00;37.6
2020-07-15 14:32:31;39.2
2020-07-15 15:40:03;40.4
2020-07-15 16:43:06;40.4
2020-07-15 18:04:08;41.6
2020-07-15 19:25:10;42.4
2020-07-15 20:10:11;43.2
2020-07-15 21:17:42;43.6
2020-07-15 22:07:12;44.0
2020-07-15 23:23:42;44.0
2020-07-16 00:13:12;44.4
2020-07-16 01:07:12;44.8
2020-07-16 01:47:42;44.8
2020-07-16 03:04:11;45.2
2020-07-16 04:02:41;45.6
2020-07-16 04:38:41;46.0
2020-07-16 05:01:11;52.8
2020-07-16 05:46:11;50.4
2020-07-16 06:26:40;48.4
2020-07-16 07:43:10;51.2
2020-07-16 08:10:10;49.2
2020-07-16 09:31:10;47.6
2020-07-16 10:34:10;46.0
2020-07-16 11:50:41;45.6
2020-07-16 12:53:42;46.8
2020-07-16 13:56:44;46.0
2020-07-16 15:17:45;46.4
2020-07-16 16:16:16;46.8
2020-07-16 17:10:17;47.2
2020-07-16 18:26:47;47.6
2020-07-16 19:11:47;47.6
2020-07-16 20:10:16;47.6
2020-07-16 20:59:46;47.2
2020-07-16 21:35:45;47.2
2020-07-16 22:11:45;46.8
2020-07-16 23:28:14;46.0
2020-07-17 00:17:43;45.6
2020-07-17 01:07:12;45.6
2020-07-17 01:47:41;45.2
2020-07-17 02:55:10;45.2
2020-07-17 04:02:38;44.8
2020-07-17 04:47:37;44.8
2020-07-17 05:28:06;44.8
2020-07-17 06:04:05;44.8
2020-07-17 06:40:04;45.2
2020-07-17 07:20:33;45.2
2020-07-17 07:56:32;44.8
2020-07-17 09:13:01;45.2
2020-07-17 10:25:01;45.2
2020-07-17 11:10:00;44.8
2020-07-17 11:59:30;44.8
2020-07-17 13:20:29;44.8
2020-07-17 14:36:58;44.4
2020-07-17 15:17:28;44.4
2020-07-17 16:24:57;44.4
2020-07-17 17:05:26;44.4
2020-07-17 18:12:55;45.2
2020-07-17 18:48:55;45.2
2020-07-17 20:00:53;45.2
2020-07-17 20:54:51;44.8
2020-07-17 22:15:49;44.4
2020-07-17 23:18:47;44.4
2020-07-18 00:12:45;44.4
2020-07-18 01:02:13;44.4
2020-07-18 01:38:12;44.4
2020-07-18 02:54:39;44.0
2020-07-18 04:02:06;44.0
2020-07-18 04:56:04;44.0
2020-07-18 05:45:32;44.0
2020-07-18 06:26:00;44.4
2020-07-18 07:10:58;44.4
2020-07-18 08:04:55;44.8
2020-07-18 08:54:23;45.2
2020-07-18 09:48:21;45.2
2020-07-18 10:37:48;45.6
2020-07-18 11:40:45;46.0
2020-07-18 12:39:12;46.4
2020-07-18 13:51:09;46.8
2020-07-18 14:49:36;47.2
2020-07-18 15:25:35;47.6
2020-07-18 16:42:02;48.4
2020-07-18 17:44:59;48.8
2020-07-18 18:38:57;48.8
2020-07-18 19:23:55;48.8
2020-07-18 19:59:53;48.8
2020-07-18 21:16:20;48.4
2020-07-18 22:19:16;48.4
2020-07-18 23:26:43;48.4
2020-07-19 00:29:39;48.4
2020-07-19 01:19:07;48.8
2020-07-19 02:22:03;48.8
2020-07-19 03:11:31;48.8
2020-07-19 03:47:28;48.8
2020-07-19 04:27:56;48.8
2020-07-19 05:48:52;49.2
2020-07-19 06:29:20;49.2
2020-07-19 07:05:18;49.2
2020-07-19 07:41:16;49.6
2020-07-19 08:35:13;49.6
2020-07-19 09:20:10;49.6
2020-07-19 10:32:07;50.0
2020-07-19 11:48:34;49.6
2020-07-19 13:00:33;50.0
2020-07-19 13:41:02;50.0
2020-07-19 14:30:31;51.6
2020-07-19 15:29:00;53.6
2020-07-19 16:31:59;54.8
2020-07-19 17:30:27;56.0
2020-07-19 18:15:26;56.8
2020-07-19 18:55:56;56.4
2020-07-19 19:58:54;56.4
2020-07-19 20:43:53;56.0
2020-07-19 21:24:21;55.6
2020-07-19 22:45:19;54.8
2020-07-20 00:06:16;54.4
2020-07-20 01:00:14;53.6
2020-07-20 02:03:11;52.8
2020-07-20 02:43:40;52.8
2020-07-20 03:33:08;52.4
2020-07-20 04:54:05;52.0
2020-07-20 05:43:33;51.2
2020-07-20 06:42:01;50.4
2020-07-20 06:55:30;49.6
2020-07-20 07:26:59;48.0
2020-07-20 08:25:32;47.6
2020-07-20 09:46:40;47.6
2020-07-20 10:49:45;48.4
2020-07-20 11:25:48;48.8
2020-07-20 12:24:21;48.8
2020-07-20 13:00:24;48.4
2020-07-20 14:16:58;48.4
2020-07-20 15:11:01;48.4
2020-07-20 16:09:34;49.6
2020-07-20 17:17:08;51.2
2020-07-20 18:38:11;52.4
2020-07-20 19:45:43;52.8
2020-07-20 20:57:45;53.2
2020-07-20 21:47:16;53.2
2020-07-20 22:23:17;52.8
2020-07-20 23:30:48;52.8
2020-07-21 00:20:19;52.4
2020-07-21 01:09:49;52.4
2020-07-21 01:54:50;52.0
2020-07-21 02:39:50;51.6
2020-07-21 04:00:51;50.8
2020-07-21 05:08:21;50.4
2020-07-21 05:44:21;49.6
2020-07-21 06:02:21;48.0
2020-07-21 06:29:22;46.4
2020-07-21 06:51:54;45.2
2020-07-21 07:41:27;44.4
2020-07-21 08:35:35;44.4
2020-07-21 09:43:17;44.8
2020-07-21 10:41:56;46.0
2020-07-21 11:36:03;46.8
2020-07-21 12:39:10;46.8
2020-07-21 13:51:18;47.2
2020-07-21 14:45:24;47.2
2020-07-21 15:25:58;47.2
2020-07-21 16:38:05;47.6
2020-07-21 17:36:40;47.6
2020-07-21 18:44:15;48.0
2020-07-21 19:51:50;48.4
2020-07-21 20:27:52;48.8
2020-07-21 21:35:26;49.2
2020-07-21 22:24:59;49.2
2020-07-21 23:28:03;49.6
2020-07-22 00:35:36;49.6
2020-07-22 01:11:38;49.6
2020-07-22 01:52:10;49.6
2020-07-22 02:59:43;49.2
2020-07-22 04:02:45;49.2
2020-07-22 04:52:17;48.8
2020-07-22 05:41:49;48.8
2020-07-22 06:26:51;48.0
2020-07-22 07:38:55;46.8
2020-07-22 08:55:34;46.4
2020-07-22 09:58:43;46.4
2020-07-22 11:06:22;47.2
2020-07-22 11:55:58;47.2
2020-07-22 12:59:06;47.2
2020-07-22 13:53:12;46.8
2020-07-22 14:56:20;46.8
2020-07-22 15:50:26;46.4
2020-07-22 16:26:30;46.8
2020-07-22 17:34:07;46.8
2020-07-22 18:19:13;47.2
2020-07-22 19:26:48;47.6
2020-07-22 20:38:55;48.0
2020-07-22 22:00:01;48.0
2020-07-22 22:54:05;48.4
2020-07-22 23:39:08;48.4
2020-07-23 00:55:43;48.0
2020-07-23 01:49:47;48.0
2020-07-23 02:30:19;48.0
2020-07-23 03:51:24;47.6
2020-07-23 04:49:57;47.2
2020-07-23 05:25:59;46.8
2020-07-23 06:02:01;45.6
2020-07-23 06:33:33;44.4
2020-07-23 07:32:08;45.2
2020-07-23 08:48:48;44.0
2020-07-23 10:10:01;44.8
2020-07-23 11:08:39;45.6
2020-07-23 11:49:15;45.6
2020-07-23 12:34:21;46.0
2020-07-23 13:37:29;45.6
2020-07-23 14:40:38;45.6
2020-07-23 15:39:15;45.6
2020-07-23 16:28:52;45.6
2020-07-23 17:41:01;46.0
2020-07-23 18:44:08;46.8
2020-07-23 19:24:42;46.8
2020-07-23 20:05:16;46.8
2020-07-23 20:50:21;46.8
2020-07-23 21:26:24;46.8
2020-07-23 22:38:30;46.8
2020-07-23 23:37:05;46.8
2020-07-24 00:44:40;46.8
2020-07-24 01:34:14;46.4
2020-07-24 02:23:47;46.4
2020-07-24 02:59:49;46.4
2020-07-24 04:11:54;46.4
2020-07-24 05:10:27;46.0
2020-07-24 06:00:00;45.6
2020-07-24 06:45:03;44.4
2020-07-24 07:03:04;42.8
2020-07-24 07:39:08;42.0
2020-07-24 08:24:16;41.6
2020-07-24 09:00:23;42.0
2020-07-24 09:41:02;42.4
2020-07-24 10:17:12;43.2
2020-07-24 11:33:54;44.0
2020-07-24 12:23:33;44.4
2020-07-24 13:13:11;44.8
2020-07-24 14:02:48;45.6
2020-07-24 15:05:56;46.0
2020-07-24 15:55:32;46.4
2020-07-24 17:07:40;46.8
2020-07-24 18:19:48;46.8
2020-07-24 19:00:22;47.2
2020-07-24 20:16:59;47.2
2020-07-24 20:53:02;47.2
2020-07-24 21:29:06;47.2
2020-07-24 22:45:42;47.2
2020-07-24 23:48:48;47.2
2020-07-25 00:56:23;47.2
2020-07-25 02:08:28;47.2
2020-07-25 03:02:32;47.2
2020-07-25 03:52:06;46.8
2020-07-25 05:13:11;46.8
2020-07-25 06:25:16;46.8
2020-07-25 07:46:21;46.8
2020-07-25 08:31:25;46.4
2020-07-25 09:34:30;45.2
2020-07-25 10:55:40;45.2
2020-07-25 12:03:18;45.2
2020-07-25 13:19:58;45.2
2020-07-25 14:05:03;45.2
2020-07-25 15:17:10;45.2
2020-07-25 16:29:18;45.2
2020-07-25 17:18:52;45.6
2020-07-25 17:54:56;46.0
2020-07-25 18:49:01;46.4
2020-07-25 20:01:07;46.8
2020-07-25 21:17:43;46.8
2020-07-25 22:29:48;46.8
2020-07-25 23:05:50;46.8
2020-07-26 00:17:55;46.4
2020-07-26 01:11:58;46.4
2020-07-26 02:33:02;46.0
2020-07-26 03:36:06;46.0
2020-07-26 04:21:08;46.0
2020-07-26 05:15:11;45.2
2020-07-26 05:51:12;44.4
2020-07-26 06:09:13;43.2
2020-07-26 06:27:14;42.0
2020-07-26 06:49:46;40.8
2020-07-26 07:39:24;40.4
2020-07-26 08:29:04;42.0
2020-07-26 09:41:17;43.6
2020-07-26 10:39:56;44.0
2020-07-26 11:16:01;44.4
2020-07-26 13:04:16;44.8
2020-07-26 14:20:56;44.4
2020-07-26 15:01:32;44.4
2020-07-26 16:09:11;44.8
2020-07-26 17:12:19;45.2
2020-07-26 18:24:27;46.0
2020-07-26 20:44:11;46.4
2020-07-26 21:51:47;46.8
2020-07-26 23:03:53;46.8
2020-07-26 23:53:27;46.8
2020-07-27 01:14:33;46.8
2020-07-27 02:22:08;46.4
2020-07-27 03:11:41;46.4
2020-07-27 04:19:16;45.6
2020-07-27 05:31:20;45.2
2020-07-27 06:11:52;45.2
2020-07-27 06:29:53;44.0
2020-07-27 07:05:56;42.8
2020-07-27 07:51:02;42.0
2020-07-27 08:54:14;42.4
2020-07-27 09:52:55;42.0
2020-07-27 11:00:37;43.6
2020-07-27 11:54:45;44.0
2020-07-27 12:39:52;43.6
2020-07-27 13:20:28;43.6
2020-07-27 14:28:07;43.2
2020-07-27 15:31:16;42.8
2020-07-27 16:07:21;43.2
2020-07-27 16:56:57;44.4
2020-07-27 17:42:03;44.8
2020-07-27 18:40:41;45.2
2020-07-27 19:34:47;45.6
2020-07-27 20:51:25;46.0
2020-07-27 22:03:32;46.4
2020-07-27 23:11:08;46.0
2020-07-28 00:00:42;46.0
2020-07-28 00:36:46;45.6
2020-07-28 01:48:51;45.2
2020-07-28 03:32:29;44.4
2020-07-28 04:53:35;44.4
2020-07-28 05:43:09;44.0
2020-07-28 06:01:10;42.8
2020-07-28 06:41:44;42.0
2020-07-28 07:35:53;41.2
2020-07-28 09:01:42;40.8
2020-07-28 09:37:51;41.2
2020-07-28 10:36:34;43.2
2020-07-28 11:57:50;44.0
2020-07-28 12:33:57;44.4
2020-07-28 13:41:40;44.4
2020-07-28 14:44:51;44.4
2020-07-28 15:39:01;44.4
2020-07-28 16:15:07;45.2
2020-07-28 17:27:19;46.0
2020-07-28 18:21:27;46.4
2020-07-28 19:38:09;46.8
2020-07-28 20:18:45;46.8
2020-07-28 21:26:24;46.8
2020-07-28 22:11:30;47.2
2020-07-28 22:56:36;47.2
2020-07-29 01:02:53;47.6
2020-07-29 01:43:28;47.6
2020-07-29 02:28:34;47.6
2020-07-29 03:49:44;48.0
2020-07-29 05:01:52;48.0
2020-07-29 06:05:00;47.6
2020-07-29 07:26:10;46.8
2020-07-29 07:57:46;46.0
2020-07-29 08:56:26;45.6
2020-07-29 09:41:35;44.4
2020-07-29 10:49:19;44.8
2020-07-29 11:48:01;44.8
2020-07-29 12:33:09;44.8
2020-07-29 13:49:54;44.4
2020-07-29 14:48:35;44.8
2020-07-29 15:38:14;44.8
2020-07-29 16:27:52;45.2
2020-07-29 17:40:05;45.2
2020-07-29 19:01:18;46.0
2020-07-29 20:22:30;46.0
2020-07-29 21:16:38;46.4
2020-07-29 22:24:18;46.0
2020-07-29 23:18:25;46.0
2020-07-30 00:39:36;46.0
2020-07-30 01:24:42;46.0
2020-07-30 02:23:19;46.0
2020-07-30 03:44:29;45.6
2020-07-30 04:38:35;45.2
2020-07-30 05:32:42;44.8
2020-07-30 05:59:45;43.6
2020-07-30 06:22:18;41.6
2020-07-30 06:49:23;41.2
2020-07-30 07:30:04;40.4
2020-07-30 08:24:19;40.0
2020-07-30 09:36:42;41.2
2020-07-30 10:35:28;42.8
2020-07-30 11:43:15;43.2
2020-07-30 13:04:34;43.6
2020-07-30 13:58:46;43.2
2020-07-30 14:39:25;43.2
2020-07-30 15:56:12;43.2
2020-07-30 16:50:23;43.6
2020-07-30 18:07:09;44.0
2020-07-30 19:19:23;44.8
2020-07-30 20:31:36;44.8
2020-07-30 21:07:42;44.8
2020-07-30 22:28:56;45.2
2020-07-30 23:18:34;45.2
2020-07-31 00:39:48;45.2
2020-07-31 01:42:57;45.2
2020-07-31 02:50:38;44.8
2020-07-31 03:44:46;44.8
2020-07-31 04:20:51;44.8
2020-07-31 05:42:02;44.0
2020-07-31 06:00:05;42.8
2020-07-31 06:18:07;41.6
2020-07-31 06:45:13;40.4
2020-07-31 07:30:25;39.6
2020-07-31 08:20:11;39.6
2020-07-31 09:32:35;40.4
2020-07-31 10:13:18;41.2
2020-07-31 10:49:28;42.4
2020-07-31 11:34:40;42.8
2020-07-31 12:15:22;42.8
2020-07-31 13:18:37;42.8
2020-07-31 14:12:50;42.8
2020-07-31 15:07:03;42.8
2020-07-31 15:56:45;43.2
2020-07-31 17:04:32;43.2
2020-07-31 17:45:11;43.6
2020-07-31 18:57:27;44.0
2020-07-31 19:38:06;44.0
2020-07-31 20:54:52;44.4
2020-07-31 21:49:03;44.4
2020-07-31 22:25:10;44.4
2020-07-31 23:28:22;44.4
2020-08-01 00:49:37;44.4
2020-08-01 01:43:47;44.4
2020-08-01 02:19:53;44.4
2020-08-01 03:36:37;44.4
2020-08-01 04:35:16;44.0
2020-08-01 05:24:55;43.6
2020-08-01 05:56:30;42.4
2020-08-01 06:14:33;41.2
2020-08-01 06:41:39;40.0
2020-08-01 07:13:18;39.2
2020-08-01 08:03:06;38.8
2020-08-01 09:15:31;39.2
2020-08-01 10:23:25;40.8
2020-08-01 11:17:41;41.6
2020-08-01 12:30:02;42.0
2020-08-01 13:15:14;42.0
2020-08-01 14:32:05;42.0
2020-08-01 15:08:15;42.0
2020-08-01 16:25:05;42.4
2020-08-01 17:14:47;42.4
2020-08-01 18:27:05;43.2
2020-08-01 19:25:49;43.2
2020-08-01 20:38:05;43.6
2020-08-01 21:18:45;43.6
2020-08-01 22:31:00;44.0
2020-08-01 23:20:41;44.0
2020-08-02 00:37:26;44.0
2020-08-02 01:27:07;44.0
2020-08-02 02:16:47;44.0
2020-08-02 03:33:32;44.0
2020-08-02 04:23:11;44.0
2020-08-02 05:26:23;43.6
2020-08-02 05:57:59;42.8
2020-08-02 06:29:36;41.2
2020-08-02 07:46:27;41.2
2020-08-02 09:07:49;40.8
2020-08-02 09:57:33;41.6
2020-08-02 10:47:16;41.6
2020-08-02 12:08:38;42.4
2020-08-02 12:58:20;42.4
2020-08-02 14:01:36;42.8
2020-08-02 15:04:51;42.8
2020-08-02 16:17:09;43.2
2020-08-02 17:38:27;44.0
2020-08-02 18:46:12;44.0
2020-08-02 19:40:24;44.0
2020-08-02 20:52:39;44.4
2020-08-02 21:37:48;44.4
2020-08-02 22:22:57;44.4
2020-08-02 23:35:11;44.4
2020-08-03 00:42:54;44.4
2020-08-03 01:23:32;44.8
2020-08-03 02:04:09;44.8
2020-08-03 03:11:52;44.8
2020-08-03 04:15:03;44.8
2020-08-03 05:00:11;45.2
2020-08-03 05:36:18;45.2
2020-08-03 06:12:24;45.2
2020-08-03 07:29:08;45.2
2020-08-03 08:36:49;45.2
2020-08-03 09:44:31;45.2
2020-08-03 10:38:40;45.2
2020-08-03 11:46:22;45.2
2020-08-03 12:58:35;45.2
2020-08-03 14:15:18;44.8
2020-08-03 15:13:59;45.2
2020-08-03 16:35:13;45.6
2020-08-03 17:11:19;45.6
2020-08-03 17:47:25;45.6
2020-08-03 19:08:38;45.6
2020-08-03 19:44:43;46.0
2020-08-03 20:56:55;45.6
2020-08-03 22:09:06;45.6
2020-08-03 23:07:45;45.6
2020-08-03 23:57:22;45.6
2020-08-04 00:37:58;45.6
2020-08-04 01:41:07;45.6
2020-08-04 02:44:16;45.2
2020-08-04 03:24:52;45.2
2020-08-04 04:05:28;45.2
2020-08-04 05:22:08;44.8
2020-08-04 06:29:47;44.8
2020-08-04 07:32:56;44.8
2020-08-04 08:49:36;44.4
2020-08-04 09:25:41;44.4
2020-08-04 10:19:49;44.4
2020-08-04 11:13:57;44.8
2020-08-04 12:26:06;44.4
2020-08-04 13:42:47;44.0
2020-08-04 14:45:55;44.0
2020-08-04 15:44:32;44.0
2020-08-04 17:01:11;43.6
2020-08-04 17:41:46;43.6
2020-08-04 19:02:55;43.2
2020-08-04 20:10:33;43.2
2020-08-04 21:00:08;43.2
2020-08-04 21:45:13;43.2
2020-08-04 22:30:17;42.8
2020-08-04 23:51:25;42.8
2020-08-05 00:50:01;42.8
2020-08-05 01:30:34;42.8
2020-08-05 02:06:38;42.8
2020-08-05 02:42:41;42.8
2020-08-05 03:45:47;42.8
2020-08-05 04:35:21;42.8
2020-08-05 05:11:24;42.4
2020-08-05 05:51:57;42.4
2020-08-05 07:13:04;42.4
2020-08-05 07:53:37;42.4
2020-08-05 08:34:11;42.4
2020-08-05 09:23:45;42.4
2020-08-05 10:08:49;42.4
2020-08-05 10:58:23;42.4
2020-08-05 11:34:26;42.0
2020-08-05 12:51:02;42.4
2020-08-05 13:54:08;42.4
2020-08-05 14:57:13;42.4
2020-08-05 15:37:46;42.4
2020-08-05 16:58:53;42.8
2020-08-05 18:01:57;42.8
2020-08-05 19:05:02;43.2
2020-08-05 19:45:35;43.2
2020-08-05 20:53:10;43.2
2020-08-05 21:42:43;43.2
2020-08-05 22:23:16;43.2
2020-08-05 23:35:20;43.2
2020-08-06 00:38:24;43.2
2020-08-06 01:36:57;43.2
2020-08-06 02:12:59;42.8
2020-08-06 03:34:03;42.8
2020-08-06 04:46:06;42.4
2020-08-06 05:26:38;42.0
2020-08-06 05:58:10;41.2
2020-08-06 06:25:12;40.0
2020-08-06 06:56:46;39.2
2020-08-06 07:41:54;38.4
2020-08-06 08:49:37;38.4
2020-08-06 09:57:21;39.6
2020-08-06 10:33:28;40.4
2020-08-06 11:09:34;40.8
2020-08-06 11:54:41;40.8
2020-08-06 12:53:21;41.2
2020-08-06 14:01:01;41.6
2020-08-06 14:41:37;41.6
2020-08-06 16:02:48;42.0
2020-08-06 16:56:56;42.4
2020-08-06 17:42:02;42.8
2020-08-06 18:36:09;43.2
2020-08-06 19:57:19;43.6
2020-08-06 21:04:56;44.4
2020-08-06 22:17:04;44.4
2020-08-06 23:02:08;44.8
2020-08-06 23:42:42;44.8
2020-08-07 00:54:49;44.8
2020-08-07 01:48:54;44.8
2020-08-07 02:24:57;45.2
2020-08-07 03:41:34;44.8
2020-08-07 04:49:09;44.8
2020-08-07 05:52:14;43.6
2020-08-07 06:19:16;42.0
2020-08-07 06:46:20;40.8
2020-08-07 07:22:28;40.0
2020-08-07 08:16:40;39.6
2020-08-07 09:33:30;40.0
2020-08-07 10:09:40;41.2
2020-08-07 10:54:50;42.0
2020-08-07 12:02:34;42.4
2020-08-07 13:14:47;42.4
2020-08-07 13:55:25;42.0
2020-08-07 15:12:09;42.0
2020-08-07 16:01:47;42.0
2020-08-07 16:42:24;42.0
2020-08-07 18:03:38;42.8
2020-08-07 19:15:49;43.2
2020-08-07 20:28:00;43.6
2020-08-07 21:08:36;44.0
2020-08-07 22:11:44;44.0
2020-08-07 22:52:20;44.0
2020-08-08 00:13:30;44.4
2020-08-08 01:16:38;44.4
2020-08-08 01:57:13;44.4
2020-08-08 03:18:23;44.4
2020-08-08 04:16:59;44.0
2020-08-08 05:06:35;44.0
2020-08-08 05:51:40;43.2
2020-08-08 06:18:43;41.6
2020-08-08 06:50:18;40.0
2020-08-08 07:26:27;39.6
2020-08-08 08:11:39;39.2
2020-08-08 09:19:28;39.6
2020-08-08 10:13:43;40.8
2020-08-08 11:07:57;42.0
2020-08-08 11:44:06;42.4
2020-08-08 12:38:18;42.0
2020-08-08 13:32:30;41.6
2020-08-08 14:53:48;42.0
2020-08-08 16:06:03;42.0
2020-08-08 16:42:11;42.4
2020-08-08 17:58:56;42.8
2020-08-08 19:15:41;43.2
2020-08-08 20:09:50;44.0
2020-08-08 20:45:57;44.0
2020-08-08 21:58:09;44.4
2020-08-08 22:43:16;44.4
2020-08-08 23:28:24;44.4
2020-08-09 00:09:00;44.4
2020-08-09 01:07:39;44.8
2020-08-09 01:48:16;44.4
2020-08-09 03:04:57;44.4
2020-08-09 03:45:33;44.4
2020-08-09 04:21:38;44.4
2020-08-09 05:06:45;44.0
2020-08-09 05:51:52;42.8
2020-08-09 06:18:55;41.2
2020-08-09 06:55:03;40.0
2020-08-09 07:40:16;39.2
2020-08-09 08:43:35;39.2
2020-08-09 09:24:18;40.0
2020-08-09 10:14:04;40.8
2020-08-09 11:21:53;42.0
2020-08-09 12:02:33;42.4
2020-08-09 13:19:23;42.4
2020-08-09 13:55:32;42.4
2020-08-09 15:07:51;42.8
2020-08-09 16:02:04;42.8
2020-08-09 17:23:23;43.2
2020-08-09 18:13:05;43.6
2020-08-09 19:11:48;44.0
2020-08-09 20:15:01;44.4
2020-08-09 21:36:18;44.8
2020-08-09 22:12:25;44.8
2020-08-09 23:29:10;45.2
2020-08-10 00:23:20;44.8
2020-08-10 00:59:27;45.2
2020-08-10 02:11:40;45.2
2020-08-10 03:05:50;44.8
2020-08-10 03:55:29;44.8
2020-08-10 05:07:41;44.4
2020-08-10 05:52:49;43.2
2020-08-10 06:19:54;42.0
2020-08-10 06:51:31;40.8
2020-08-10 07:32:14;40.0
2020-08-10 08:12:57;39.6
2020-08-10 09:07:16;39.6
2020-08-10 10:15:10;41.2
2020-08-10 11:23:01;42.4
2020-08-10 11:59:12;42.4
2020-08-10 12:57:58;42.4
2020-08-10 14:01:16;42.4
2020-08-10 14:46:29;42.4
2020-08-10 15:40:43;42.4
2020-08-10 16:25:55;42.4
2020-08-10 17:38:14;42.8
2020-08-10 18:36:58;43.2
2020-08-10 19:17:38;43.2
2020-08-10 20:16:22;43.6
2020-08-10 21:28:39;44.0
2020-08-26 14:51:00;38.0
2020-08-27 13:57:09;35.6
2020-08-31 22:44:44;40.0
2020-09-01 03:46:32;40.8
2020-09-05 16:21:52;41.2
;