Delimiter: 		
File version	v1.0/6.1.1.50
Filename	NOR140_8181956_200515_0014.NBF (NOR140_8181956_200515_0014)
Excitation type: 	Impulse
Bandwith:	1/3 Octave
Lower Freqency:	50 Hz
Upper Freqency:	10 kHz
Full scale	110,00	dB
Sensitivity	-26,1	dB
